participant,list,unit,rep_of_unit,object,pair,trial,name,trial_type,expt,phase,condition,gonogo,cue,answer,trial_start,trial_end,rt,pas,jitter,max_alpha,rep,eyes_1,eyes_2,response,exit_flag
59,1,10,5,89,72,1,sponge,2,practice,name,CFS,go,present,sponge,3024362.67840368,3024369.33651631,6.59554431866854,,NA,1,1,0,1,sponge,Return
59,1,10,5,89,72,1,sponge,2,practice,noise,CFS,go,present,\ENTER,3024547.57764088,3024550.4794305,2.75866353092715,,6,1,1,0,1,Return,OK
59,1,10,5,89,72,1,sponge,2,practice,study,CFS,go,present,j,3023891.28852388,3023910.6005263,19.1376309674233,1,2,0.6,1,0,1,j,OK
59,1,10,5,89,72,1,sponge,2,practice,study,CFS,go,present,j,3024134.58014772,3024142.18490017,7.41770917037502,2,2,0.6,2,0,1,j,OK
59,1,10,5,215,212,2,electrical outlet,12,practice,name,Not Studied,go,absent,electrical outlet,3024369.37935531,3024377.23144344,7.76611461909488,,NA,1,1,0,0,door,Return
59,1,10,5,215,212,2,electrical outlet,12,practice,noise,Not Studied,go,absent,\ENTER,3024554.00164869,3024555.50258124,1.36645981110632,,3,1,1,0,0,Return,OK
59,1,10,5,215,212,2,electrical outlet,12,practice,study,Not Studied,go,absent,f,3023922.70808759,3023946.72307429,NaN,,0,0,1,0,0,NULL,OK
59,1,10,5,215,212,2,electrical outlet,12,practice,study,Not Studied,go,absent,f,3024146.78749262,3024159.79588698,12.8414845550433,0,0,0,2,0,0,f,OK
59,1,10,5,15,145,3,boat,7,practice,name,CFS,nogo,absent,boat,3024377.25175682,3024394.31206974,16.9888005787507,,NA,1,1,0,1,table,Return
59,1,10,5,15,145,3,boat,7,practice,noise,CFS,nogo,absent,\ENTER,3024557.88405129,3024567.89029197,NaN,,0,0,1,0,1,NULL,OK
59,1,10,5,15,145,3,boat,7,practice,study,CFS,nogo,absent,j,3023947.97385826,3023948.77433693,0.690253880340606,0,9,0.6,1,0,1,f,OK
59,1,10,5,15,145,3,boat,7,practice,study,CFS,nogo,absent,j,3024162.78777032,3024168.39125773,5.49671454867348,2,9,0.6,2,0,1,j,OK
59,1,10,5,201,203,4,bellow,4,practice,name,CFS,nogo,present,bellow,3024394.34655543,3024405.85929563,11.4534236821346,,NA,1,1,0,1,,Return
59,1,10,5,201,203,4,bellow,4,practice,noise,CFS,nogo,present,\ENTER,3024570.07164394,3024580.07789941,NaN,,0,0,1,0,1,NULL,OK
59,1,10,5,201,203,4,bellow,4,practice,study,CFS,nogo,present,j,3023952.69676773,3023976.61167048,NaN,,9,0.6,1,0,1,NULL,OK
59,1,10,5,201,203,4,bellow,4,practice,study,CFS,nogo,present,j,3024172.66390416,3024181.06912654,8.26801459351555,3,9,0.6,2,0,1,j,OK
59,1,10,5,3,6,5,balloon,17,practice,name,Binocular,go,absent,balloon,3024405.90570065,3024410.51216518,4.5100000333041,,NA,1,1,1,1,balloon,Return
59,1,10,5,3,6,5,balloon,17,practice,noise,Binocular,go,absent,\ENTER,3024583.68013205,3024586.08163205,2.29422998754308,,5,1,1,1,1,Return,OK
59,1,10,5,3,6,5,balloon,17,practice,study,Binocular,go,absent,NA,3023976.97192432,3023981.87495544,NaN,,0,1,1,1,1,NULL,OK
59,1,10,5,3,6,5,balloon,17,practice,study,Binocular,go,absent,NA,3024184.2608243,3024189.16416964,NaN,,0,1,2,1,1,NULL,OK
59,1,10,5,195,199,6,toilet,18,practice,name,Binocular,nogo,absent,toilet,3024410.52170475,3024414.17447952,3.58187186671421,,NA,1,1,1,1,,Return
59,1,10,5,195,199,6,toilet,18,practice,noise,Binocular,nogo,absent,\ENTER,3024588.58321358,3024598.58937759,NaN,,0,0,1,1,1,NULL,OK
59,1,10,5,195,199,6,toilet,18,practice,study,Binocular,nogo,absent,NA,3023982.22519823,3023987.12823478,NaN,,0,1,1,1,1,NULL,OK
59,1,10,5,195,199,6,toilet,18,practice,study,Binocular,nogo,absent,NA,3024189.46440034,3024194.36741485,NaN,,0,1,2,1,1,NULL,OK
59,1,10,5,56,99,7,clothes pin,5,practice,name,CFS,go,absent,clothes pin,3024414.20955623,3024418.36708977,4.07778984121978,,NA,1,1,0,1,flower,Return
59,1,10,5,56,99,7,clothes pin,5,practice,noise,CFS,go,absent,\ENTER,3024601.27113297,3024603.5725614,2.15043530799448,,1,1,1,0,1,Return,OK
59,1,10,5,56,99,7,clothes pin,5,practice,study,CFS,go,absent,j,3023988.36899502,3023988.86932207,0.333030581008643,2,9,0.6,1,0,1,j,OK
59,1,10,5,56,99,7,clothes pin,5,practice,study,CFS,go,absent,j,3024195.61813785,3024201.32174936,5.52065492328256,3,9,0.6,2,0,1,j,OK
59,1,10,5,203,201,8,bowling pin,9,practice,name,Not Studied,go,present,bowling pin,3024418.39298913,3024423.6002815,5.11806435277686,,NA,1,1,0,0,vase,Return
59,1,10,5,203,201,8,bowling pin,9,practice,noise,Not Studied,go,present,\ENTER,3024607.49499221,3024609.19606971,1.57409840635955,,9,1,1,0,0,Return,OK
59,1,10,5,203,201,8,bowling pin,9,practice,study,Not Studied,go,present,f,3023993.10198226,3024006.61040635,13.3591756443493,0,0,0,1,0,0,f,OK
59,1,10,5,203,201,8,bowling pin,9,practice,study,Not Studied,go,present,f,3024204.97405566,3024215.78081939,10.6760245207697,0,0,0,2,0,0,f,OK
59,1,10,5,19,189,9,bracelet,14,practice,name,Not Studied,nogo,absent,bracelet,3024423.61786227,3024431.32515721,7.63681583059952,,NA,1,1,0,0,beads,Return
59,1,10,5,19,189,9,bracelet,14,practice,noise,Not Studied,nogo,absent,\ENTER,3024611.77766569,3024621.78384359,NaN,,0,0,1,0,0,NULL,OK
59,1,10,5,19,189,9,bracelet,14,practice,study,Not Studied,nogo,absent,f,3024009.3821154,3024028.09376508,18.5337985395454,0,0,0,1,0,0,f,OK
59,1,10,5,19,189,9,bracelet,14,practice,study,Not Studied,nogo,absent,f,3024217.29174428,3024228.39863396,10.9976151082665,0,0,0,2,0,0,f,OK
59,1,10,5,99,56,10,saw,16,practice,name,Binocular,nogo,present,saw,3024431.35992422,3024434.66727187,3.23857064684853,,NA,1,1,1,1,,Return
59,1,10,5,99,56,10,saw,16,practice,noise,Binocular,nogo,present,\ENTER,3024625.82642934,3024635.83263743,NaN,,0,0,1,1,1,NULL,OK
59,1,10,5,99,56,10,saw,16,practice,study,Binocular,nogo,present,NA,3024030.14506968,3024035.04809959,NaN,,0,1,1,1,1,NULL,OK
59,1,10,5,99,56,10,saw,16,practice,study,Binocular,nogo,present,NA,3024229.87954562,3024234.78256648,NaN,,0,1,2,1,1,NULL,OK
59,1,10,5,85,25,11,foot stool,15,practice,name,Binocular,go,present,foot stool,3024434.70423331,3024439.61034236,4.85387868620455,,NA,1,1,1,1,stool,Return
59,1,10,5,85,25,11,foot stool,15,practice,noise,Binocular,go,present,\ENTER,3024639.35487252,3024640.25543211,0.744713078252971,,7,1,1,1,1,Return,OK
59,1,10,5,85,25,11,foot stool,15,practice,study,Binocular,go,present,NA,3024035.38832469,3024040.29137693,NaN,,0,1,1,1,1,NULL,OK
59,1,10,5,85,25,11,foot stool,15,practice,study,Binocular,go,present,NA,3024235.06278625,3024239.96584996,NaN,,0,1,2,1,1,NULL,OK
59,1,10,5,189,19,12,fountain pen,13,practice,name,Not Studied,go,absent,fountain pen,3024439.66499625,3024443.02246253,3.30097264098004,,NA,1,1,0,0,,Return
59,1,10,5,189,19,12,fountain pen,13,practice,noise,Not Studied,go,absent,\ENTER,3024646.06905953,3024647.369842,1.11820018384606,,10,1,1,0,0,Return,OK
59,1,10,5,189,19,12,fountain pen,13,practice,study,Not Studied,go,absent,f,3024040.53153741,3024040.63160595,-0.0241827573627234,3,0,0,1,0,0,j,OK
59,1,10,5,189,19,12,fountain pen,13,practice,study,Not Studied,go,absent,f,3024240.12599266,3024249.73193651,9.4502880978398,1,0,0,2,0,0,j,OK
59,1,10,5,6,3,13,bathtub,3,practice,name,CFS,go,present,bathtub,3024443.0722585,3024446.97492046,3.83759314613417,,NA,1,1,0,1,,Return
59,1,10,5,6,3,13,bathtub,3,practice,noise,CFS,go,present,\ENTER,3024650.7319184,3024652.43294851,1.51907898066565,,5,1,1,0,1,Return,OK
59,1,10,5,6,3,13,bathtub,3,practice,study,CFS,go,present,j,3024047.73603921,3024056.24131353,8.39448205940425,2,10,0.6,1,0,1,j,OK
59,1,10,5,6,3,13,bathtub,3,practice,study,CFS,go,present,j,3024257.41674266,3024262.11967984,4.52688836120069,1,10,0.6,2,0,1,j,OK
59,1,10,5,212,215,14,light switch,1,practice,name,CFS,name,present,light switch,3024447.01602263,3024454.61969206,7.52537248609588,,NA,1,1,0,1,lightswitch,Return
59,1,10,5,212,215,14,light switch,1,practice,name,CFS,name,present,light switch,3024655.54990901,3024662.65939699,7.02852361602709,,NA,1,2,0,1,lightswitch,Return
59,1,10,5,212,215,14,light switch,1,practice,noise,CFS,name,present,light switch,3024653.59070119,3024653.74384799,NaN,,7,1,1,0,1,,
59,1,10,5,212,215,14,light switch,1,practice,study,CFS,name,present,j,3024060.87422739,3024069.87982936,8.83957627927884,2,6,0.6,1,0,1,j,OK
59,1,10,5,212,215,14,light switch,1,practice,study,CFS,name,present,j,3024265.63184773,3024269.23412414,3.43125424254686,3,6,0.6,2,0,1,j,OK
59,1,10,5,145,15,15,router,11,practice,name,Not Studied,nogo,present,router,3024454.64721958,3024462.80478663,8.06166277173907,,NA,1,1,0,0,glasses,Return
59,1,10,5,145,15,15,router,11,practice,noise,Not Studied,nogo,present,\ENTER,3024664.83075571,3024674.83696138,NaN,,0,0,1,0,0,NULL,OK
59,1,10,5,145,15,15,router,11,practice,study,Not Studied,nogo,present,f,3024073.16189371,3024084.26881117,10.9431033893488,0,0,0,1,0,0,f,OK
59,1,10,5,145,15,15,router,11,practice,study,Not Studied,nogo,present,f,3024272.33605871,3024282.54249332,10.1023770738393,0,0,0,2,0,0,f,OK
59,1,10,5,72,89,16,towel,10,practice,name,Not Studied,go,present,towel,3024462.83938612,3024465.74663856,2.82940343907103,,NA,1,1,0,0,blanket,Return
59,1,10,5,72,89,16,towel,10,practice,noise,Not Studied,go,present,\ENTER,3024678.56931987,3024680.07025001,1.35219936119393,,2,1,1,0,0,Return,OK
59,1,10,5,72,89,16,towel,10,practice,study,Not Studied,go,present,f,3024085.93986488,3024101.94982914,15.8920423830859,0,0,0,1,0,0,f,OK
59,1,10,5,72,89,16,towel,10,practice,study,Not Studied,go,present,f,3024283.55304489,3024294.25973554,10.5408810726367,0,0,0,2,0,0,f,OK
59,1,10,5,199,195,17,scroll,6,practice,name,CFS,go,absent,scroll,3024465.77442657,3024470.77975779,4.91812315303832,,NA,1,1,0,1,wall,Return
59,1,10,5,199,195,17,scroll,6,practice,noise,CFS,go,absent,\ENTER,3024683.21216781,3024684.81317948,1.43711007060483,,3,1,1,0,1,Return,OK
59,1,10,5,199,195,17,scroll,6,practice,study,CFS,go,absent,j,3024105.23187689,3024115.13801914,9.79944846546277,0,10,0.6,1,0,1,f,OK
59,1,10,5,199,195,17,scroll,6,practice,study,CFS,go,absent,j,3024296.26096768,3024305.76689338,9.32835859665647,1,10,0.6,2,0,1,j,OK
59,1,10,5,25,85,18,calculator,8,practice,name,Not Studied,name,present,calculator,3024470.79846384,3024481.1062057,10.2134253000841,,NA,1,1,0,0,calculator,Return
59,1,10,5,25,85,18,calculator,8,practice,name,Not Studied,name,present,calculator,3024688.37103883,3024695.22969997,6.78163075167686,,NA,1,2,0,0,calculator,Return
59,1,10,5,25,85,18,calculator,8,practice,noise,Not Studied,name,present,calculator,3024686.76046616,3024686.91451669,NaN,,3,1,1,0,0,,
59,1,10,5,25,85,18,calculator,8,practice,study,Not Studied,name,present,f,3024117.47951049,3024132.88905018,15.2548257000744,0,0,0,1,0,0,f,OK
59,1,10,5,25,85,18,calculator,8,practice,study,Not Studied,name,present,f,3024310.30968545,3024322.81749226,12.3667471688241,0,0,0,2,0,0,f,OK
59,2,10,5,190,93,1,fire hydrant,7,visr,name,CFS,nogo,absent,fire hydrant,3024986.58715268,3024995.19666405,8.54170934017748,,NA,1,1,0,1,,Return
59,2,10,5,190,93,1,fire hydrant,7,visr,noise,CFS,nogo,absent,\ENTER,3025092.20715685,3025102.21340176,NaN,,0,0,1,0,1,NULL,OK
59,2,10,5,190,93,1,fire hydrant,7,visr,study,CFS,nogo,absent,j,3024703.15463339,3024706.15650394,2.90139691671357,1,9,0.6,1,0,1,j,OK
59,2,10,5,190,93,1,fire hydrant,7,visr,study,CFS,nogo,absent,j,3024852.32764141,3024857.33073353,4.86451848363504,2,9,0.6,2,0,1,j,OK
59,2,10,5,196,200,2,faucet,2,visr,name,CFS,go,present,faucet,3024995.23443776,3025004.64258593,9.32587771769613,,NA,1,1,0,1,stool,Return
59,2,10,5,196,200,2,faucet,2,visr,noise,CFS,go,present,\ENTER,3025108.79752057,3025110.49858358,1.53322503063828,,7,1,1,0,1,Return,OK
59,2,10,5,196,200,2,faucet,2,visr,study,CFS,go,present,j,3024710.15898451,3024714.66179124,4.3926160428673,3,7,0.6,1,0,1,j,OK
59,2,10,5,196,200,2,faucet,2,visr,study,CFS,go,present,j,3024860.24254838,3024863.74478401,3.38924652710557,3,7,0.6,2,0,1,j,OK
59,2,10,5,197,194,3,smoking pipe,1,visr,name,CFS,name,present,smoking pipe,3025004.66648405,3025007.61444929,2.87775235204026,,NA,1,1,0,1,,Return
59,2,10,5,197,194,3,smoking pipe,1,visr,name,CFS,name,present,smoking pipe,3025114.22788346,3025125.0876711,10.774073111359,,NA,1,2,0,1,,Return
59,2,10,5,197,194,3,smoking pipe,1,visr,noise,CFS,name,present,smoking pipe,3025112.91617835,3025113.07018692,NaN,,3,1,1,0,1,,
59,2,10,5,197,194,3,smoking pipe,1,visr,study,CFS,name,present,j,3024718.27404006,3024723.47728588,5.0130883785896,3,6,0.6,1,0,1,j,OK
59,2,10,5,197,194,3,smoking pipe,1,visr,study,CFS,name,present,j,3024866.58652091,3024868.5878098,1.86901781195775,3,6,0.6,2,0,1,j,OK
59,2,10,5,52,26,4,deoderant,8,visr,name,Not Studied,name,present,deoderant,3025007.65038415,3025013.25793351,5.50943497614935,,NA,1,1,0,0,clipboard,Return
59,2,10,5,52,26,4,deoderant,8,visr,name,Not Studied,name,present,deoderant,3025126.52488168,3025134.28342568,7.68458519736305,,NA,1,2,0,0,,Return
59,2,10,5,52,26,4,deoderant,8,visr,noise,Not Studied,name,present,deoderant,3025125.17308891,3025125.32783036,NaN,,3,1,1,0,0,,
59,2,10,5,52,26,4,deoderant,8,visr,study,Not Studied,name,present,f,3024726.41882932,3024734.4241373,7.84379247575998,0,0,0,1,0,0,f,OK
59,2,10,5,52,26,4,deoderant,8,visr,study,Not Studied,name,present,f,3024871.01927443,3024877.42331175,6.22785719903186,0,0,0,2,0,0,f,OK
59,2,10,5,61,121,5,wine glass,11,visr,name,Not Studied,nogo,present,wine glass,3025013.36124209,3025021.61317942,8.16615548916161,,NA,1,1,0,0,stool,Return
59,2,10,5,61,121,5,wine glass,11,visr,noise,Not Studied,nogo,present,\ENTER,3025136.28464877,3025146.29087315,NaN,,0,0,1,0,0,NULL,OK
59,2,10,5,61,121,5,wine glass,11,visr,study,Not Studied,nogo,present,f,3024735.34471658,3024744.05010023,8.57344007818028,0,0,0,1,0,0,f,OK
59,2,10,5,61,121,5,wine glass,11,visr,study,Not Studied,nogo,present,f,3024878.90421224,3024889.01048133,9.99815631983802,0,0,0,2,0,0,f,OK
59,2,10,5,44,43,6,crib,10,visr,name,Not Studied,go,present,crib,3025021.63258122,3025027.43680822,5.71051112003624,,NA,1,1,0,0,bed,Return
59,2,10,5,44,43,6,crib,10,visr,noise,Not Studied,go,present,\ENTER,3025154.64610607,3025157.54788633,2.72215667087585,,4,1,1,0,0,Return,OK
59,2,10,5,44,43,6,crib,10,visr,study,Not Studied,go,present,f,3024745.22086824,3024756.82811123,11.4486140552908,0,0,0,1,0,0,f,OK
59,2,10,5,44,43,6,crib,10,visr,study,Not Studied,go,present,f,3024889.62089553,3024897.22560633,7.50506031047553,0,0,0,2,0,0,f,OK
59,2,10,5,205,204,7,cheese grater,15,visr,name,Binocular,go,present,cheese grater,3025027.44865028,3025033.45053048,5.94219815079123,,NA,1,1,1,1,rake,Return
59,2,10,5,205,204,7,cheese grater,15,visr,noise,Binocular,go,present,\ENTER,3025161.15015218,3025163.75175215,2.4658184167929,,7,1,1,1,1,Return,OK
59,2,10,5,205,204,7,cheese grater,15,visr,study,Binocular,go,present,NA,3024757.97879768,3024762.88185354,NaN,,0,1,1,1,1,NULL,OK
59,2,10,5,205,204,7,cheese grater,15,visr,study,Binocular,go,present,NA,3024898.02614838,3024902.92915656,NaN,,0,1,2,1,1,NULL,OK
59,2,10,5,93,190,8,sled,17,visr,name,Binocular,go,absent,sled,3025033.49742238,3025037.95336346,4.37314843386412,,NA,1,1,1,1,sled,Return
59,2,10,5,93,190,8,sled,17,visr,noise,Binocular,go,absent,\ENTER,3025168.34464987,3025169.94566426,1.4549621953629,,9,1,1,1,1,Return,OK
59,2,10,5,93,190,8,sled,17,visr,study,Binocular,go,absent,NA,3024763.22206446,3024768.12511912,NaN,,0,1,1,1,1,NULL,OK
59,2,10,5,93,190,8,sled,17,visr,study,Binocular,go,absent,NA,3024903.25939626,3024908.16245575,NaN,,0,1,2,1,1,NULL,OK
59,2,10,5,88,40,9,soup spoon,14,visr,name,Not Studied,nogo,absent,soup spoon,3025037.97589089,3025041.07529779,3.04640200175345,,NA,1,1,0,0,rake,Return
59,2,10,5,88,40,9,soup spoon,14,visr,noise,Not Studied,nogo,absent,\ENTER,3025171.63665676,3025181.64286363,NaN,,0,0,1,0,0,NULL,OK
59,2,10,5,88,40,9,soup spoon,14,visr,study,Not Studied,nogo,absent,f,3024768.38531377,3024776.29016622,7.73914128821343,0,0,0,1,0,0,f,OK
59,2,10,5,88,40,9,soup spoon,14,visr,study,Not Studied,nogo,absent,f,3024908.42263259,3024914.42633837,5.89455435145646,0,0,0,2,0,0,f,OK
59,2,10,5,16,13,10,book,13,visr,name,Not Studied,go,absent,book,3025041.12820701,3025043.47681168,2.26208964316174,,NA,1,1,0,0,book,Return
59,2,10,5,16,13,10,book,13,visr,noise,Not Studied,go,absent,\ENTER,3025184.12448463,3025186.32584482,2.0182804451324,,8,1,1,0,0,Return,OK
59,2,10,5,16,13,10,book,13,visr,study,Not Studied,go,absent,f,3024777.30085764,3024789.50847873,12.0868980684318,0,0,0,1,0,0,f,OK
59,2,10,5,16,13,10,book,13,visr,study,Not Studied,go,absent,f,3024915.0267557,3024923.03171806,7.90584583673626,0,0,0,2,0,0,f,OK
59,2,10,5,80,50,11,sundial,6,visr,name,CFS,go,absent,sundial,3025043.4963146,3025054.50368147,10.933377886191,,NA,1,1,0,1,sundial,Return
59,2,10,5,80,50,11,sundial,6,visr,noise,CFS,go,absent,\ENTER,3025189.12759909,3025190.92869292,1.61490628123283,,10,1,1,0,1,Return,OK
59,2,10,5,80,50,11,sundial,6,visr,study,CFS,go,absent,j,3024791.35963204,3024795.16197461,3.61170911975205,2,10,0.6,1,0,1,j,OK
59,2,10,5,80,50,11,sundial,6,visr,study,CFS,go,absent,j,3024924.94290598,3024927.54450806,2.41344920638949,3,10,0.6,2,0,1,j,OK
59,2,10,5,133,192,12,guitar,18,visr,name,Binocular,nogo,absent,guitar,3025054.60713825,3025061.65813738,6.99019360169768,,NA,1,1,1,1,guitar,Return
59,2,10,5,133,192,12,guitar,18,visr,noise,Binocular,nogo,absent,\ENTER,3025192.40964201,3025202.41585311,NaN,,0,0,1,1,1,NULL,OK
59,2,10,5,133,192,12,guitar,18,visr,study,Binocular,nogo,absent,NA,3024798.78426255,3024803.68729125,NaN,,0,1,1,1,1,NULL,OK
59,2,10,5,133,192,12,guitar,18,visr,study,Binocular,nogo,absent,NA,3024929.81596009,3024934.71902139,NaN,,0,1,2,1,1,NULL,OK
59,2,10,5,121,61,13,mug,9,visr,name,Not Studied,go,present,mug,3025061.70424237,3025065.66063486,3.88486567372456,,NA,1,1,0,0,teacup,Return
59,2,10,5,121,61,13,mug,9,visr,noise,Not Studied,go,present,\ENTER,3025205.81801717,3025207.21884677,1.25167260831222,,10,1,1,0,0,Return,OK
59,2,10,5,121,61,13,mug,9,visr,study,Not Studied,go,present,f,3024803.89746778,3024813.50344302,9.49696085555479,0,0,0,1,0,0,f,OK
59,2,10,5,121,61,13,mug,9,visr,study,Not Studied,go,present,f,3024934.92913845,3024942.63391418,7.5785237820819,0,0,0,2,0,0,f,OK
59,2,10,5,31,47,14,cell phone,4,visr,name,CFS,nogo,present,cell phone,3025065.69613657,3025069.30290959,3.55668094102293,,NA,1,1,0,1,cellphone,Return
59,2,10,5,31,47,14,cell phone,4,visr,noise,CFS,nogo,present,\ENTER,3025209.01999222,3025219.02619758,NaN,,0,0,1,0,1,NULL,OK
59,2,10,5,31,47,14,cell phone,4,visr,study,CFS,nogo,present,j,3024815.03438759,3024818.83676126,3.64782569184899,3,7,0.6,1,0,1,j,OK
59,2,10,5,31,47,14,cell phone,4,visr,study,CFS,nogo,present,j,3024943.98476489,3024950.18862225,6.05847738217562,3,7,0.6,2,0,1,j,OK
59,2,10,5,122,32,15,fishing lure,12,visr,name,Not Studied,go,absent,fishing lure,3025069.35829304,3025073.66567087,4.21439060615376,,NA,1,1,0,0,fishing hook,Return
59,2,10,5,122,32,15,fishing lure,12,visr,noise,Not Studied,go,absent,\ENTER,3025222.35831176,3025225.96048403,3.41428079409525,,9,1,1,0,0,Return,OK
59,2,10,5,122,32,15,fishing lure,12,visr,study,Not Studied,go,absent,f,3024821.46840736,3024829.4733824,7.85320164356381,0,0,0,1,0,0,f,OK
59,2,10,5,122,32,15,fishing lure,12,visr,study,Not Studied,go,absent,f,3024952.51011292,3024962.21611687,9.60439265565947,0,0,0,2,0,0,f,OK
59,2,10,5,103,11,16,rug,5,visr,name,CFS,go,absent,rug,3025073.67829441,3025076.32728493,2.58224313845858,,NA,1,1,0,1,rug,Return
59,2,10,5,103,11,16,rug,5,visr,noise,CFS,go,absent,\ENTER,3025229.47271622,3025232.17440164,2.57962491922081,,10,1,1,0,1,Return,OK
59,2,10,5,103,11,16,rug,5,visr,study,CFS,go,absent,j,3024831.06439901,3024835.96737036,4.70478357747197,3,7,0.6,1,0,1,j,OK
59,2,10,5,103,11,16,rug,5,visr,study,CFS,go,absent,j,3024963.867185,3024966.66892418,2.67919179936871,3,7,0.6,2,0,1,j,OK
59,2,10,5,137,28,17,flask,3,visr,name,CFS,go,present,flask,3025076.36621713,3025085.77317361,9.33382383454591,,NA,1,1,0,1,table,Return
59,2,10,5,137,28,17,flask,3,visr,noise,CFS,go,present,\ENTER,3025235.0362192,3025239.53898819,4.3277503750287,,7,1,1,0,1,Return,OK
59,2,10,5,137,28,17,flask,3,visr,study,CFS,go,present,j,3024838.95928389,3024843.76226969,4.68154046917334,2,2,0.6,1,0,1,j,OK
59,2,10,5,137,28,17,flask,3,visr,study,CFS,go,present,j,3024969.32054831,3024973.82337707,4.40136175137013,3,2,0.6,2,0,1,j,OK
59,2,10,5,112,37,18,rake,16,visr,name,Binocular,nogo,present,rake,3025085.80540753,3025087.50424985,1.62254692846909,,NA,1,1,1,1,rake,Return
59,2,10,5,112,37,18,rake,16,visr,noise,Binocular,nogo,present,\ENTER,3025242.1406443,3025252.14685359,NaN,,0,0,1,1,1,NULL,OK
59,2,10,5,112,37,18,rake,16,visr,study,Binocular,nogo,present,NA,3024846.24382308,3024851.14687925,NaN,,0,1,1,1,1,NULL,OK
59,2,10,5,112,37,18,rake,16,visr,study,Binocular,nogo,present,NA,3024976.37497038,3024981.27800723,NaN,,0,1,2,1,1,NULL,OK
59,3,10,5,76,113,1,thimble,16,visr,name,Binocular,nogo,present,thimble,3025520.57468429,3025563.35082234,42.6921192938462,,NA,1,1,1,1,thumble,Return
59,3,10,5,76,113,1,thimble,16,visr,noise,Binocular,nogo,present,\ENTER,3025662.5927293,3025672.59893889,NaN,,0,0,1,1,1,NULL,OK
59,3,10,5,76,113,1,thimble,16,visr,study,Binocular,nogo,present,NA,3025256.24940846,3025261.15246432,NaN,,0,1,1,1,1,NULL,OK
59,3,10,5,76,113,1,thimble,16,visr,study,Binocular,nogo,present,NA,3025400.72949638,3025405.63252478,NaN,,0,1,2,1,1,NULL,OK
59,3,10,5,4,34,2,bandana,15,visr,name,Binocular,go,present,bandana,3025563.37310768,3025573.62729558,10.1970881442539,,NA,1,1,1,1,,Return
59,3,10,5,4,34,2,bandana,15,visr,noise,Binocular,go,present,\ENTER,3025677.36192698,3025679.76341943,2.27475936012343,,7,1,1,1,1,Return,OK
59,3,10,5,4,34,2,bandana,15,visr,study,Binocular,go,present,NA,3025261.41262516,3025266.31570065,NaN,,0,1,1,1,1,NULL,OK
59,3,10,5,4,34,2,bandana,15,visr,study,Binocular,go,present,NA,3025405.92272722,3025410.82576558,NaN,,0,1,2,1,1,NULL,OK
59,3,10,5,37,112,3,comb,10,visr,name,Not Studied,go,present,comb,3025573.67590831,3025577.12945816,3.3901176569052,,NA,1,1,0,0,comb,Return
59,3,10,5,37,112,3,comb,10,visr,noise,Not Studied,go,present,\ENTER,3025683.39565504,3025685.69711818,2.10463518928736,,10,1,1,0,0,Return,OK
59,3,10,5,37,112,3,comb,10,visr,study,Not Studied,go,present,f,3025266.57587568,3025274.68090116,7.93823037529364,0,0,0,1,0,0,f,OK
59,3,10,5,37,112,3,comb,10,visr,study,Not Studied,go,present,f,3025411.08595993,3025417.99023827,6.74056751420721,0,0,0,2,0,0,f,OK
59,3,10,5,187,2,4,jacket,1,visr,name,CFS,name,present,jacket,3025577.17213206,3025580.87179148,3.62976710405201,,NA,1,1,0,1,jacket,Return
59,3,10,5,187,2,4,jacket,1,visr,name,CFS,name,present,jacket,3025688.11046476,3025691.91099323,3.74943667836487,,NA,1,2,0,1,jacket,Return
59,3,10,5,187,2,4,jacket,1,visr,noise,CFS,name,present,jacket,3025686.77389834,3025686.92789695,NaN,,1,1,1,0,1,,
59,3,10,5,187,2,4,jacket,1,visr,study,CFS,name,present,j,3025275.96170017,3025283.76657011,7.66393193462864,2,1,0.6,1,0,1,j,OK
59,3,10,5,187,2,4,jacket,1,visr,study,CFS,name,present,j,3025418.85079381,3025423.45363467,4.43144410429522,2,1,0.6,2,0,1,j,OK
59,3,10,5,177,179,5,paper towel,17,visr,name,Binocular,go,absent,paper towel,3025580.96517714,3025586.21510749,5.16445126198232,,NA,1,1,1,1,,Return
59,3,10,5,177,179,5,paper towel,17,visr,noise,Binocular,go,absent,\ENTER,3025693.65208867,3025696.15363066,2.35972651466727,,6,1,1,1,1,Return,OK
59,3,10,5,177,179,5,paper towel,17,visr,study,Binocular,go,absent,NA,3025286.72842965,3025291.63146469,NaN,,0,1,1,1,1,NULL,OK
59,3,10,5,177,179,5,paper towel,17,visr,study,Binocular,go,absent,NA,3025426.49556451,3025431.39861102,NaN,,0,1,2,1,1,NULL,OK
59,3,10,5,162,159,6,electric mixer,18,visr,name,Binocular,nogo,absent,electric mixer,3025586.23519238,3025592.58907393,6.30196149088442,,NA,1,1,1,1,,Return
59,3,10,5,162,159,6,electric mixer,18,visr,noise,Binocular,nogo,absent,\ENTER,3025699.68584994,3025709.69206255,NaN,,0,0,1,1,1,NULL,OK
59,3,10,5,162,159,6,electric mixer,18,visr,study,Binocular,nogo,absent,NA,3025291.99169016,3025296.89474542,NaN,,0,1,1,1,1,NULL,OK
59,3,10,5,162,159,6,electric mixer,18,visr,study,Binocular,nogo,absent,NA,3025431.73879658,3025436.64185667,NaN,,0,1,2,1,1,NULL,OK
59,3,10,5,118,115,7,pillow,8,visr,name,Not Studied,name,present,pillow,3025592.64450658,3025595.85110803,3.15651571005583,,NA,1,1,0,0,,Return
59,3,10,5,118,115,7,pillow,8,visr,name,Not Studied,name,present,pillow,3025711.70971606,3025726.67267131,14.8924402170815,,NA,1,2,0,0,papertowel,Return
59,3,10,5,118,115,7,pillow,8,visr,noise,Not Studied,name,present,pillow,3025710.54959479,3025710.70273796,NaN,,4,1,1,0,0,,
59,3,10,5,118,115,7,pillow,8,visr,study,Not Studied,name,present,f,3025297.14488616,3025306.45070253,9.183505944442,0,0,0,1,0,0,f,OK
59,3,10,5,118,115,7,pillow,8,visr,study,Not Studied,name,present,f,3025436.89207679,3025443.79636661,6.73309529665858,0,0,0,2,0,0,f,OK
59,3,10,5,110,102,8,reclining chair,13,visr,name,Not Studied,go,absent,reclining chair,3025595.90719388,3025604.11628165,8.13348691305146,,NA,1,1,0,0,,Return
59,3,10,5,110,102,8,reclining chair,13,visr,noise,Not Studied,go,absent,\ENTER,3025728.48380124,3025731.38557818,2.72616187622771,,6,1,1,0,0,Return,OK
59,3,10,5,110,102,8,reclining chair,13,visr,study,Not Studied,go,absent,f,3025307.05111081,3025313.75530005,6.52498370781541,0,0,0,1,0,0,f,OK
59,3,10,5,110,102,8,reclining chair,13,visr,study,Not Studied,go,absent,f,3025444.45680467,3025449.1596688,4.56807958101854,0,0,0,2,0,0,f,OK
59,3,10,5,34,4,9,chess board,6,visr,name,CFS,go,absent,chess board,3025604.14648444,3025609.89987983,5.70178442774341,,NA,1,1,0,1,checkerboard,Return
59,3,10,5,34,4,9,chess board,6,visr,noise,CFS,go,absent,\ENTER,3025734.72769496,3025736.22862902,1.36197044374421,,8,1,1,0,1,Return,OK
59,3,10,5,34,4,9,chess board,6,visr,study,CFS,go,absent,j,3025315.53638265,3025320.73960281,5.08727447129786,3,10,0.6,1,0,1,j,OK
59,3,10,5,34,4,9,chess board,6,visr,study,CFS,go,absent,j,3025450.95079686,3025453.05208276,1.92980552930385,3,10,0.6,2,0,1,j,OK
59,3,10,5,59,79,10,car keys,12,visr,name,Not Studied,go,absent,car keys,3025609.95540274,3025613.46204563,3.43677290761843,,NA,1,1,0,0,,Return
59,3,10,5,59,79,10,car keys,12,visr,noise,Not Studied,go,absent,\ENTER,3025738.75020699,3025741.75203769,2.81109643122181,,6,1,1,0,0,Return,OK
59,3,10,5,59,79,10,car keys,12,visr,study,Not Studied,go,absent,f,3025323.69148028,3025333.09731148,9.27556498954073,0,0,0,1,0,0,f,OK
59,3,10,5,59,79,10,car keys,12,visr,study,Not Studied,go,absent,f,3025454.94329476,3025464.04897253,8.93676853086799,0,0,0,2,0,0,f,OK
59,3,10,5,139,14,11,bobby pin,14,visr,name,Not Studied,nogo,absent,bobby pin,3025613.4970831,3025617.20443449,3.63889374351129,,NA,1,1,0,0,,Return
59,3,10,5,139,14,11,bobby pin,14,visr,noise,Not Studied,nogo,absent,\ENTER,3025744.00346369,3025754.00968264,NaN,,0,0,1,0,0,NULL,OK
59,3,10,5,139,14,11,bobby pin,14,visr,study,Not Studied,nogo,absent,f,3025333.68771112,3025341.69266564,7.83882890688255,0,0,0,1,0,0,f,OK
59,3,10,5,139,14,11,bobby pin,14,visr,study,Not Studied,nogo,absent,f,3025464.87948616,3025472.3841426,7.38417067145929,0,0,0,2,0,0,f,OK
59,3,10,5,32,122,12,chain,7,visr,name,CFS,nogo,absent,chain,3025617.24124561,3025620.19630274,2.86257519386709,,NA,1,1,0,1,chain,Return
59,3,10,5,32,122,12,chain,7,visr,noise,CFS,nogo,absent,\ENTER,3025756.86148673,3025766.86769452,NaN,,0,0,1,0,1,NULL,OK
59,3,10,5,32,122,12,chain,7,visr,study,CFS,nogo,absent,j,3025343.32370563,3025348.32679865,4.83451219601557,2,9,0.6,1,0,1,j,OK
59,3,10,5,32,122,12,chain,7,visr,study,CFS,nogo,absent,j,3025473.95514315,3025476.15649247,2.06829525111243,3,9,0.6,2,0,1,j,OK
59,3,10,5,29,86,13,candlestick holder,2,visr,name,CFS,go,present,candlestick holder,3025620.21063231,3025625.11934237,4.8527887170203,,NA,1,1,0,1,candlestick holder,Return
59,3,10,5,29,86,13,candlestick holder,2,visr,noise,CFS,go,present,\ENTER,3025770.14977396,3025772.45117643,2.13802699092776,,8,1,1,0,1,Return,OK
59,3,10,5,29,86,13,candlestick holder,2,visr,study,CFS,go,present,j,3025351.73893694,3025356.54192486,4.62684703804553,3,4,0.6,1,0,1,j,OK
59,3,10,5,29,86,13,candlestick holder,2,visr,study,CFS,go,present,j,3025478.74812666,3025482.15017844,3.2429480291903,3,4,0.6,2,0,1,j,OK
59,3,10,5,23,53,14,bucket,9,visr,name,Not Studied,go,present,bucket,3025625.17062614,3025635.82604419,10.5643662619404,,NA,1,1,0,0,whisk,Return
59,3,10,5,23,53,14,bucket,9,visr,noise,Not Studied,go,present,\ENTER,3025775.26295896,3025779.16535922,3.76044986024499,,9,1,1,0,0,Return,OK
59,3,10,5,23,53,14,bucket,9,visr,study,Not Studied,go,present,f,3025358.76333884,3025365.06722249,6.16998894326389,0,0,0,1,0,0,f,OK
59,3,10,5,23,53,14,bucket,9,visr,study,Not Studied,go,present,f,3025484.50171766,3025492.50668062,7.82485068403184,0,0,0,2,0,0,f,OK
59,3,10,5,98,78,15,scarf,11,visr,name,Not Studied,nogo,present,scarf,3025635.8407073,3025640.79918103,4.88598703453317,,NA,1,1,0,0,jacket,Return
59,3,10,5,98,78,15,scarf,11,visr,noise,Not Studied,nogo,present,\ENTER,3025781.21667921,3025791.22287703,NaN,,0,0,1,0,0,NULL,OK
59,3,10,5,98,78,15,scarf,11,visr,study,Not Studied,nogo,present,f,3025365.96784909,3025374.37306543,8.28498532576486,0,0,0,1,0,0,f,OK
59,3,10,5,98,78,15,scarf,11,visr,study,Not Studied,nogo,present,f,3025493.16712291,3025498.8706502,5.59111773595214,0,0,0,2,0,0,f,OK
59,3,10,5,68,73,16,vase,4,visr,name,CFS,nogo,present,vase,3025640.86480101,3025645.67218382,4.75755605520681,,NA,1,1,0,1,vase,Return
59,3,10,5,68,73,16,vase,4,visr,noise,CFS,nogo,present,\ENTER,3025794.66505692,3025804.6712641,NaN,,0,0,1,0,1,NULL,OK
59,3,10,5,68,73,16,vase,4,visr,study,CFS,nogo,present,j,3025375.97405597,3025379.07602253,2.91043934086338,3,6,0.6,1,0,1,j,OK
59,3,10,5,68,73,16,vase,4,visr,study,CFS,nogo,present,j,3025500.17145803,3025502.77308124,2.42658316390589,3,6,0.6,2,0,1,j,OK
59,3,10,5,198,193,17,chest,5,visr,name,CFS,go,absent,chest,3025645.72893434,3025654.887927,9.07697123335674,,NA,1,1,0,1,book,Return
59,3,10,5,198,193,17,chest,5,visr,noise,CFS,go,absent,\ENTER,3025807.69317183,3025810.49490135,2.63256190344691,,9,1,1,0,1,Return,OK
59,3,10,5,198,193,17,chest,5,visr,study,CFS,go,absent,j,3025381.50751795,3025390.01277899,8.39241863507777,2,2,0.6,1,0,1,j,OK
59,3,10,5,198,193,17,chest,5,visr,study,CFS,go,absent,j,3025505.04450157,3025509.34717874,4.11310289753601,2,2,0.6,2,0,1,j,OK
59,3,10,5,170,172,18,notebook,3,visr,name,CFS,go,present,notebook,3025654.91157368,3025657.8097342,2.82229192880914,,NA,1,1,0,1,book,Return
59,3,10,5,170,172,18,notebook,3,visr,noise,CFS,go,present,\ENTER,3025813.41673632,3025815.01770845,1.42071646964177,,6,1,1,0,1,Return,OK
59,3,10,5,170,172,18,notebook,3,visr,study,CFS,go,present,j,3025396.106615,3025398.50808391,2.24894180055708,3,9,0.6,1,0,1,j,OK
59,3,10,5,170,172,18,notebook,3,visr,study,CFS,go,present,j,3025512.40912223,3025514.41034592,1.84430108778179,3,9,0.6,2,0,1,j,OK
59,4,10,5,74,58,1,car wheel,13,visr,name,Not Studied,go,absent,car wheel,3026080.69786525,3026084.70584879,3.90928990812972,,NA,1,1,0,0,wheel,Return
59,4,10,5,74,58,1,car wheel,13,visr,noise,Not Studied,go,absent,\ENTER,3026179.27477415,3026180.57557232,1.12742915004492,,8,1,1,0,0,Return,OK
59,4,10,5,74,58,1,car wheel,13,visr,study,Not Studied,go,absent,f,3025818.17971113,3025826.68498213,8.31311986129731,0,0,0,1,0,0,f,OK
59,4,10,5,74,58,1,car wheel,13,visr,study,Not Studied,go,absent,f,3025951.83301745,3025960.13816705,8.10873909853399,0,0,0,2,0,0,f,OK
59,4,10,5,181,184,2,clipboard,18,visr,name,Binocular,nogo,absent,clipboard,3026084.75376758,3026089.25871439,4.45315503841266,,NA,1,1,1,1,ruler,Return
59,4,10,5,181,184,2,clipboard,18,visr,noise,Binocular,nogo,absent,\ENTER,3026183.02712154,3026193.03338063,NaN,,0,0,1,1,1,NULL,OK
59,4,10,5,181,184,2,clipboard,18,visr,study,Binocular,nogo,absent,NA,3025827.71565519,3025832.61870623,NaN,,0,1,1,1,1,NULL,OK
59,4,10,5,181,184,2,clipboard,18,visr,study,Binocular,nogo,absent,NA,3025960.97868569,3025965.88175122,NaN,,0,1,2,1,1,NULL,OK
59,4,10,5,144,140,3,marker,14,visr,name,Not Studied,nogo,absent,marker,3026089.3128971,3026093.77149504,4.39785972516984,,NA,1,1,0,0,ax,Return
59,4,10,5,144,140,3,marker,14,visr,noise,Not Studied,nogo,absent,\ENTER,3026194.75443858,3026204.76065602,NaN,,0,0,1,0,0,NULL,OK
59,4,10,5,144,140,3,marker,14,visr,study,Not Studied,nogo,absent,f,3025832.77880607,3025839.58301647,6.67340449057519,0,0,0,1,0,0,f,OK
59,4,10,5,144,140,3,marker,14,visr,study,Not Studied,nogo,absent,f,3025966.141935,3025973.24633083,6.98324267333373,0,0,0,2,0,0,f,OK
59,4,10,5,50,80,4,dresser,6,visr,name,CFS,go,absent,dresser,3026093.81737786,3026097.72395689,3.82120890263468,,NA,1,1,0,1,wood,Return
59,4,10,5,50,80,4,dresser,6,visr,noise,CFS,go,absent,\ENTER,3026207.06211735,3026209.06333259,1.82660743221641,,2,1,1,0,1,Return,OK
59,4,10,5,50,80,4,dresser,6,visr,study,CFS,go,absent,j,3025841.24408388,3025847.24779267,5.8797593312338,2,8,0.6,1,0,1,j,OK
59,4,10,5,50,80,4,dresser,6,visr,study,CFS,go,absent,j,3025975.11751228,3025980.22068834,4.92725945124403,2,8,0.6,2,0,1,j,OK
59,4,10,5,26,52,5,camera,1,visr,name,CFS,name,present,camera,3026097.74364213,3026101.2461636,3.42274970933795,,NA,1,1,0,1,cable,Return
59,4,10,5,26,52,5,camera,1,visr,name,CFS,name,present,camera,3026211.31382407,3026218.21907165,6.83833961328492,,NA,1,2,0,1,cable,Return
59,4,10,5,26,52,5,camera,1,visr,noise,CFS,name,present,camera,3026210.17966887,3026210.33414862,NaN,,9,1,1,0,1,,
59,4,10,5,26,52,5,camera,1,visr,study,CFS,name,present,j,3025850.96011064,3025856.96384751,5.81915604276583,3,4,0.6,1,0,1,j,OK
59,4,10,5,26,52,5,camera,1,visr,study,CFS,name,present,j,3025982.64219444,3025985.44396712,2.67437130585313,3,4,0.6,2,0,1,j,OK
59,4,10,5,179,177,6,elastic bandage,9,visr,name,Not Studied,go,present,elastic bandage,3026101.27299869,3026107.07972257,5.75696111517027,,NA,1,1,0,0,papertowel,Return
59,4,10,5,179,177,6,elastic bandage,9,visr,noise,Not Studied,go,present,\ENTER,3026220.59056294,3026222.89195032,2.1052965358831,,10,1,1,0,0,Return,OK
59,4,10,5,179,177,6,elastic bandage,9,visr,study,Not Studied,go,present,f,3025859.03516938,3025866.84000943,7.64752746699378,0,0,0,1,0,0,f,OK
59,4,10,5,179,177,6,elastic bandage,9,visr,study,Not Studied,go,present,f,3025986.93491972,3025993.33886075,6.27720492286608,0,0,0,2,0,0,f,OK
59,4,10,5,207,206,7,hatchet,7,visr,name,CFS,nogo,absent,hatchet,3026107.13600673,3026114.39433687,7.16566740255803,,NA,1,1,0,1,hockey stick,Return
59,4,10,5,207,206,7,hatchet,7,visr,noise,CFS,nogo,absent,\ENTER,3026225.0433132,3026235.04956415,NaN,,0,0,1,0,1,NULL,OK
59,4,10,5,207,206,7,hatchet,7,visr,study,CFS,nogo,absent,j,3025868.93131627,3025877.33655313,8.27890190575272,1,9,0.6,1,0,1,j,OK
59,4,10,5,207,206,7,hatchet,7,visr,study,CFS,nogo,absent,j,3025994.98989719,3026004.79600681,9.62960863485932,1,9,0.6,2,0,1,j,OK
59,4,10,5,161,163,8,pen,12,visr,name,Not Studied,go,absent,pen,3026114.407287,3026121.15855951,6.67001263843849,,NA,1,1,0,0,glasses,Return
59,4,10,5,161,163,8,pen,12,visr,noise,Not Studied,go,absent,\ENTER,3026238.97199767,3026241.27345599,2.11501358775422,,5,1,1,0,0,Return,OK
59,4,10,5,161,163,8,pen,12,visr,study,Not Studied,go,absent,f,3025879.85815616,3025887.36280113,7.35954208625481,0,0,0,1,0,0,f,OK
59,4,10,5,161,163,8,pen,12,visr,study,Not Studied,go,absent,f,3026006.72724611,3026014.33190469,7.49967415630817,0,0,0,2,0,0,f,OK
59,4,10,5,157,33,9,axe,16,visr,name,Binocular,nogo,present,axe,3026121.26303291,3026125.17106925,3.82212712056935,,NA,1,1,1,1,book,Return
59,4,10,5,157,33,9,axe,16,visr,noise,Binocular,nogo,present,\ENTER,3026243.60489433,3026253.61110573,NaN,,0,0,1,1,1,NULL,OK
59,4,10,5,157,33,9,axe,16,visr,study,Binocular,nogo,present,NA,3025888.15332398,3025893.05634755,NaN,,0,1,1,1,1,NULL,OK
59,4,10,5,157,33,9,axe,16,visr,study,Binocular,nogo,present,NA,3026015.31259344,3026020.21562727,NaN,,0,1,2,1,1,NULL,OK
59,4,10,5,117,135,10,airplane,11,visr,name,Not Studied,nogo,present,airplane,3026125.27022683,3026134.82709069,9.46229888312519,,NA,1,1,0,0,skateboard,Return
59,4,10,5,117,135,10,airplane,11,visr,noise,Not Studied,nogo,present,\ENTER,3026256.09268145,3026266.09889497,NaN,,0,0,1,0,0,NULL,OK
59,4,10,5,117,135,10,airplane,11,visr,study,Not Studied,nogo,present,f,3025893.25650246,3025900.66108854,7.20841615274549,0,0,0,1,0,0,f,OK
59,4,10,5,117,135,10,airplane,11,visr,study,Not Studied,nogo,present,f,3026020.40576509,3026026.10929148,5.60449166130275,0,0,0,2,0,0,f,OK
59,4,10,5,123,62,11,helmet,17,visr,name,Binocular,go,absent,helmet,3026134.83955515,3026138.38929301,3.45280882017687,,NA,1,1,1,1,balloon,Return
59,4,10,5,123,62,11,helmet,17,visr,noise,Binocular,go,absent,\ENTER,3026269.58107378,3026270.88186683,1.10424278862774,,5,1,1,1,1,Return,OK
59,4,10,5,123,62,11,helmet,17,visr,study,Binocular,go,absent,NA,3025901.97195783,3025906.87498985,NaN,,0,1,1,1,1,NULL,OK
59,4,10,5,123,62,11,helmet,17,visr,study,Binocular,go,absent,NA,3026026.84978625,3026031.75284543,NaN,,0,1,2,1,1,NULL,OK
59,4,10,5,124,100,12,magnifying glass,2,visr,name,CFS,go,present,magnifying glass,3026138.48620273,3026142.54187083,3.97397929755971,,NA,1,1,0,1,book,Return
59,4,10,5,124,100,12,magnifying glass,2,visr,noise,CFS,go,present,\ENTER,3026273.94380971,3026276.94564554,2.90119135892019,,1,1,1,0,1,Return,OK
59,4,10,5,124,100,12,magnifying glass,2,visr,study,CFS,go,present,j,3025908.23580965,3025910.63733863,2.22866614814848,3,10,0.6,1,0,1,j,OK
59,4,10,5,124,100,12,magnifying glass,2,visr,study,CFS,go,present,j,3026033.05365115,3026034.85473865,1.67626599827781,3,10,0.6,2,0,1,j,OK
59,4,10,5,208,202,13,hockey stick,4,visr,name,CFS,nogo,present,hockey stick,3026142.56519755,3026146.91462626,4.28678644541651,,NA,1,1,0,1,hockey stick,Return
59,4,10,5,208,202,13,hockey stick,4,visr,noise,CFS,nogo,present,\ENTER,3026279.45725744,3026289.46345133,NaN,,0,0,1,0,1,NULL,OK
59,4,10,5,208,202,13,hockey stick,4,visr,study,CFS,nogo,present,j,3025913.50913524,3025916.61108339,2.97902889270335,3,9,0.6,1,0,1,j,OK
59,4,10,5,208,202,13,hockey stick,4,visr,study,CFS,nogo,present,j,3026038.18682052,3026040.58831811,2.23079416807741,3,9,0.6,2,0,1,j,OK
59,4,10,5,111,125,14,child's rattle,15,visr,name,Binocular,go,present,child's rattle,3026146.95741696,3026154.4593266,7.43013016553596,,NA,1,1,1,1,hand mirror,Return
59,4,10,5,111,125,14,child's rattle,15,visr,noise,Binocular,go,present,\ENTER,3026292.04504641,3026295.24706341,3.09497941285372,,5,1,1,1,1,Return,OK
59,4,10,5,111,125,14,child's rattle,15,visr,study,Binocular,go,present,NA,3025918.72238275,3025923.62543138,NaN,,0,1,1,1,1,NULL,OK
59,4,10,5,111,125,14,child's rattle,15,visr,study,Binocular,go,present,NA,3026042.33943426,3026047.24246749,NaN,,0,1,2,1,1,NULL,OK
59,4,10,5,176,154,15,paper clip,8,visr,name,Not Studied,name,present,paper clip,3026154.49360583,3026162.70446362,8.14158395305276,,NA,1,1,0,0,paperclip,Return
59,4,10,5,176,154,15,paper clip,8,visr,name,Not Studied,name,present,paper clip,3026297.3651999,3026314.17888316,16.7578186620958,,NA,1,2,0,0,paperclip,Return
59,4,10,5,176,154,15,paper clip,8,visr,noise,Not Studied,name,present,paper clip,3026296.45391328,3026296.60793181,NaN,,1,1,1,0,0,,
59,4,10,5,176,154,15,paper clip,8,visr,study,Not Studied,name,present,f,3025923.83556474,3025930.53971323,6.50776365026832,0,0,0,1,0,0,f,OK
59,4,10,5,176,154,15,paper clip,8,visr,study,Not Studied,name,present,f,3026047.50266425,3026053.80655424,6.19425018085167,0,0,0,2,0,0,f,OK
59,4,10,5,79,59,16,glasses,5,visr,name,CFS,go,absent,glasses,3026162.74061279,3026165.69633157,2.87034744676203,,NA,1,1,0,1,glasses,Return
59,4,10,5,79,59,16,glasses,5,visr,noise,CFS,go,absent,\ENTER,3026315.46971677,3026316.87056085,1.29316778853536,,2,1,1,0,1,Return,OK
59,4,10,5,79,59,16,glasses,5,visr,study,CFS,go,absent,j,3025931.82054725,3025934.02189204,2.03468129038811,3,3,0.6,1,0,1,j,OK
59,4,10,5,79,59,16,glasses,5,visr,study,CFS,go,absent,j,3026054.77716553,3026056.47825903,1.52760645467788,3,3,0.6,2,0,1,j,OK
59,4,10,5,193,198,17,razor,3,visr,name,CFS,go,present,razor,3026165.76470982,3026171.01967468,5.18192728562281,,NA,1,1,0,1,ax,Return
59,4,10,5,193,198,17,razor,3,visr,noise,CFS,go,present,\ENTER,3026320.47280798,3026330.37898011,NaN,,2,1,1,0,1,NULL,OK
59,4,10,5,193,198,17,razor,3,visr,study,CFS,go,present,j,3025936.88366583,3025942.88743379,5.83511890796945,1,9,0.6,1,0,1,j,OK
59,4,10,5,193,198,17,razor,3,visr,study,CFS,go,present,j,3026059.00983749,3026069.21615973,10.0702391443774,1,9,0.6,2,0,1,j,OK
59,4,10,5,53,23,18,floss,10,visr,name,Not Studied,go,present,floss,3026171.05405231,3026174.962114,3.82840975932777,,NA,1,1,0,0,jacket,Return
59,4,10,5,53,23,18,floss,10,visr,noise,Not Studied,go,present,\ENTER,3026334.10130763,3026337.90364054,3.66059079254046,,2,1,1,0,0,Return,OK
59,4,10,5,53,23,18,floss,10,visr,study,Not Studied,go,present,f,3025945.54907953,3025951.05255062,5.36124450247735,0,0,0,1,0,0,f,OK
59,4,10,5,53,23,18,floss,10,visr,study,Not Studied,go,present,f,3026071.22744699,3026078.43193702,7.06813285732642,0,0,0,2,0,0,f,OK
59,5,10,5,20,71,1,briefcase,4,visr,name,CFS,nogo,present,briefcase,3026590.28663311,3026597.29535014,6.94939810223877,,NA,1,1,0,1,shoe,Return
59,5,10,5,20,71,1,briefcase,4,visr,noise,CFS,nogo,present,\ENTER,3026702.95118534,3026712.95742089,NaN,,0,0,1,0,1,NULL,OK
59,5,10,5,20,71,1,briefcase,4,visr,study,CFS,nogo,present,j,3026343.76732804,3026351.87234779,8.0017144898884,1,10,0.6,1,0,1,j,OK
59,5,10,5,20,71,1,briefcase,4,visr,study,CFS,nogo,present,j,3026482.80398975,3026486.6063619,3.60594777017832,1,10,0.6,2,0,1,j,OK
59,5,10,5,202,208,2,zip tie,6,visr,name,CFS,go,absent,zip tie,3026597.34134978,3026599.99700176,2.59855584381148,,NA,1,1,0,1,needle,Return
59,5,10,5,202,208,2,zip tie,6,visr,noise,CFS,go,absent,\ENTER,3026715.569079,3026717.27011092,1.51678253058344,,5,1,1,0,1,Return,OK
59,5,10,5,202,208,2,zip tie,6,visr,study,CFS,go,absent,j,3026356.14504131,3026360.44769523,4.17568358499557,2,6,0.6,1,0,1,j,OK
59,5,10,5,202,208,2,zip tie,6,visr,study,CFS,go,absent,j,3026489.70828319,3026493.81085073,3.94937274698168,2,6,0.6,2,0,1,j,OK
59,5,10,5,125,111,3,cork screw,11,visr,name,Not Studied,nogo,present,cork screw,3026600.04556558,3026614.60613703,14.501691096928,,NA,1,1,0,0,corkscrew,Return
59,5,10,5,125,111,3,cork screw,11,visr,noise,Not Studied,nogo,present,\ENTER,3026719.22135602,3026729.22755777,NaN,,0,0,1,0,0,NULL,OK
59,5,10,5,125,111,3,cork screw,11,visr,study,Not Studied,nogo,present,f,3026362.76916991,3026370.17375388,7.23101602541283,0,0,0,1,0,0,f,OK
59,5,10,5,125,111,3,cork screw,11,visr,study,Not Studied,nogo,present,f,3026497.40309375,3026502.60630395,5.04610407864675,0,0,0,2,0,0,f,OK
59,5,10,5,188,186,4,vinyl record,2,visr,name,CFS,go,present,vinyl record,3026614.65332625,3026617.45791969,2.7256849585101,,NA,1,1,0,1,record,Return
59,5,10,5,188,186,4,vinyl record,2,visr,noise,CFS,go,present,\ENTER,3026733.43022102,3026734.93111736,1.31057891529053,,5,1,1,0,1,Return,OK
59,5,10,5,188,186,4,vinyl record,2,visr,study,CFS,go,present,j,3026371.06433713,3026375.46706112,4.21543771261349,3,2,0.6,1,0,1,j,OK
59,5,10,5,188,186,4,vinyl record,2,visr,study,CFS,go,present,j,3026503.73702232,3026505.43809802,1.59991566417739,3,2,0.6,2,0,1,j,OK
59,5,10,5,62,123,5,watering pot,1,visr,name,CFS,name,present,watering pot,3026617.54877256,3026622.9013118,5.26203470677137,,NA,1,1,0,1,show,Return
59,5,10,5,62,123,5,watering pot,1,visr,name,CFS,name,present,watering pot,3026736.68617804,3026752.6922177,15.9417601712048,,NA,1,2,0,1,grader,Return
59,5,10,5,62,123,5,watering pot,1,visr,noise,CFS,name,present,watering pot,3026735.74748645,3026735.90173891,NaN,,3,1,1,0,1,,
59,5,10,5,62,123,5,watering pot,1,visr,study,CFS,name,present,j,3026378.53901807,3026385.4432768,6.78030594578013,1,4,0.6,1,0,1,j,OK
59,5,10,5,62,123,5,watering pot,1,visr,study,CFS,name,present,j,3026508.38991663,3026511.39177993,2.81886596791446,2,4,0.6,2,0,1,j,OK
59,5,10,5,191,60,6,hose,10,visr,name,Not Studied,go,present,hose,3026622.91694987,3026633.12768844,10.1332988627255,,NA,1,1,0,0,papertowel,Return
59,5,10,5,191,60,6,hose,10,visr,noise,Not Studied,go,present,\ENTER,3026754.77351379,3026757.67530552,2.75819083908573,,5,1,1,0,0,Return,OK
59,5,10,5,191,60,6,hose,10,visr,study,Not Studied,go,present,f,3026387.24443342,3026392.74782361,5.30647893017158,0,0,0,1,0,0,f,OK
59,5,10,5,191,60,6,hose,10,visr,study,Not Studied,go,present,f,3026513.03285844,3026518.0359409,4.80743684060872,0,0,0,2,0,0,f,OK
59,5,10,5,156,150,7,ice tray,13,visr,name,Not Studied,go,absent,ice tray,3026633.15710642,3026640.56232578,7.34078351594508,,NA,1,1,0,0,,Return
59,5,10,5,156,150,7,ice tray,13,visr,noise,Not Studied,go,absent,\ENTER,3026760.04681463,3026763.34883437,3.14059268822894,,3,1,1,0,0,Return,OK
59,5,10,5,156,150,7,ice tray,13,visr,study,Not Studied,go,absent,f,3026393.41826004,3026399.82224967,6.22836309392005,0,0,0,1,0,0,f,OK
59,5,10,5,156,150,7,ice tray,13,visr,study,Not Studied,go,absent,f,3026518.77641212,3026523.27921794,4.3836285546422,0,0,0,2,0,0,f,OK
59,5,10,5,8,153,8,bed,9,visr,name,Not Studied,go,present,bed,3026640.60296764,3026653.31024356,12.6302322498523,,NA,1,1,0,0,drawers,Return
59,5,10,5,8,153,8,bed,9,visr,noise,Not Studied,go,present,\ENTER,3026766.43078729,3026768.73218191,2.10822927905247,,6,1,1,0,0,Return,OK
59,5,10,5,8,153,8,bed,9,visr,study,Not Studied,go,present,f,3026400.41261339,3026406.71653025,6.1856523770839,0,0,0,1,0,0,f,OK
59,5,10,5,8,153,8,bed,9,visr,study,Not Studied,go,present,f,3026523.88959591,3026529.09281336,5.08620955608785,0,0,0,2,0,0,f,OK
59,5,10,5,186,188,9,lantern,5,visr,name,CFS,go,absent,lantern,3026653.33927066,3026657.74302636,4.30959398904815,,NA,1,1,0,1,lantern,Return
59,5,10,5,186,188,9,lantern,5,visr,noise,CFS,go,absent,\ENTER,3026771.0836831,3026773.0849086,1.87917827675119,,5,1,1,0,1,Return,OK
59,5,10,5,186,188,9,lantern,5,visr,study,CFS,go,absent,j,3026407.56709164,3026414.77155571,7.09472555946559,1,1,0.6,1,0,1,j,OK
59,5,10,5,186,188,9,lantern,5,visr,study,CFS,go,absent,j,3026529.90331908,3026535.10655856,5.04014743398875,2,1,0.6,2,0,1,j,OK
59,5,10,5,40,88,10,cookie cutter,7,visr,name,CFS,nogo,absent,cookie cutter,3026657.75426955,3026663.05631405,5.24628645461053,,NA,1,1,0,1,jacket,Return
59,5,10,5,40,88,10,cookie cutter,7,visr,noise,CFS,nogo,absent,\ENTER,3026774.71594798,3026784.72214943,NaN,,0,0,1,0,1,NULL,OK
59,5,10,5,40,88,10,cookie cutter,7,visr,study,CFS,nogo,absent,j,3026418.41388447,3026428.62018498,10.0871594678611,1,9,0.6,1,0,1,j,OK
59,5,10,5,40,88,10,cookie cutter,7,visr,study,CFS,nogo,absent,j,3026538.63878991,3026544.44241835,5.67220223462209,1,9,0.6,2,0,1,j,OK
59,5,10,5,119,7,11,pill capsule,3,visr,name,CFS,go,present,pill capsule,3026663.10730352,3026665.75802543,2.59712629765272,,NA,1,1,0,1,pill,Return
59,5,10,5,119,7,11,pill capsule,3,visr,noise,CFS,go,present,\ENTER,3026788.63462382,3026790.63586954,1.87132965633646,,5,1,1,0,1,Return,OK
59,5,10,5,119,7,11,pill capsule,3,visr,study,CFS,go,present,j,3026431.55203612,3026435.05421138,3.37269717315212,2,9,0.6,1,0,1,j,OK
59,5,10,5,119,7,11,pill capsule,3,visr,study,CFS,go,present,j,3026547.06405038,3026549.86575938,2.61455583712086,3,9,0.6,2,0,1,j,OK
59,5,10,5,43,44,12,crayon,8,visr,name,Not Studied,name,present,crayon,3026665.81024854,3026669.71046433,3.81409346824512,,NA,1,1,0,0,glove,Return
59,5,10,5,43,44,12,crayon,8,visr,name,Not Studied,name,present,crayon,3026792.64387301,3026799.50139529,6.79759542783722,,NA,1,2,0,0,bed,Return
59,5,10,5,43,44,12,crayon,8,visr,noise,Not Studied,name,present,crayon,3026791.65238931,3026791.80659952,NaN,,3,1,1,0,0,,
59,5,10,5,43,44,12,crayon,8,visr,study,Not Studied,name,present,f,3026437.16554546,3026444.77025475,7.46270486759022,0,0,0,1,0,0,f,OK
59,5,10,5,43,44,12,crayon,8,visr,study,Not Studied,name,present,f,3026551.39674712,3026557.00021552,5.45743764052168,0,0,0,2,0,0,f,OK
59,5,10,5,2,187,13,backpack,12,visr,name,Not Studied,go,absent,backpack,3026669.7305302,3026676.18452377,6.39734628377482,,NA,1,1,0,0,lantern,Return
59,5,10,5,2,187,13,backpack,12,visr,noise,Not Studied,go,absent,\ENTER,3026800.89228054,3026803.29373043,2.24501024605706,,3,1,1,0,0,Return,OK
59,5,10,5,2,187,13,backpack,12,visr,study,Not Studied,go,absent,f,3026446.07111752,3026453.47569364,7.21255024615675,0,0,0,1,0,0,f,OK
59,5,10,5,2,187,13,backpack,12,visr,study,Not Studied,go,absent,f,3026557.62061722,3026562.92389748,5.15338616259396,0,0,0,2,0,0,f,OK
59,5,10,5,33,157,14,rolling chair,16,visr,name,Binocular,nogo,present,rolling chair,3026676.23339277,3026681.88807913,5.56632524775341,,NA,1,1,1,1,chair,Return
59,5,10,5,33,157,14,rolling chair,16,visr,noise,Binocular,nogo,present,\ENTER,3026805.07486796,3026815.08111046,NaN,,0,0,1,1,1,NULL,OK
59,5,10,5,33,157,14,rolling chair,16,visr,study,Binocular,nogo,present,NA,3026454.19612948,3026459.09918384,NaN,,0,1,1,1,1,NULL,OK
59,5,10,5,33,157,14,rolling chair,16,visr,study,Binocular,nogo,present,NA,3026563.50429362,3026568.40731387,NaN,,0,1,2,1,1,NULL,OK
59,5,10,5,126,167,15,stove,14,visr,name,Not Studied,nogo,absent,stove,3026681.99352056,3026687.00125629,4.94190777419135,,NA,1,1,0,0,shoe,Return
59,5,10,5,126,167,15,stove,14,visr,noise,Not Studied,nogo,absent,\ENTER,3026817.40254167,3026827.40876303,NaN,,0,0,1,0,0,NULL,OK
59,5,10,5,126,167,15,stove,14,visr,study,Not Studied,nogo,absent,f,3026459.28935033,3026465.39310715,6.00172233767807,0,0,0,1,0,0,f,OK
59,5,10,5,126,167,15,stove,14,visr,study,Not Studied,nogo,absent,f,3026568.62749661,3026572.93013545,4.20186245488003,0,0,0,2,0,0,f,OK
59,5,10,5,86,29,16,steering wheel,18,visr,name,Binocular,nogo,absent,steering wheel,3026687.04074419,3026694.24578116,7.13429525867105,,NA,1,1,1,1,sink,Return
59,5,10,5,86,29,16,steering wheel,18,visr,noise,Binocular,nogo,absent,\ENTER,3026829.28996369,3026839.29620195,NaN,,0,0,1,1,1,NULL,OK
59,5,10,5,86,29,16,steering wheel,18,visr,study,Binocular,nogo,absent,NA,3026466.11358917,3026471.01664353,NaN,,0,1,1,1,1,NULL,OK
59,5,10,5,86,29,16,steering wheel,18,visr,study,Binocular,nogo,absent,NA,3026573.59057924,3026578.49362334,NaN,,0,1,2,1,1,NULL,OK
59,5,10,5,131,174,17,glove,17,visr,name,Binocular,go,absent,glove,3026694.28096442,3026696.33709434,2.00585220521316,,NA,1,1,1,1,glove,Return
59,5,10,5,131,174,17,glove,17,visr,noise,Binocular,go,absent,\ENTER,3026842.49816583,3026844.39935085,1.70884703844786,,10,1,1,1,1,Return,OK
59,5,10,5,131,174,17,glove,17,visr,study,Binocular,go,absent,NA,3026471.31682895,3026476.21988693,NaN,,0,1,1,1,1,NULL,OK
59,5,10,5,131,174,17,glove,17,visr,study,Binocular,go,absent,NA,3026578.86386257,3026583.76689248,NaN,,0,1,2,1,1,NULL,OK
59,5,10,5,95,66,18,sneakers,15,visr,name,Binocular,go,present,sneakers,3026696.39275187,3026699.69916228,3.22998642595485,,NA,1,1,1,1,shoe,Return
59,5,10,5,95,66,18,sneakers,15,visr,noise,Binocular,go,present,\ENTER,3026846.90094384,3026849.4024807,2.34591913735494,,4,1,1,1,1,Return,OK
59,5,10,5,95,66,18,sneakers,15,visr,study,Binocular,go,present,NA,3026476.53004658,3026481.43312298,NaN,,0,1,1,1,1,NULL,OK
59,5,10,5,95,66,18,sneakers,15,visr,study,Binocular,go,present,NA,3026584.11711293,3026589.02016638,NaN,,0,1,2,1,1,NULL,OK
59,6,10,5,192,133,1,ladder,13,visr,name,Not Studied,go,absent,ladder,3027079.48406566,3027083.48843157,3.94239827524871,,NA,1,1,0,0,ladder,Return
59,6,10,5,192,133,1,ladder,13,visr,noise,Not Studied,go,absent,\ENTER,3027209.62703388,3027213.62950329,3.84058806998655,,10,1,1,0,0,Return,OK
59,6,10,5,192,133,1,ladder,13,visr,study,Not Studied,go,absent,f,3026852.93468035,3026860.73953852,7.61549095856026,0,0,0,1,0,0,f,OK
59,6,10,5,192,133,1,ladder,13,visr,study,Not Studied,go,absent,f,3026971.51861806,3026977.62239751,5.96937945438549,0,0,0,2,0,0,f,OK
59,6,10,5,45,165,2,cutting board,5,visr,name,CFS,go,absent,cutting board,3027083.58839055,3027093.14443097,9.46146216383204,,NA,1,1,0,1,frisbee,Return
59,6,10,5,45,165,2,cutting board,5,visr,noise,CFS,go,absent,\ENTER,3027216.23114823,3027218.53256489,2.14818655001,,6,1,1,0,1,Return,OK
59,6,10,5,45,165,2,cutting board,5,visr,study,CFS,go,absent,j,3026863.00098674,3026868.60445514,5.42877849563956,1,8,0.6,1,0,1,j,OK
59,6,10,5,45,165,2,cutting board,5,visr,study,CFS,go,absent,j,3026979.23341873,3026981.93509479,2.58245352515951,1,8,0.6,2,0,1,j,OK
59,6,10,5,47,31,3,dice,2,visr,name,CFS,go,present,dice,3027093.2271539,3027101.97993504,8.70213366439566,,NA,1,1,0,1,bed,Return
59,6,10,5,47,31,3,dice,2,visr,noise,CFS,go,present,\ENTER,3027220.81402223,3027222.31494785,1.34112701751292,,3,1,1,0,1,Return,OK
59,6,10,5,47,31,3,dice,2,visr,study,CFS,go,present,j,3026872.27676332,3026874.17791182,1.76879532076418,3,10,0.6,1,0,1,j,OK
59,6,10,5,47,31,3,dice,2,visr,study,CFS,go,present,j,3026985.6274136,3026987.42850925,1.69209333462641,3,10,0.6,2,0,1,j,OK
59,6,10,5,166,129,4,nail,4,visr,name,CFS,nogo,present,nail,3027102.03586181,3027108.0437376,5.90917762136087,,NA,1,1,0,1,nail,Return
59,6,10,5,166,129,4,nail,4,visr,noise,CFS,nogo,present,\ENTER,3027225.00661135,3027235.01282366,NaN,,0,0,1,0,1,NULL,OK
59,6,10,5,166,129,4,nail,4,visr,study,CFS,nogo,present,j,3026875.92906268,3026878.23044131,2.16426955070347,2,2,0.6,1,0,1,j,OK
59,6,10,5,166,129,4,nail,4,visr,study,CFS,nogo,present,j,3026989.30968243,3026993.3121781,3.89745811792091,3,2,0.6,2,0,1,j,OK
59,6,10,5,128,143,5,life jacket,1,visr,name,CFS,name,present,life jacket,3027108.11446543,3027119.32074662,11.1100089680403,,NA,1,1,0,1,stairs,Return
59,6,10,5,128,143,5,life jacket,1,visr,name,CFS,name,present,life jacket,3027237.52400452,3027245.97967635,8.37386652780697,,NA,1,2,0,1,stairs,Return
59,6,10,5,128,143,5,life jacket,1,visr,noise,CFS,name,present,life jacket,3027236.55986301,3027236.71391082,NaN,,6,1,1,0,1,,
59,6,10,5,128,143,5,life jacket,1,visr,study,CFS,name,present,j,3026881.77264839,3026887.37619014,5.49607735034078,2,10,0.6,1,0,1,j,OK
59,6,10,5,128,143,5,life jacket,1,visr,study,CFS,name,present,j,3026996.50416745,3026999.90628593,3.29461755836383,3,10,0.6,2,0,1,j,OK
59,6,10,5,30,69,6,cane,16,visr,name,Binocular,nogo,present,cane,3027119.34659256,3027124.8041289,5.40557251451537,,NA,1,1,1,1,sink,Return
59,6,10,5,30,69,6,cane,16,visr,noise,Binocular,nogo,present,\ENTER,3027247.64066709,3027257.64693494,NaN,,0,0,1,1,1,NULL,OK
59,6,10,5,30,69,6,cane,16,visr,study,Binocular,nogo,present,NA,3026889.59755915,3026894.50058211,NaN,,0,1,1,1,1,NULL,OK
59,6,10,5,30,69,6,cane,16,visr,study,Binocular,nogo,present,NA,3027001.62738946,3027006.5304091,NaN,,0,1,2,1,1,NULL,OK
59,6,10,5,146,147,7,hinge,3,visr,name,CFS,go,present,hinge,3027124.85741392,3027136.26129971,11.3342944136821,,NA,1,1,0,1,,Return
59,6,10,5,146,147,7,hinge,3,visr,noise,CFS,go,present,\ENTER,3027260.68884244,3027264.59126232,3.768081150949,,10,1,1,0,1,Return,OK
59,6,10,5,146,147,7,hinge,3,visr,study,CFS,go,present,j,3026895.00092244,3026901.10469707,5.93908792175353,1,2,0.6,1,0,1,j,OK
59,6,10,5,146,147,7,hinge,3,visr,study,CFS,go,present,j,3027007.03074642,3027012.23397684,5.03950600977987,1,2,0.6,2,0,1,j,OK
59,6,10,5,165,45,8,mouse trap,9,visr,name,Not Studied,go,present,mouse trap,3027136.29822161,3027143.00549784,6.61311210412532,,NA,1,1,0,0,,Return
59,6,10,5,165,45,8,mouse trap,9,visr,noise,Not Studied,go,present,\ENTER,3027268.16350558,3027272.16598766,3.8289844756946,,9,1,1,0,0,Return,OK
59,6,10,5,165,45,8,mouse trap,9,visr,study,Not Studied,go,present,f,3026903.23605989,3026909.84017213,6.41551051801071,0,0,0,1,0,0,f,OK
59,6,10,5,165,45,8,mouse trap,9,visr,study,Not Studied,go,present,f,3027014.37528943,3027019.27835617,4.7665897263214,0,0,0,2,0,0,f,OK
59,6,10,5,147,146,9,hole punch,6,visr,name,CFS,go,absent,hole punch,3027143.01694206,3027153.52203225,10.453622599598,,NA,1,1,0,1,vase,Return
59,6,10,5,147,146,9,hole punch,6,visr,noise,CFS,go,absent,\ENTER,3027274.96776005,3027277.26920025,2.16051759477705,,10,1,1,0,1,Return,OK
59,6,10,5,147,146,9,hole punch,6,visr,study,CFS,go,absent,j,3026911.62128732,3026917.42486807,5.60589404171333,2,10,0.6,1,0,1,j,OK
59,6,10,5,147,146,9,hole punch,6,visr,study,CFS,go,absent,j,3027021.08952021,3027024.59167253,3.30797699606046,3,10,0.6,2,0,1,j,OK
59,6,10,5,58,74,10,cd,17,visr,name,Binocular,go,absent,cd,3027153.57709665,3027156.98421009,3.31749603617936,,NA,1,1,1,1,cd,Return
59,6,10,5,58,74,10,cd,17,visr,noise,Binocular,go,absent,\ENTER,3027279.29045388,3027281.19161596,1.75748391402885,,5,1,1,1,1,Return,OK
59,6,10,5,58,74,10,cd,17,visr,study,Binocular,go,absent,NA,3026921.86764411,3026926.77070058,NaN,,0,1,1,1,1,NULL,OK
59,6,10,5,58,74,10,cd,17,visr,study,Binocular,go,absent,NA,3027027.41346068,3027032.31648666,NaN,,0,1,2,1,1,NULL,OK
59,6,10,5,135,117,11,earring,18,visr,name,Binocular,nogo,absent,earring,3027156.99979897,3027164.10865881,7.03036276856437,,NA,1,1,1,1,hook,Return
59,6,10,5,135,117,11,earring,18,visr,noise,Binocular,nogo,absent,\ENTER,3027282.1522319,3027292.15842217,NaN,,0,0,1,1,1,NULL,OK
59,6,10,5,135,117,11,earring,18,visr,study,Binocular,nogo,absent,NA,3026927.0508799,3026931.95392882,NaN,,0,1,1,1,1,NULL,OK
59,6,10,5,135,117,11,earring,18,visr,study,Binocular,nogo,absent,NA,3027032.66673519,3027037.56976298,NaN,,0,1,2,1,1,NULL,OK
59,6,10,5,150,156,12,electric kettle,12,visr,name,Not Studied,go,absent,electric kettle,3027164.13591406,3027170.69275106,6.46995462337509,,NA,1,1,0,0, tisue,Return
59,6,10,5,150,156,12,electric kettle,12,visr,noise,Not Studied,go,absent,\ENTER,3027294.15971649,3027296.36106339,2.03952925186604,,3,1,1,0,0,Return,OK
59,6,10,5,150,156,12,electric kettle,12,visr,study,Not Studied,go,absent,f,3026932.21409449,3026937.01710445,4.63612912874669,0,0,0,1,0,0,f,OK
59,6,10,5,150,156,12,electric kettle,12,visr,study,Not Studied,go,absent,f,3027037.82997604,3027042.73300444,4.75863576121628,0,0,0,2,0,0,f,OK
59,6,10,5,206,207,13,frame,10,visr,name,Not Studied,go,present,frame,3027170.7111296,3027176.1661739,5.3983239652589,,NA,1,1,0,0,nail,Return
59,6,10,5,206,207,13,frame,10,visr,noise,Not Studied,go,present,\ENTER,3027299.89329293,3027304.09589431,4.03347963839769,,10,1,1,0,0,Return,OK
59,6,10,5,206,207,13,frame,10,visr,study,Not Studied,go,present,f,3026937.7175526,3026941.7199707,3.80432661110535,0,0,0,1,0,0,f,OK
59,6,10,5,206,207,13,frame,10,visr,study,Not Studied,go,present,f,3027043.26331122,3027047.86621033,4.40494467271492,0,0,0,2,0,0,f,OK
59,6,10,5,13,16,14,binder,11,visr,name,Not Studied,nogo,present,binder,3027176.21618991,3027180.06860525,3.77308878907934,,NA,1,1,0,0,book,Return
59,6,10,5,13,16,14,binder,11,visr,noise,Not Studied,nogo,present,\ENTER,3027306.65750713,3027316.66372457,NaN,,0,0,1,0,0,NULL,OK
59,6,10,5,13,16,14,binder,11,visr,study,Not Studied,nogo,present,f,3026942.39044999,3026946.8932383,4.3632418224588,0,0,0,1,0,0,f,OK
59,6,10,5,13,16,14,binder,11,visr,study,Not Studied,nogo,present,f,3027048.5566423,3027053.85991411,5.19136875122786,0,0,0,2,0,0,f,OK
59,6,10,5,78,98,15,sweater,14,visr,name,Not Studied,nogo,absent,sweater,3027180.09538027,3027183.70086832,3.52577545167878,,NA,1,1,0,0,sweater,Return
59,6,10,5,78,98,15,sweater,14,visr,noise,Not Studied,nogo,absent,\ENTER,3027318.3147776,3027328.32097965,NaN,,0,0,1,0,0,NULL,OK
59,6,10,5,78,98,15,sweater,14,visr,study,Not Studied,nogo,absent,f,3026947.54367557,3026953.24723486,5.5857001892291,0,0,0,1,0,0,f,OK
59,6,10,5,78,98,15,sweater,14,visr,study,Not Studied,nogo,absent,f,3027054.55037898,3027060.25389873,5.59719783533365,0,0,0,2,0,0,f,OK
59,6,10,5,184,181,16,mailbox,8,visr,name,Not Studied,name,present,mailbox,3027183.72841275,3027191.63575001,7.83635044284165,,NA,1,1,0,0,table,Return
59,6,10,5,184,181,16,mailbox,8,visr,name,Not Studied,name,present,mailbox,3027330.26406221,3027348.92383228,18.5963544757105,,NA,1,2,0,0,nailclippers,Return
59,6,10,5,184,181,16,mailbox,8,visr,noise,Not Studied,name,present,mailbox,3027329.17871533,3027329.33163454,NaN,,1,1,1,0,0,,
59,6,10,5,184,181,16,mailbox,8,visr,study,Not Studied,name,present,f,3026953.94766037,3026959.45110037,5.3653728608042,0,0,0,1,0,0,f,OK
59,6,10,5,184,181,16,mailbox,8,visr,study,Not Studied,name,present,f,3027060.824282,3027066.32768548,5.35511912545189,0,0,0,2,0,0,f,OK
59,6,10,5,167,126,17,nail clippers,15,visr,name,Binocular,go,present,nail clippers,3027191.67138091,3027197.42939909,5.6689727762714,,NA,1,1,1,1,nailclippers,Return
59,6,10,5,167,126,17,nail clippers,15,visr,noise,Binocular,go,present,\ENTER,3027351.48543695,3027353.28653742,1.68680437514558,,8,1,1,1,1,Return,OK
59,6,10,5,167,126,17,nail clippers,15,visr,study,Binocular,go,present,NA,3026960.45169169,3026965.3547548,NaN,,0,1,1,1,1,NULL,OK
59,6,10,5,167,126,17,nail clippers,15,visr,study,Binocular,go,present,NA,3027066.97807687,3027071.8811439,NaN,,0,1,2,1,1,NULL,OK
59,6,10,5,183,185,18,microphone,7,visr,name,CFS,nogo,absent,microphone,3027197.44637526,3027202.6526818,5.10967482347041,,NA,1,1,0,1,hole puncher,Return
59,6,10,5,183,185,18,microphone,7,visr,noise,CFS,nogo,absent,\ENTER,3027354.88754517,3027364.89378132,NaN,,0,0,1,0,1,NULL,OK
59,6,10,5,183,185,18,microphone,7,visr,study,CFS,nogo,absent,j,3026966.5054675,3026969.60740267,2.91905767051503,3,8,0.6,1,0,1,j,OK
59,6,10,5,183,185,18,microphone,7,visr,study,CFS,nogo,absent,j,3027073.03187744,3027075.23323158,2.02705332031474,3,8,0.6,2,0,1,j,OK
59,7,10,5,100,124,1,satellite,6,visr,name,CFS,go,absent,satellite,3027600.93724575,3027607.64506862,6.62952683400363,,NA,1,1,0,1,flying machine,Return
59,7,10,5,100,124,1,satellite,6,visr,noise,CFS,go,absent,\ENTER,3027706.19652731,3027708.59798958,2.29285537730902,,7,1,1,0,1,Return,OK
59,7,10,5,100,124,1,satellite,6,visr,study,CFS,go,absent,j,3027372.1383065,3027378.94248823,6.61646320670843,1,10,0.6,1,0,1,j,OK
59,7,10,5,100,124,1,satellite,6,visr,study,CFS,go,absent,j,3027493.41388628,3027495.61524616,2.03879184043035,1,10,0.6,2,0,1,j,OK
59,7,10,5,115,118,2,puzzle piece,14,visr,name,Not Studied,nogo,absent,puzzle piece,3027607.6731938,3027613.6788495,5.9332447713241,,NA,1,1,0,0,,Return
59,7,10,5,115,118,2,puzzle piece,14,visr,noise,Not Studied,nogo,absent,\ENTER,3027710.76936672,3027720.77557993,NaN,,0,0,1,0,0,NULL,OK
59,7,10,5,115,118,2,puzzle piece,14,visr,study,Not Studied,nogo,absent,f,3027381.41407463,3027387.61794195,6.02834824286401,0,0,0,1,0,0,f,OK
59,7,10,5,115,118,2,puzzle piece,14,visr,study,Not Studied,nogo,absent,f,3027498.92737355,3027504.03049528,4.96487891906872,0,0,0,2,0,0,f,OK
59,7,10,5,174,131,3,paint tray,8,visr,name,Not Studied,name,present,paint tray,3027613.77748489,3027619.48248459,5.64464965974912,,NA,1,1,0,0,grader,Return
59,7,10,5,174,131,3,paint tray,8,visr,name,Not Studied,name,present,paint tray,3027722.79557849,3027728.00011651,5.14081545127556,,NA,1,2,0,0,grader,Return
59,7,10,5,174,131,3,paint tray,8,visr,noise,Not Studied,name,present,paint tray,3027721.76332435,3027721.91639163,NaN,,5,1,1,0,0,,
59,7,10,5,174,131,3,paint tray,8,visr,study,Not Studied,name,present,f,3027388.22834498,3027394.33212534,5.98970098793507,0,0,0,1,0,0,f,OK
59,7,10,5,174,131,3,paint tray,8,visr,study,Not Studied,name,present,f,3027504.50079008,3027511.50518497,6.8710513538681,0,0,0,2,0,0,f,OK
59,7,10,5,153,8,4,knife,7,visr,name,CFS,nogo,absent,knife,3027619.52810752,3027629.43865673,9.82142713759094,,NA,1,1,0,1,wire,Return
59,7,10,5,153,8,4,knife,7,visr,noise,CFS,nogo,absent,\ENTER,3027728.88063469,3027738.88688684,NaN,,0,0,1,0,1,NULL,OK
59,7,10,5,153,8,4,knife,7,visr,study,CFS,nogo,absent,j,3027395.52286746,3027400.92623619,5.28682025242597,2,5,0.6,1,0,1,j,OK
59,7,10,5,153,8,4,knife,7,visr,study,CFS,nogo,absent,j,3027512.55581072,3027519.05984656,6.35164818866178,2,5,0.6,2,0,1,j,OK
59,7,10,5,141,155,5,purse,3,visr,name,CFS,go,present,purse,3027629.45535611,3027633.56125332,4.01404583686963,,NA,1,1,0,1,clippers,Return
59,7,10,5,141,155,5,purse,3,visr,noise,CFS,go,present,\ENTER,3027742.09890614,3027745.50100741,3.26058825710788,,9,1,1,0,1,Return,OK
59,7,10,5,141,155,5,purse,3,visr,study,CFS,go,present,j,3027403.49786911,3027413.70419437,10.0711036333814,1,3,0.6,1,0,1,j,OK
59,7,10,5,141,155,5,purse,3,visr,study,CFS,go,present,j,3027521.68149972,3027525.18367588,3.37764866789803,1,3,0.6,2,0,1,j,OK
59,7,10,5,129,166,6,rope,4,visr,name,CFS,nogo,present,rope,3027633.57532632,3027639.38488152,5.74176373332739,,NA,1,1,0,1,rope knot,Return
59,7,10,5,129,166,6,rope,4,visr,noise,CFS,nogo,present,\ENTER,3027747.58232101,3027757.5885294,NaN,,0,0,1,0,1,NULL,OK
59,7,10,5,129,166,6,rope,4,visr,study,CFS,nogo,present,j,3027416.47593059,3027418.87741972,2.26882746722549,3,9,0.6,1,0,1,j,OK
59,7,10,5,129,166,6,rope,4,visr,study,CFS,nogo,present,j,3027528.45573794,3027532.05799231,3.41904936963692,3,9,0.6,2,0,1,j,OK
59,7,10,5,194,197,7,pliers,17,visr,name,Binocular,go,absent,pliers,3027639.48661143,3027642.93708638,3.3741798447445,,NA,1,1,1,1,clippers,Return
59,7,10,5,194,197,7,pliers,17,visr,noise,Binocular,go,absent,\ENTER,3027759.53975428,3027760.9405718,1.21893128752708,,4,1,1,1,1,Return,OK
59,7,10,5,194,197,7,pliers,17,visr,study,Binocular,go,absent,NA,3027421.14886269,3027426.0518941,NaN,,0,1,1,1,1,NULL,OK
59,7,10,5,194,197,7,pliers,17,visr,study,Binocular,go,absent,NA,3027533.90921716,3027538.81217312,NaN,,0,1,2,1,1,NULL,OK
59,7,10,5,60,191,8,ethernet cable,18,visr,name,Binocular,nogo,absent,ethernet cable,3027642.9665922,3027645.51870379,2.50205180374905,,NA,1,1,1,1,wire,Return
59,7,10,5,60,191,8,ethernet cable,18,visr,noise,Binocular,nogo,absent,\ENTER,3027762.07134934,3027772.07756104,NaN,,0,0,1,1,1,NULL,OK
59,7,10,5,60,191,8,ethernet cable,18,visr,study,Binocular,nogo,absent,NA,3027426.40214052,3027431.30516771,NaN,,0,1,1,1,1,NULL,OK
59,7,10,5,60,191,8,ethernet cable,18,visr,study,Binocular,nogo,absent,NA,3027539.08234803,3027543.98540088,NaN,,0,1,2,1,1,NULL,OK
59,7,10,5,175,67,9,pants,2,visr,name,CFS,go,present,pants,3027645.57445247,3027654.28417094,8.63781343400478,,NA,1,1,0,1,,Return
59,7,10,5,175,67,9,pants,2,visr,noise,CFS,go,present,\ENTER,3027774.60912229,3027776.91058876,2.10861896304414,,5,1,1,0,1,Return,OK
59,7,10,5,175,67,9,pants,2,visr,study,CFS,go,present,j,3027431.99562896,3027437.59909313,5.47613825649023,1,4,0.6,1,0,1,j,OK
59,7,10,5,175,67,9,pants,2,visr,study,CFS,go,present,j,3027544.74586764,3027549.84904944,4.95197919430211,3,4,0.6,2,0,1,j,OK
59,7,10,5,39,18,10,computer mouse,15,visr,name,Binocular,go,present,computer mouse,3027654.31778732,3027662.31915378,7.93407364282757,,NA,1,1,1,1,book,Return
59,7,10,5,39,18,10,computer mouse,15,visr,noise,Binocular,go,present,\ENTER,3027779.98251915,3027781.48342876,1.32703922409564,,5,1,1,1,1,Return,OK
59,7,10,5,39,18,10,computer mouse,15,visr,study,Binocular,go,present,NA,3027439.83049643,3027444.73356527,NaN,,0,1,1,1,1,NULL,OK
59,7,10,5,39,18,10,computer mouse,15,visr,study,Binocular,go,present,NA,3027551.95037458,3027556.8534238,NaN,,0,1,2,1,1,NULL,OK
59,7,10,5,73,68,11,toothbrush,5,visr,name,CFS,go,absent,toothbrush,3027662.35891606,3027666.86200048,4.44471993017942,,NA,1,1,0,1,,Return
59,7,10,5,73,68,11,toothbrush,5,visr,noise,CFS,go,absent,\ENTER,3027784.45530389,3027786.35648981,1.72599465306848,,5,1,1,0,1,Return,OK
59,7,10,5,73,68,11,toothbrush,5,visr,study,CFS,go,absent,j,3027446.024369,3027448.72603087,2.50269202049822,3,10,0.6,1,0,1,j,OK
59,7,10,5,73,68,11,toothbrush,5,visr,study,CFS,go,absent,j,3027558.19428429,3027559.99536243,1.61490507377312,3,10,0.6,2,0,1,j,OK
59,7,10,5,64,107,12,watch,10,visr,name,Not Studied,go,present,watch,3027666.90999231,3027668.96329362,1.96553332265466,,NA,1,1,0,0,clock,Return
59,7,10,5,64,107,12,watch,10,visr,noise,Not Studied,go,present,\ENTER,3027789.04816871,3027790.34894334,1.14891973603517,,7,1,1,0,0,Return,OK
59,7,10,5,64,107,12,watch,10,visr,study,Not Studied,go,present,f,3027450.51717342,3027457.12125487,6.48955836519599,0,0,0,1,0,0,f,OK
59,7,10,5,64,107,12,watch,10,visr,study,Not Studied,go,present,f,3027561.63642735,3027564.33811247,2.54864004440606,0,0,0,2,0,0,f,OK
59,7,10,5,18,39,13,box,16,visr,name,Binocular,nogo,present,box,3027668.9819553,3027678.13903456,9.08500760188326,,NA,1,1,1,1,book,Return
59,7,10,5,18,39,13,box,16,visr,noise,Binocular,nogo,present,\ENTER,3027791.73984791,3027801.74604694,NaN,,0,0,1,1,1,NULL,OK
59,7,10,5,18,39,13,box,16,visr,study,Binocular,nogo,present,NA,3027457.82170967,3027462.72475286,NaN,,0,1,1,1,1,NULL,OK
59,7,10,5,18,39,13,box,16,visr,study,Binocular,nogo,present,NA,3027565.07857374,3027569.98162779,NaN,,0,1,2,1,1,NULL,OK
59,7,10,5,102,110,14,saddle,9,visr,name,Not Studied,go,present,saddle,3027678.1731692,3027687.18464934,8.95724883535877,,NA,1,1,0,0,sink,Return
59,7,10,5,102,110,14,saddle,9,visr,noise,Not Studied,go,present,\ENTER,3027804.40773615,3027807.60971391,3.01239382941276,,6,1,1,0,0,Return,OK
59,7,10,5,102,110,14,saddle,9,visr,study,Not Studied,go,present,f,3027462.99494859,3027467.99802471,4.85921775223687,0,0,0,1,0,0,f,OK
59,7,10,5,102,110,14,saddle,9,visr,study,Not Studied,go,present,f,3027570.20177371,3027575.4049815,5.0146223641932,0,0,0,2,0,0,f,OK
59,7,10,5,67,175,15,vest,12,visr,name,Not Studied,go,absent,vest,3027687.23618485,3027690.98701515,3.65405641309917,,NA,1,1,0,0,,Return
59,7,10,5,67,175,15,vest,12,visr,noise,Not Studied,go,absent,\ENTER,3027809.95113946,3027813.15319147,3.01270050555468,,9,1,1,0,0,Return,OK
59,7,10,5,67,175,15,vest,12,visr,study,Not Studied,go,absent,f,3027469.50901088,3027473.71160109,4.09672529436648,0,0,0,1,0,0,f,OK
59,7,10,5,67,175,15,vest,12,visr,study,Not Studied,go,absent,f,3027576.06542318,3027578.96720133,2.71078006597236,0,0,0,2,0,0,f,OK
59,7,10,5,66,95,16,wallet,13,visr,name,Not Studied,go,absent,wallet,3027691.06931579,3027696.27030984,5.12477984046564,,NA,1,1,0,0,fabric,Return
59,7,10,5,66,95,16,wallet,13,visr,noise,Not Studied,go,absent,\ENTER,3027815.02435541,3027817.92613658,2.7313328133896,,4,1,1,0,0,Return,OK
59,7,10,5,66,95,16,wallet,13,visr,study,Not Studied,go,absent,f,3027474.28198406,3027478.78475849,4.36366259725764,0,0,0,1,0,0,f,OK
59,7,10,5,66,95,16,wallet,13,visr,study,Not Studied,go,absent,f,3027579.54758992,3027582.84962325,3.11649535316974,0,0,0,2,0,0,f,OK
59,7,10,5,204,205,17,bowtie,11,visr,name,Not Studied,nogo,present,bowtie,3027696.30061405,3027700.65306304,4.28524551773444,,NA,1,1,0,0,fabric,Return
59,7,10,5,204,205,17,bowtie,11,visr,noise,Not Studied,nogo,present,\ENTER,3027819.44707041,3027829.45331985,NaN,,0,0,1,0,0,NULL,OK
59,7,10,5,204,205,17,bowtie,11,visr,study,Not Studied,nogo,present,f,3027479.22506813,3027485.22877813,5.87618667306378,0,0,0,1,0,0,f,OK
59,7,10,5,204,205,17,bowtie,11,visr,study,Not Studied,nogo,present,f,3027583.46002205,3027587.86274181,4.28377431677654,0,0,0,2,0,0,f,OK
59,7,10,5,140,144,18,hammer,1,visr,name,CFS,name,present,hammer,3027700.69103415,3027702.54425089,1.78272162610665,,NA,1,1,0,1,,Return
59,7,10,5,140,144,18,hammer,1,visr,name,CFS,name,present,hammer,3027831.04451486,3027841.35074265,10.2218495421112,,NA,1,2,0,1,vest,Return
59,7,10,5,140,144,18,hammer,1,visr,noise,CFS,name,present,hammer,3027830.30967549,3027830.46397836,NaN,,5,1,1,0,1,,
59,7,10,5,140,144,18,hammer,1,visr,study,CFS,name,present,j,3027486.08934333,3027490.69218359,4.47559040458873,3,2,0.6,1,0,1,j,OK
59,7,10,5,140,144,18,hammer,1,visr,study,CFS,name,present,j,3027588.77331427,3027593.87644747,4.93820471782237,3,2,0.6,2,0,1,j,OK
59,8,10,5,57,90,1,computer drive,6,visr,name,CFS,go,absent,computer drive,3028066.78441318,3028076.98763817,10.1415317333303,,NA,1,1,0,1,toothbrush,Return
59,8,10,5,57,90,1,computer drive,6,visr,noise,CFS,go,absent,\ENTER,3028180.29204009,3028182.99370951,2.54833970684558,,9,1,1,0,1,Return,OK
59,8,10,5,57,90,1,computer drive,6,visr,study,CFS,go,absent,j,3027849.6859589,3027854.58898519,4.75577425351366,1,5,0.6,1,0,1,j,OK
59,8,10,5,57,90,1,computer drive,6,visr,study,CFS,go,absent,j,3027965.31803181,3027968.01967468,2.59757936978713,1,5,0.6,2,0,1,j,OK
59,8,10,5,14,139,2,binoculars,1,visr,name,CFS,name,present,binoculars,3028077.03127193,3028084.88257285,7.79813965782523,,NA,1,1,0,1,can,Return
59,8,10,5,14,139,2,binoculars,1,visr,name,CFS,name,present,binoculars,3028184.68949806,3028188.94740984,4.15841221390292,,NA,1,2,0,1, can,Return
59,8,10,5,14,139,2,binoculars,1,visr,noise,CFS,name,present,binoculars,3028183.77991868,3028183.93424238,NaN,,8,1,1,0,1,,
59,8,10,5,14,139,2,binoculars,1,visr,study,CFS,name,present,j,3027857.48074927,3027861.98361847,4.40046466328204,3,9,0.6,1,0,1,j,OK
59,8,10,5,14,139,2,binoculars,1,visr,study,CFS,name,present,j,3027971.2617069,3027975.06410894,3.64554312638938,3,9,0.6,2,0,1,j,OK
59,8,10,5,71,20,3,semi truck,5,visr,name,CFS,go,absent,semi truck,3028084.93552764,3028093.88814735,8.90139027638361,,NA,1,1,0,1,binoculars,Return
59,8,10,5,71,20,3,semi truck,5,visr,noise,CFS,go,absent,\ENTER,3028190.27825414,3028192.47962549,2.05758059537038,,3,1,1,0,1,Return,OK
59,8,10,5,71,20,3,semi truck,5,visr,study,CFS,go,absent,j,3027864.91545,3027868.61773579,3.51752960123122,3,3,0.6,1,0,1,j,OK
59,8,10,5,71,20,3,semi truck,5,visr,study,CFS,go,absent,j,3027977.1053723,3027980.40740865,3.13768016826361,3,3,0.6,2,0,1,j,OK
59,8,10,5,69,30,4,umbrella,12,visr,name,Not Studied,go,absent,umbrella,3028093.94391807,3028104.50472013,10.4766034027562,,NA,1,1,0,0,paintbrush,Return
59,8,10,5,69,30,4,umbrella,12,visr,noise,Not Studied,go,absent,\ENTER,3028195.07124007,3028196.67220405,1.43241242924705,,5,1,1,0,0,Return,OK
59,8,10,5,69,30,4,umbrella,12,visr,study,Not Studied,go,absent,f,3027870.15871315,3027876.06237211,5.70577725721523,0,0,0,1,0,0,f,OK
59,8,10,5,69,30,4,umbrella,12,visr,study,Not Studied,go,absent,f,3027981.88837857,3027988.3924126,6.33025992941111,0,0,0,2,0,0,f,OK
59,8,10,5,107,64,5,ring,9,visr,name,Not Studied,go,present,ring,3028104.52682316,3028111.62923163,7.02126299357042,,NA,1,1,0,0,mirror,Return
59,8,10,5,107,64,5,ring,9,visr,noise,Not Studied,go,present,\ENTER,3028199.6441006,3028203.14624628,3.36317934002727,,7,1,1,0,0,Return,OK
59,8,10,5,107,64,5,ring,9,visr,study,Not Studied,go,present,f,3027876.67277574,3027881.37568063,4.52758109942079,0,0,0,1,0,0,f,OK
59,8,10,5,107,64,5,ring,9,visr,study,Not Studied,go,present,f,3027988.99282178,3027991.29422244,2.12169074034318,0,0,0,2,0,0,f,OK
59,8,10,5,154,176,6,ladle,3,visr,name,CFS,go,present,ladle,3028111.65383244,3028120.96504493,9.21367039950565,,NA,1,1,0,1,paintbrush,Return
59,8,10,5,154,176,6,ladle,3,visr,noise,CFS,go,present,\ENTER,3028205.76790819,3028209.37015472,3.43104506283998,,9,1,1,0,1,Return,OK
59,8,10,5,154,176,6,ladle,3,visr,study,CFS,go,present,j,3027882.46636144,3027886.86910323,4.2216699430719,3,4,0.6,1,0,1,j,OK
59,8,10,5,154,176,6,ladle,3,visr,study,CFS,go,present,j,3027992.32483544,3027999.02899872,6.54924554890022,3,4,0.6,2,0,1,j,OK
59,8,10,5,7,119,7,battery,8,visr,name,Not Studied,name,present,battery,3028120.9732769,3028123.9769211,2.92618578253314,,NA,1,1,0,0,battery,Return
59,8,10,5,7,119,7,battery,8,visr,name,Not Studied,name,present,battery,3028211.09620431,3028213.65281703,2.50241432152689,,NA,1,2,0,0,battery,Return
59,8,10,5,7,119,7,battery,8,visr,noise,Not Studied,name,present,battery,3028210.21669822,3028210.37077592,NaN,,8,1,1,0,0,,
59,8,10,5,7,119,7,battery,8,visr,study,Not Studied,name,present,f,3027888.46011925,3027893.96348378,5.35552842961624,0,0,0,1,0,0,f,OK
59,8,10,5,7,119,7,battery,8,visr,study,Not Studied,name,present,f,3028000.60002252,3028005.30293344,4.60159785626456,0,0,0,2,0,0,f,OK
59,8,10,5,11,103,8,bib,17,visr,name,Binocular,go,absent,bib,3028124.0051652,3028126.05819304,1.96620070608333,,NA,1,1,1,1,bib,Return
59,8,10,5,11,103,8,bib,17,visr,noise,Binocular,go,absent,\ENTER,3028215.01367155,3028216.31448149,1.1128348573111,,3,1,1,1,1,Return,OK
59,8,10,5,11,103,8,bib,17,visr,study,Binocular,go,absent,NA,3027894.46387543,3027899.36689417,NaN,,0,1,1,1,1,NULL,OK
59,8,10,5,11,103,8,bib,17,visr,study,Binocular,go,absent,NA,3028005.84329533,3028010.74632554,NaN,,0,1,2,1,1,NULL,OK
59,8,10,5,163,161,9,moccasin,11,visr,name,Not Studied,nogo,present,moccasin,3028126.07813817,3028136.28456334,10.1085794214159,,NA,1,1,0,0,high heel,Return
59,8,10,5,163,161,9,moccasin,11,visr,noise,Not Studied,nogo,present,\ENTER,3028217.79539738,3028226.10057897,8.13067490840331,,0,0,1,0,0,Return,OK
59,8,10,5,163,161,9,moccasin,11,visr,study,Not Studied,nogo,present,f,3027899.54703422,3027904.65021904,4.92394306091592,0,0,0,1,0,0,f,OK
59,8,10,5,163,161,9,moccasin,11,visr,study,Not Studied,nogo,present,f,3028010.91645454,3028016.01966502,4.99664768949151,0,0,0,2,0,0,f,OK
59,8,10,5,113,76,10,radio,13,visr,name,Not Studied,go,absent,radio,3028136.36522194,3028142.91873319,6.50109706213698,,NA,1,1,0,0,stereo,Return
59,8,10,5,113,76,10,radio,13,visr,noise,Not Studied,go,absent,\ENTER,3028228.77224815,3028230.87354129,1.94559422926977,,3,1,1,0,0,Return,OK
59,8,10,5,113,76,10,radio,13,visr,study,Not Studied,go,absent,f,3027905.55080368,3027909.95349839,4.2879675719887,0,0,0,1,0,0,f,OK
59,8,10,5,113,76,10,radio,13,visr,study,Not Studied,go,absent,f,3028016.60003097,3028022.40358485,5.63280006079003,0,0,0,2,0,0,f,OK
59,8,10,5,28,137,11,candle,7,visr,name,CFS,nogo,absent,candle,3028142.97326996,3028145.78053807,2.74899990623817,,NA,1,1,0,1,candle,Return
59,8,10,5,28,137,11,candle,7,visr,noise,CFS,nogo,absent,\ENTER,3028232.32449103,3028242.33067618,NaN,,0,0,1,0,1,NULL,OK
59,8,10,5,28,137,11,candle,7,visr,study,CFS,nogo,absent,j,3027911.18426237,3027916.98792885,5.63815723732114,1,7,0.6,1,0,1,j,OK
59,8,10,5,28,137,11,candle,7,visr,study,CFS,nogo,absent,j,3028023.71440494,3028026.41614711,2.58223951607943,1,7,0.6,2,0,1,j,OK
59,8,10,5,200,196,12,cassette tape,10,visr,name,Not Studied,go,present,cassette tape,3028145.82952025,3028150.6334937,4.70853160880506,,NA,1,1,0,0,,Return
59,8,10,5,200,196,12,cassette tape,10,visr,noise,Not Studied,go,present,\ENTER,3028244.88229122,3028248.08425842,3.01052690669894,,4,1,1,0,0,Return,OK
59,8,10,5,200,196,12,cassette tape,10,visr,study,Not Studied,go,present,f,3027918.92912124,3027924.93285871,5.86082387901843,0,0,0,1,0,0,f,OK
59,8,10,5,200,196,12,cassette tape,10,visr,study,Not Studied,go,present,f,3028028.78759404,3028034.29099721,5.33262188034132,0,0,0,2,0,0,f,OK
59,8,10,5,172,170,13,paint brush,16,visr,name,Binocular,nogo,present,paint brush,3028150.71534097,3028154.71608533,3.90238606883213,,NA,1,1,1,1,blade,Return
59,8,10,5,172,170,13,paint brush,16,visr,noise,Binocular,nogo,present,\ENTER,3028250.28567806,3028260.29188011,NaN,,0,0,1,1,1,NULL,OK
59,8,10,5,172,170,13,paint brush,16,visr,study,Binocular,nogo,present,NA,3027925.85342712,3027930.75646005,NaN,,0,1,1,1,1,NULL,OK
59,8,10,5,172,170,13,paint brush,16,visr,study,Binocular,nogo,present,NA,3028034.91136843,3028039.81443848,NaN,,0,1,2,1,1,NULL,OK
59,8,10,5,90,57,14,speakers,15,visr,name,Binocular,go,present,speakers,3028154.75569306,3028157.20765671,2.35802017524838,,NA,1,1,1,1,stereo,Return
59,8,10,5,90,57,14,speakers,15,visr,noise,Binocular,go,present,\ENTER,3028262.53328148,3028263.63394527,0.950820404104888,,2,1,1,1,1,Return,OK
59,8,10,5,90,57,14,speakers,15,visr,study,Binocular,go,present,NA,3027931.08669825,3027935.989752,NaN,,0,1,1,1,1,NULL,OK
59,8,10,5,90,57,14,speakers,15,visr,study,Binocular,go,present,NA,3028040.12463375,3028045.02768539,NaN,,0,1,2,1,1,NULL,OK
59,8,10,5,185,183,15,lock,14,visr,name,Not Studied,nogo,absent,lock,3028157.21952472,3028161.57034041,4.28589328099042,,NA,1,1,0,0,,Return
59,8,10,5,185,183,15,lock,14,visr,noise,Not Studied,nogo,absent,\ENTER,3028264.89475146,3028274.90099003,NaN,,0,0,1,0,0,NULL,OK
59,8,10,5,185,183,15,lock,14,visr,study,Not Studied,nogo,absent,f,3027936.24991797,3027943.25429898,6.85116387577727,0,0,0,1,0,0,f,OK
59,8,10,5,185,183,15,lock,14,visr,study,Not Studied,nogo,absent,f,3028045.28785559,3028049.69059044,4.23954953579232,0,0,0,2,0,0,f,OK
59,8,10,5,155,141,16,lamp,4,visr,name,CFS,nogo,present,lamp,3028161.61148756,3028171.16634082,9.48554833047092,,NA,1,1,0,1,pot or vase,Return
59,8,10,5,155,141,16,lamp,4,visr,noise,CFS,nogo,present,\ENTER,3028276.55204095,3028286.55826352,NaN,,0,0,1,0,1,NULL,OK
59,8,10,5,155,141,16,lamp,4,visr,study,CFS,nogo,present,j,3027944.36497231,3027951.46937085,6.93562664464116,1,5,0.6,1,0,1,j,OK
59,8,10,5,155,141,16,lamp,4,visr,study,CFS,nogo,present,j,3028050.81132221,3028053.51297715,2.53986716922373,2,5,0.6,2,0,1,j,OK
59,8,10,5,143,128,17,high heel,18,visr,name,Binocular,nogo,absent,high heel,3028171.20357272,3028174.35833078,3.07720667356625,,NA,1,1,1,1,high heel,Return
59,8,10,5,143,128,17,high heel,18,visr,noise,Binocular,nogo,absent,\ENTER,3028288.18930352,3028298.19549137,NaN,,0,0,1,1,1,NULL,OK
59,8,10,5,143,128,17,high heel,18,visr,study,Binocular,nogo,absent,NA,3027953.77080985,3027958.67386239,NaN,,0,1,1,1,1,NULL,OK
59,8,10,5,143,128,17,high heel,18,visr,study,Binocular,nogo,absent,NA,3028055.21406974,3028060.1170909,NaN,,0,1,2,1,1,NULL,OK
59,8,10,5,159,162,18,crowbar,2,visr,name,CFS,go,present,crowbar,3028174.38638562,3028176.53967519,2.10219838004559,,NA,1,1,0,1,,Return
59,8,10,5,159,162,18,crowbar,2,visr,noise,CFS,go,present,\ENTER,3028300.58696795,3028302.28799896,1.59104770701379,,4,1,1,0,1,Return,OK
59,8,10,5,159,162,18,crowbar,2,visr,study,CFS,go,present,j,3027959.78458372,3027962.68637213,2.79533218080178,2,8,0.6,1,0,1,j,OK
59,8,10,5,159,162,18,crowbar,2,visr,study,CFS,go,present,j,3028061.23782418,3028063.53922635,2.13686246564612,2,8,0.6,2,0,1,j,OK
59,1,NA,NA,212,215,0,lightswitch,0,instructions,name,CFS,go,present,lightswitch,3024346.24869368,3024358.61981129,12.2736995760351,,NA,1,1,0,1,mirror,Return
59,1,NA,NA,212,215,0,lightswitch,0,instructions,noise,CFS,go,present,\ENTER,3024515.45759762,3024517.15865822,1.56049598287791,,2,1,1,0,1,Return,OK
59,1,NA,NA,212,215,0,lightswitch,0,instructions,study,CFS,go,present,j,NaN,NaN,NaN,,1,0.6,1,0,1,,
59,1,NA,NA,212,215,0,lightswitch,0,instructions,study,CFS,go,present,j,NaN,NaN,NaN,,1,0.6,2,0,1,,
