participant,answer,arrow_to,rep,trial,max_alpha,jitter,trial_start,trial_end,rt,eyes_1,eyes_2,response,exit_flag
1,\RIGHT,right,5,1,0.6,10,3023524.62020641,3023548.03477396,NaN,0,1,NULL,OK
1,\RIGHT,left,1,2,0.6,9,3023549.20549005,3023559.31179958,9.93531966628507,1,0,RightArrow,OK
1,\LEFT,left,8,3,0.6,6,3023562.61380092,3023571.81953516,9.08632697444409,1,0,LeftArrow,OK
1,\LEFT,right,3,4,0.6,7,3023573.93085867,3023581.43555797,7.37664049956948,0,1,LeftArrow,OK
1,\LEFT,left,6,5,0.6,1,3023585.9683568,3023591.87201394,5.73870451562107,1,0,LeftArrow,OK
1,\RIGHT,left,8,6,0.6,10,3023594.10336291,3023596.30477772,2.09143180726096,1,0,RightArrow,OK
1,\RIGHT,right,8,7,0.6,1,3023598.14592451,3023602.44860832,4.10440186178312,0,1,RightArrow,OK
1,\RIGHT,right,6,8,0.6,6,3023604.54989724,3023610.75376607,6.02816441841424,0,1,RightArrow,OK
1,\RIGHT,left,3,9,0.6,9,3023612.72505556,3023615.72686639,2.81265129428357,1,0,RightArrow,OK
1,\RIGHT,right,10,10,0.6,4,3023617.00766661,3023620.00953323,2.89779588486999,0,1,RightArrow,OK
1,\RIGHT,right,3,11,0.6,10,3023627.4041324,3023630.00575652,2.4528248179704,0,1,RightArrow,OK
1,\LEFT,right,10,12,0.6,3,3023631.48668056,3023633.78809872,2.13812660006806,0,1,LeftArrow,OK
1,\RIGHT,left,5,13,0.6,6,3023635.38909711,3023639.89191319,4.33141841739416,1,0,RightArrow,OK
1,\LEFT,right,7,14,0.6,5,3023641.8431106,3023643.64424488,1.60509656229988,0,1,LeftArrow,OK
1,\LEFT,right,2,15,0.6,3,3023645.59542388,3023649.2977631,3.5565436007455,0,1,LeftArrow,OK
1,\LEFT,left,9,16,0.6,8,3023650.41846137,3023655.93189038,5.32521757856011,1,0,LeftArrow,OK
1,\LEFT,right,1,17,0.6,3,3023657.8630992,3023660.96503045,2.92825645161793,0,1,LeftArrow,OK
1,\RIGHT,left,10,18,0.6,6,3023662.28580514,3023666.38840407,4.00120285945013,1,0,RightArrow,OK
1,\RIGHT,right,1,19,0.6,9,3023668.40962873,3023672.01192566,3.42119610402733,0,1,LeftArrow,OK
1,\LEFT,right,9,20,0.6,4,3023675.614142,3023680.317065,4.544229157269,0,1,LeftArrow,OK
1,\LEFT,right,8,21,0.6,8,3023685.54035646,3023687.541604,1.84164906153455,0,1,LeftArrow,OK
1,\RIGHT,left,7,22,0.6,9,3023688.86240073,3023693.46526423,4.47126222355291,1,0,RightArrow,OK
1,\LEFT,left,3,23,0.6,5,3023695.63661027,3023700.23948494,4.43263458786532,1,0,LeftArrow,OK
1,\RIGHT,left,4,24,0.6,6,3023701.4202145,3023705.72290495,4.12079817941412,1,0,RightArrow,OK
1,\RIGHT,right,4,25,0.6,9,3023707.66416038,3023712.56716408,4.71650313073769,0,1,RightArrow,OK
1,\RIGHT,left,6,26,0.6,3,3023714.12812823,3023717.63031616,3.34028456313536,1,0,RightArrow,OK
1,\LEFT,left,5,27,0.6,2,3023719.03118198,3023722.9336085,3.75689289765432,1,0,LeftArrow,OK
1,\LEFT,left,10,28,0.6,2,3023724.32447836,3023730.52834266,6.10314708482474,1,0,LeftArrow,OK
1,\LEFT,left,4,29,0.6,6,3023732.48957346,3023738.39327105,5.75369664235041,1,0,LeftArrow,OK
1,\LEFT,right,4,30,0.6,7,3023740.24438935,3023746.44827086,6.0225041876547,0,1,LeftArrow,OK
1,\LEFT,right,5,31,0.6,8,3023750.81099803,3023754.01297488,3.03144881362095,0,1,LeftArrow,OK
1,\RIGHT,right,7,32,0.6,1,3023755.32379015,3023759.3262837,3.84638986736536,0,1,RightArrow,OK
1,\LEFT,left,2,33,0.6,4,3023761.12741617,3023764.12927555,2.81854269001633,1,0,LeftArrow,OK
1,\LEFT,left,7,34,0.6,2,3023766.14053624,3023772.34439481,6.06100927293301,1,0,LeftArrow,OK
1,\RIGHT,left,2,35,0.6,8,3023774.60581526,3023780.00917856,5.2752927239053,1,0,RightArrow,OK
1,\LEFT,right,6,36,0.6,5,3023781.80031597,3023785.80277602,3.82444681273773,0,1,LeftArrow,OK
1,\RIGHT,right,9,37,0.6,1,3023787.24368816,3023790.34562212,2.95686488645151,0,1,RightArrow,OK
1,\RIGHT,left,9,38,0.6,4,3023792.17681315,3023795.77899774,3.4474697005935,1,0,RightArrow,OK
1,\RIGHT,right,2,39,0.6,4,3023797.11982804,3023799.62138633,2.32824600767344,0,1,RightArrow,OK
1,\LEFT,left,1,40,0.6,7,3023801.48257212,3023813.7902515,12.1166544267908,1,0,LeftArrow,OK
