participant,answer,arrow_to,rep,trial,max_alpha,jitter,trial_start,trial_end,rt,eyes_1,eyes_2,response,exit_flag
1,\RIGHT,right,5,1,0.6,10,2595015.76319712,2595028.38103079,12.5014461395331,0,1,LeftArrow,OK
1,\RIGHT,left,1,2,0.6,9,2595032.56360479,2595036.67615466,3.96454135561362,1,0,RightArrow,OK
1,\LEFT,left,8,3,0.6,6,2595039.21780917,2595048.22332641,8.83770768530667,1,0,LeftArrow,OK
1,\LEFT,right,3,4,0.6,7,2595050.1345423,2595053.8368117,3.60050716018304,0,1,RightArrow,OK
1,\LEFT,left,6,5,0.6,1,2595056.31835025,2595058.61982434,2.20043447613716,1,0,RightArrow,OK
1,\RIGHT,left,8,6,0.6,10,2595060.65104538,2595062.95247118,2.1475635971874,1,0,LeftArrow,OK
1,\RIGHT,right,8,7,0.6,1,2595064.6035247,2595069.80673102,5.06669115647674,0,1,RightArrow,OK
1,\RIGHT,right,6,8,0.6,6,2595071.69792282,2595072.09816545,0.244135905057192,0,1,LeftArrow,OK
1,\RIGHT,left,3,9,0.6,9,2595074.23946727,2595077.34140427,2.95029155258089,1,0,LeftArrow,OK
1,\RIGHT,right,10,10,0.6,4,2595079.17257599,2595088.97866438,9.70441611390561,0,1,LeftArrow,OK
1,\RIGHT,right,3,11,0.6,10,2595097.99431172,2595102.49706607,4.31395449256524,0,1,RightArrow,OK
1,\LEFT,right,10,12,0.6,3,2595104.68841531,2595107.79034506,2.9635769603774,0,1,RightArrow,OK
1,\RIGHT,left,5,13,0.6,6,2595109.97170112,2595115.47508179,5.39970956463367,1,0,LeftArrow,OK
1,\LEFT,right,7,14,0.6,5,2595117.25621152,2595121.05857575,3.61087855650112,0,1,LeftArrow,OK
1,\LEFT,right,2,15,0.6,3,2595122.55951087,2595125.96163006,3.23541771434247,0,1,RightArrow,OK
1,\LEFT,left,9,16,0.6,8,2595127.43256449,2595131.43499857,3.88198673212901,1,0,RightArrow,OK
1,\LEFT,right,1,17,0.6,3,2595133.21613676,2595138.51942765,5.13003092678264,0,1,LeftArrow,OK
1,\RIGHT,left,10,18,0.6,6,2595140.73077534,2595143.83271143,2.98310211021453,1,0,LeftArrow,OK
1,\RIGHT,right,1,19,0.6,9,2595145.94401046,2595147.44494105,1.32156731234863,0,1,RightArrow,OK
1,\LEFT,right,9,20,0.6,4,2595148.94587103,2595150.64696625,1.56755171669647,0,1,RightArrow,OK
1,\LEFT,right,8,21,0.6,8,2595159.07218353,2595160.67316127,1.46468171337619,0,1,RightArrow,OK
1,\RIGHT,left,7,22,0.6,9,2595162.63438655,2595165.33608727,2.56617017183453,1,0,RightArrow,OK
1,\LEFT,left,3,23,0.6,5,2595166.74695785,2595174.45171505,7.57311834348366,1,0,LeftArrow,OK
1,\RIGHT,left,4,24,0.6,6,2595175.83257621,2595183.23717958,7.25496157817543,1,0,RightArrow,OK
1,\RIGHT,right,4,25,0.6,9,2595185.16837249,2595192.87315746,7.51849133009091,0,1,RightArrow,OK
1,\RIGHT,left,6,26,0.6,3,2595194.57421434,2595197.27588578,2.56047194078565,1,0,RightArrow,OK
1,\LEFT,left,5,27,0.6,2,2595198.23648534,2595200.33779028,1.92195946956053,1,0,LeftArrow,OK
1,\LEFT,left,10,28,0.6,2,2595201.44848441,2595203.44972288,1.8378775101155,1,0,LeftArrow,OK
1,\LEFT,left,4,29,0.6,6,2595204.8106037,2595207.31208726,2.3395560705103,1,0,LeftArrow,OK
1,\LEFT,right,4,30,0.6,7,2595209.20329717,2595210.90435315,1.52262298483402,0,1,LeftArrow,OK
1,\LEFT,right,5,31,0.6,8,2595215.49723963,2595217.19826059,1.58030587760732,0,1,LeftArrow,OK
1,\RIGHT,right,7,32,0.6,1,2595218.8693186,2595219.97001803,0.968069622293115,0,1,RightArrow,OK
1,\LEFT,left,2,33,0.6,4,2595221.2608385,2595222.8617776,1.47229152917862,1,0,LeftArrow,OK
1,\LEFT,left,7,34,0.6,2,2595223.86240242,2595225.26330156,1.26271567586809,1,0,LeftArrow,OK
1,\RIGHT,left,2,35,0.6,8,2595226.57411262,2595228.27517825,1.58276168908924,1,0,RightArrow,OK
1,\LEFT,right,6,36,0.6,5,2595229.85619707,2595231.45714796,1.44452149933204,0,1,LeftArrow,OK
1,\RIGHT,right,9,37,0.6,1,2595232.69788751,2595234.59910026,1.74666144279763,0,1,RightArrow,OK
1,\RIGHT,left,9,38,0.6,4,2595235.70982518,2595237.41084704,1.59844042733312,1,0,RightArrow,OK
1,\RIGHT,right,2,39,0.6,4,2595239.19196018,2595241.29323704,1.90808697231114,0,1,RightArrow,OK
1,\LEFT,left,1,40,0.6,7,2595242.07370996,2595244.275104,2.09028306417167,1,0,LeftArrow,OK
