participant,answer,arrow_to,rep,trial,max_alpha,jitter,trial_start,trial_end,rt,eyes_1,eyes_2,response,exit_flag
1,\RIGHT,right,5,1,0.6,10,248.134612998872,260.952552846422,12.6426685107438,0,1,RightArrow,OK
1,\RIGHT,left,1,2,0.6,9,262.593622479549,268.297159117149,5.59125872447777,1,0,LeftArrow,OK
1,\LEFT,left,8,3,0.6,6,270.038282509027,281.145189678441,10.9778487383899,1,0,RightArrow,OK
1,\LEFT,right,3,4,0.6,7,283.346536876964,304.859962830699,21.356292233898,0,1,LeftArrow,OK
1,\LEFT,left,6,5,0.6,1,306.350895833289,324.66233316601,18.1187509979779,1,0,LeftArrow,OK
1,\RIGHT,left,8,6,0.6,10,326.403401621939,331.006260585358,4.41796055417694,1,0,RightArrow,OK
1,\RIGHT,right,8,7,0.6,1,332.617273613328,335.218896517876,2.40380428434003,0,1,RightArrow,OK
1,\RIGHT,right,6,8,0.6,6,337.480324025513,340.282032110968,2.65254671895042,0,1,RightArrow,OK
1,\RIGHT,left,3,9,0.6,9,341.052519975406,344.954964594988,3.78407575848587,1,0,RightArrow,OK
1,\RIGHT,right,10,10,0.6,4,346.255760351276,349.057563216337,2.69264422724285,0,1,RightArrow,OK
1,\RIGHT,right,3,11,0.6,10,352.719812469193,355.821730126241,2.9481489150603,0,1,RightArrow,OK
1,\LEFT,right,10,12,0.6,3,356.86237639034,360.36456190542,3.38939778427016,0,1,LeftArrow,OK
1,\RIGHT,left,5,13,0.6,6,361.485289692054,364.186964544278,2.59814473449484,1,0,RightArrow,OK
1,\LEFT,right,7,14,0.6,5,365.047489412001,367.248855023123,2.02782958626892,0,1,RightArrow,OK
1,\LEFT,right,2,15,0.6,3,368.309544457219,370.91117158761,2.42160956899727,0,1,LeftArrow,OK
1,\LEFT,left,9,16,0.6,8,372.171958578294,373.973088025201,1.63893316800227,1,0,RightArrow,OK
1,\LEFT,right,1,17,0.6,3,375.664109227157,376.964944827101,1.11468875615049,0,1,LeftArrow,OK
1,\RIGHT,left,10,18,0.6,6,378.666000895275,380.367036437929,1.59259922202244,1,0,RightArrow,OK
1,\RIGHT,right,1,19,0.6,9,381.497741740063,384.099366153841,2.40858823966198,0,1,RightArrow,OK
1,\LEFT,right,9,20,0.6,4,385.63044123659,386.831085839233,1.06773552375279,0,1,LeftArrow,OK
1,\LEFT,right,8,21,0.6,8,390.813552819557,392.614706112289,1.69237437702782,0,1,RightArrow,OK
1,\RIGHT,left,7,22,0.6,9,393.685375174807,394.185676869762,0.316463066591098,1,0,LeftArrow,OK
1,\LEFT,left,3,23,0.6,5,395.736640376897,397.237590738644,1.31293569565963,1,0,RightArrow,OK
1,\RIGHT,left,4,24,0.6,6,398.768518621929,401.370171409219,2.46492052850795,1,0,RightArrow,OK
1,\RIGHT,right,4,25,0.6,9,402.410808919787,405.512684620258,2.97436483326481,0,1,RightArrow,OK
1,\RIGHT,left,6,26,0.6,3,406.473322710371,414.778534471856,8.19138145501182,1,0,RightArrow,OK
1,\LEFT,left,5,27,0.6,2,415.729120792382,417.93051960655,2.07139560554663,1,0,LeftArrow,OK
1,\LEFT,left,10,28,0.6,2,419.031151702003,421.73285854989,2.50508806504416,1,0,RightArrow,OK
1,\LEFT,left,4,29,0.6,6,422.923607335941,424.824795974825,1.76452520096143,1,0,LeftArrow,OK
1,\LEFT,right,4,30,0.6,7,425.815415812317,449.530204358715,NaN,0,1,NULL,OK
1,\LEFT,right,5,31,0.6,8,453.592739882202,454.893516320354,1.16571067046311,0,1,LeftArrow,OK
1,\RIGHT,right,7,32,0.6,1,456.474532206804,459.376307634075,2.78767919457863,0,1,RightArrow,OK
1,\LEFT,left,2,33,0.6,4,460.627121636946,462.128033966113,1.30675902345615,1,0,LeftArrow,OK
1,\LEFT,left,7,34,0.6,2,463.208734272698,465.310011412793,1.99705307869215,1,0,LeftArrow,OK
1,\RIGHT,left,2,35,0.6,8,466.961060674342,470.263122975935,3.11645123423267,1,0,RightArrow,OK
1,\LEFT,right,6,36,0.6,5,471.533925212854,473.835359976867,2.10336168772898,0,1,LeftArrow,OK
1,\RIGHT,right,9,37,0.6,1,475.116160556652,477.217435885672,1.94505469296388,0,1,RightArrow,OK
1,\RIGHT,left,9,38,0.6,4,478.548283719429,480.449473565696,1.80063170305368,1,0,LeftArrow,OK
1,\RIGHT,right,2,39,0.6,4,481.360048705851,485.962863599772,4.47666263501191,0,1,RightArrow,OK
1,\LEFT,left,1,40,0.6,7,487.673949100937,489.675203874252,1.81856949805143,1,0,LeftArrow,OK
