participant,answer,arrow_to,rep,trial,max_alpha,jitter,trial_start,trial_end,rt,eyes_1,eyes_2,response,exit_flag
1,\RIGHT,right,5,1,0.6,10,5377068.18661397,5377088.49965,20.1522703422233,0,1,LeftArrow,OK
1,\RIGHT,left,1,2,0.6,9,5377092.90247341,5377094.70364255,1.6762376204133,1,0,LeftArrow,OK
1,\LEFT,left,8,3,0.6,6,5377097.31530687,5377103.71941527,6.27111771050841,1,0,RightArrow,OK
1,\LEFT,right,3,4,0.6,7,5377105.30043579,5377105.70069103,0.253874962218106,0,1,LeftArrow,OK
1,\LEFT,left,6,5,0.6,1,5377107.90210364,5377131.2170815,NaN,1,0,NULL,OK
1,\RIGHT,left,8,6,0.6,10,5377132.07763719,5377147.38747449,15.1713471487165,1,0,RightArrow,OK
1,\RIGHT,right,8,7,0.6,1,5377149.15859416,5377153.46138168,4.20213826559484,0,1,RightArrow,OK
1,\RIGHT,right,6,8,0.6,6,5377155.10243743,5377164.40841192,9.14599029067904,0,1,RightArrow,OK
1,\RIGHT,left,3,9,0.6,9,5377165.43907807,5377167.94068528,2.30515254009515,1,0,RightArrow,OK
1,\RIGHT,right,10,10,0.6,4,5377169.20149985,5377172.60364198,3.25472015049309,0,1,RightArrow,OK
1,\RIGHT,right,3,11,0.6,10,5377179.84841928,5377183.35059771,3.38340562209487,0,1,RightArrow,OK
1,\LEFT,right,10,12,0.6,3,5377184.39125912,5377187.49325374,2.96845183521509,0,1,LeftArrow,OK
1,\RIGHT,left,5,13,0.6,6,5377188.46388284,5377190.97549739,2.40763826947659,1,0,RightArrow,OK
1,\LEFT,right,7,14,0.6,5,5377191.87608995,5377195.27827947,3.25936446059495,0,1,LeftArrow,OK
1,\LEFT,right,2,15,0.6,3,5377196.30892963,5377201.01195126,4.53032550960779,0,1,LeftArrow,OK
1,\LEFT,left,9,16,0.6,8,5377202.94320032,5377208.54681061,5.46386110410094,1,0,LeftArrow,OK
1,\LEFT,right,1,17,0.6,3,5377209.20722026,5377211.50871042,2.19959696568549,0,1,LeftArrow,OK
1,\RIGHT,left,10,18,0.6,6,5377213.42993766,5377218.63328726,5.06476195435971,1,0,RightArrow,OK
1,\RIGHT,right,1,19,0.6,9,5377220.26431877,5377224.0667892,3.60610207915306,0,1,RightArrow,OK
1,\LEFT,right,9,20,0.6,4,5377224.94734416,5377228.24947213,3.14703228697181,0,1,LeftArrow,OK
1,\LEFT,right,8,21,0.6,8,5377233.87308893,5377237.87566706,3.84499788843095,0,1,LeftArrow,OK
1,\RIGHT,left,7,22,0.6,9,5377239.27657129,5377247.58194177,8.14512155763805,1,0,RightArrow,OK
1,\LEFT,left,3,23,0.6,5,5377248.27235682,5377250.67390399,2.30122452694923,1,0,LeftArrow,OK
1,\RIGHT,left,4,24,0.6,6,5377252.09481715,5377254.79655833,2.54268457740545,1,0,RightArrow,OK
1,\RIGHT,right,4,25,0.6,9,5377256.16743725,5377260.57028119,4.29380498081446,0,1,RightArrow,OK
1,\RIGHT,left,6,26,0.6,3,5377262.38144226,5377264.88305068,2.3358346875757,1,0,RightArrow,OK
1,\LEFT,left,5,27,0.6,2,5377266.27401549,5377268.77555902,2.33108866494149,1,0,LeftArrow,OK
1,\LEFT,left,10,28,0.6,2,5377269.49601388,5377272.39788389,2.78886440116912,1,0,LeftArrow,OK
1,\LEFT,left,4,29,0.6,6,5377273.51860184,5377275.72001566,2.00615689530969,1,0,LeftArrow,OK
1,\LEFT,right,4,30,0.6,7,5377276.7006865,5377280.30296712,3.47197853494436,0,1,LeftArrow,OK
1,\LEFT,right,5,31,0.6,8,5377283.36495746,5377288.16802888,4.6314773503691,0,1,LeftArrow,OK
1,\RIGHT,right,7,32,0.6,1,5377289.38888796,5377291.79037518,2.2794559057802,0,1,RightArrow,OK
1,\LEFT,left,2,33,0.6,4,5377293.27133474,5377295.37266256,1.94085703976452,1,0,LeftArrow,OK
1,\LEFT,left,7,34,0.6,2,5377296.30326475,5377299.30519691,2.87681832443923,1,0,LeftArrow,OK
1,\RIGHT,left,2,35,0.6,8,5377300.46601844,5377303.86813432,3.24190891720355,1,0,RightArrow,OK
1,\LEFT,right,6,36,0.6,5,5377305.17897829,5377307.98079038,2.68881975766271,0,1,LeftArrow,OK
1,\RIGHT,right,9,37,0.6,1,5377308.65121552,5377311.65314224,2.896414921619,0,1,RightArrow,OK
1,\RIGHT,left,9,38,0.6,4,5377312.76386554,5377315.36548873,2.43970501702279,1,0,RightArrow,OK
1,\RIGHT,right,2,39,0.6,4,5377316.96656767,5377320.06856017,2.96484408807009,0,1,RightArrow,OK
1,\LEFT,left,1,40,0.6,7,5377321.30936067,5377326.51271963,5.06987443752587,1,0,LeftArrow,OK
