participant,answer,arrow_to,rep,trial,max_alpha,jitter,trial_start,trial_end,rt,eyes_1,eyes_2,response,exit_flag
1,\RIGHT,right,5,1,0.6,10,2758613.42695092,2758618.83012112,5.22527375677601,0,1,RightArrow,OK
1,\RIGHT,left,1,2,0.6,9,2758621.57169803,2758625.67409775,3.92001878656447,1,0,RightArrow,OK
1,\LEFT,left,8,3,0.6,6,2758626.80476598,2758629.60640065,2.67067755945027,1,0,LeftArrow,OK
1,\LEFT,right,3,4,0.6,7,2758632.50818211,2758635.00956481,2.31892147706822,0,1,LeftArrow,OK
1,\LEFT,left,6,5,0.6,1,2758636.77060035,2758642.77412014,5.8560265111737,1,0,LeftArrow,OK
1,\RIGHT,left,8,6,0.6,10,2758644.35503586,2758647.45684245,2.98328724177554,1,0,RightArrow,OK
1,\RIGHT,right,8,7,0.6,1,2758649.68822397,2758651.9895025,2.16185080166906,0,1,RightArrow,OK
1,\RIGHT,right,6,8,0.6,6,2758654.07073213,2758655.87180627,1.62708626501262,0,1,RightArrow,OK
1,\RIGHT,left,3,9,0.6,9,2758656.89236029,2758658.79350874,1.70923833502457,1,0,RightArrow,OK
1,\RIGHT,right,10,10,0.6,4,2758660.48446775,2758662.78581113,2.18881682865322,0,1,RightArrow,OK
1,\RIGHT,right,3,11,0.6,10,2758668.01887939,2758670.82054695,2.62192836776376,0,1,RightArrow,OK
1,\LEFT,right,10,12,0.6,3,2758672.35140318,2758675.25304605,2.80111217172816,0,1,LeftArrow,OK
1,\RIGHT,left,5,13,0.6,6,2758677.07415685,2758679.97586582,2.77405343437567,1,0,RightArrow,OK
1,\LEFT,right,7,14,0.6,5,2758681.82693063,2758684.32840574,2.37299794936553,0,1,LeftArrow,OK
1,\LEFT,right,2,15,0.6,3,2758686.78987757,2758688.99112883,2.00977760786191,0,1,LeftArrow,OK
1,\LEFT,left,9,16,0.6,8,2758694.19417032,2758697.69618603,3.32495175022632,1,0,LeftArrow,OK
1,\LEFT,right,1,17,0.6,3,2758698.90689525,2758702.40892544,3.32386873709038,0,1,LeftArrow,OK
1,\RIGHT,left,10,18,0.6,6,2758704.0298686,2758705.53081336,1.36069572437555,1,0,RightArrow,OK
1,\RIGHT,right,1,19,0.6,9,2758707.18170329,2758710.49363262,3.12056675273925,0,1,RightArrow,OK
1,\LEFT,right,9,20,0.6,4,2758711.45418925,2758713.55539035,1.9279101761058,0,1,LeftArrow,OK
1,\LEFT,right,8,21,0.6,8,2758724.84192017,2758726.24276678,1.21133463643491,0,1,LeftArrow,OK
1,\RIGHT,left,7,22,0.6,9,2758728.10384011,2758730.10495784,1.9011321538128,1,0,RightArrow,OK
1,\LEFT,left,3,23,0.6,5,2758731.87596054,2758733.6770045,1.68077753623948,1,0,LeftArrow,OK
1,\RIGHT,left,4,24,0.6,6,2758735.09783735,2758737.09896595,1.81866918504238,1,0,RightArrow,OK
1,\RIGHT,right,4,25,0.6,9,2758738.13961246,2758740.3408284,2.05669944081455,0,1,RightArrow,OK
1,\RIGHT,left,6,26,0.6,3,2758741.97176709,2758744.17302681,2.02424495434389,1,0,RightArrow,OK
1,\LEFT,left,5,27,0.6,2,2758744.92348576,2758755.52953838,10.4077911172062,1,0,LeftArrow,OK
1,\LEFT,left,10,28,0.6,2,2758756.86031118,2758762.96383827,5.99888076540083,1,0,RightArrow,OK
1,\LEFT,left,4,29,0.6,6,2758766.30572735,2758770.30800808,3.83264694176614,1,0,LeftArrow,OK
1,\LEFT,right,4,30,0.6,7,2758772.08902866,2758774.69052617,2.40906459372491,0,1,LeftArrow,OK
1,\LEFT,right,5,31,0.6,8,2758778.942964,2758780.74399528,1.63476123288274,0,1,LeftArrow,OK
1,\RIGHT,right,7,32,0.6,1,2758782.23484792,2758786.63737942,4.214455393143,0,1,RightArrow,OK
1,\LEFT,left,2,33,0.6,4,2758787.66797033,2758791.77030545,3.96507070073858,1,0,LeftArrow,OK
1,\LEFT,left,7,34,0.6,2,2758793.14116031,2758803.84721782,10.5870485710911,1,0,LeftArrow,OK
1,\RIGHT,left,2,35,0.6,8,2758804.88783717,2758807.18910841,2.16020963620394,1,0,RightArrow,OK
1,\LEFT,right,6,36,0.6,5,2758808.82007819,2758810.92129166,1.90772139141336,0,1,LeftArrow,OK
1,\RIGHT,right,9,37,0.6,1,2758812.21202978,2758819.72629157,7.36315363366157,0,1,RightArrow,OK
1,\RIGHT,left,9,38,0.6,4,2758820.50680204,2758825.1094221,4.45212343707681,1,0,RightArrow,OK
1,\RIGHT,right,2,39,0.6,4,2758825.87986217,2758828.88159595,2.86268668249249,0,1,RightArrow,OK
1,\LEFT,left,1,40,0.6,7,2758830.22230845,2758833.62426614,3.24798413971439,1,0,LeftArrow,OK
