participant,answer,arrow_to,rep,trial,max_alpha,jitter,trial_start,trial_end,rt,eyes_1,eyes_2,response,exit_flag
1,\RIGHT,right,5,1,0.6,10,6158245.95791109,6158259.47642773,13.3219657838345,0,1,LeftArrow,OK
1,\RIGHT,left,1,2,0.6,9,6158263.45885813,6158270.36320892,6.78050788119435,1,0,RightArrow,OK
1,\LEFT,left,8,3,0.6,6,6158272.57457291,6158279.67897085,6.98430155217648,1,0,LeftArrow,OK
1,\LEFT,right,3,4,0.6,7,6158281.17998068,6158285.88292812,4.5225390503183,0,1,LeftArrow,OK
1,\LEFT,left,6,5,0.6,1,6158287.01362325,6158289.81540288,2.6887343833223,1,0,RightArrow,OK
1,\RIGHT,left,8,6,0.6,10,6158291.84665549,6158297.14996352,5.15928968135268,1,0,RightArrow,OK
1,\RIGHT,right,8,7,0.6,1,6158298.41077575,6158301.11246087,2.52295499574393,0,1,LeftArrow,OK
1,\RIGHT,right,6,8,0.6,6,6158302.49331274,6158307.79664189,5.16009591519833,0,1,RightArrow,OK
1,\RIGHT,left,3,9,0.6,9,6158309.42764778,6158313.02991936,3.44144338276237,1,0,RightArrow,OK
1,\RIGHT,right,10,10,0.6,4,6158314.54087715,6158316.84231101,2.17601712606847,0,1,RightArrow,OK
1,\RIGHT,right,3,11,0.6,10,6158322.80607219,6158324.9073922,1.9184035686776,0,1,RightArrow,OK
1,\LEFT,right,10,12,0.6,3,6158326.15818885,6158329.36015936,3.03800522722304,0,1,LeftArrow,OK
1,\RIGHT,left,5,13,0.6,6,6158330.29076328,6158333.19255441,2.75332627631724,1,0,RightArrow,OK
1,\LEFT,right,7,14,0.6,5,6158333.89301735,6158336.49463633,2.41484554950148,0,1,LeftArrow,OK
1,\LEFT,right,2,15,0.6,3,6158337.15503485,6158340.4571041,3.19262292515486,0,1,RightArrow,OK
1,\LEFT,left,9,16,0.6,8,6158341.24759798,6158343.6491339,2.26788691245019,1,0,LeftArrow,OK
1,\LEFT,right,1,17,0.6,3,6158344.7097728,6158348.01185352,3.10943908151239,0,1,RightArrow,OK
1,\RIGHT,left,10,18,0.6,6,6158348.98245697,6158354.28577737,5.18843359313905,1,0,RightArrow,OK
1,\RIGHT,right,1,19,0.6,9,6158356.06692517,6158359.96936466,3.70364984124899,0,1,RightArrow,OK
1,\LEFT,right,9,20,0.6,4,6158361.21015328,6158365.41276039,4.04025609884411,0,1,LeftArrow,OK
1,\LEFT,right,8,21,0.6,8,6158369.10506472,6158373.30773914,4.09679653029889,0,1,LeftArrow,OK
1,\RIGHT,left,7,22,0.6,9,6158374.58849589,6158379.29147413,4.52510867267847,1,0,RightArrow,OK
1,\LEFT,left,3,23,0.6,5,6158380.11195648,6158383.71422595,3.47342163510621,1,0,LeftArrow,OK
1,\RIGHT,left,4,24,0.6,6,6158384.59476918,6158387.99693143,3.23838561493903,1,0,RightArrow,OK
1,\RIGHT,right,4,25,0.6,9,6158389.64792621,6158393.05005797,3.26491432543844,0,1,RightArrow,OK
1,\RIGHT,left,6,26,0.6,3,6158394.37098781,6158396.77244495,2.21368881221861,1,0,RightArrow,OK
1,\LEFT,left,5,27,0.6,2,6158398.38343115,6158400.9850453,2.44105279352516,1,0,LeftArrow,OK
1,\LEFT,left,10,28,0.6,2,6158402.58606814,6158405.08762492,2.31817247532308,1,0,LeftArrow,OK
1,\LEFT,left,4,29,0.6,6,6158406.38851911,6158408.78992792,2.25954443309456,1,0,LeftArrow,OK
1,\LEFT,right,4,30,0.6,7,6158409.70052663,6158413.00258049,3.14734198246151,0,1,LeftArrow,OK
1,\LEFT,right,5,31,0.6,8,6158415.90438429,6158418.60607938,2.58310038316995,0,1,LeftArrow,OK
1,\RIGHT,right,7,32,0.6,1,6158419.58669236,6158422.88875557,3.17261772695929,0,1,RightArrow,OK
1,\LEFT,left,2,33,0.6,4,6158424.16959232,6158427.97194908,3.66948410496116,1,0,LeftArrow,OK
1,\LEFT,left,7,34,0.6,2,6158429.24275937,6158432.64489597,3.28402122668922,1,0,LeftArrow,OK
1,\RIGHT,left,2,35,0.6,8,6158433.96573737,6158441.77058738,7.65655570477247,1,0,RightArrow,OK
1,\LEFT,right,6,36,0.6,5,6158442.72118563,6158446.02327541,3.14890162460506,0,1,LeftArrow,OK
1,\RIGHT,right,9,37,0.6,1,6158447.35419621,6158453.85819842,6.3074320293963,0,1,RightArrow,OK
1,\RIGHT,left,9,38,0.6,4,6158455.21912046,6158460.32226069,4.98621232714504,1,0,RightArrow,OK
1,\RIGHT,right,2,39,0.6,4,6158461.19278894,6158467.69686523,6.38814538996667,0,1,RightArrow,OK
1,\LEFT,left,1,40,0.6,7,6158468.7975414,6158473.0001956,4.0631185779348,1,0,LeftArrow,OK
