participant,list,unit,rep_of_unit,object,pair,trial,name,trial_type,expt,phase,condition,gonogo,cue,answer,trial_start,trial_end,rt,pas,jitter,max_alpha,rep,eyes_1,eyes_2,response,exit_flag
25,1,5,1,201,203,1,bellow,6,practice,name,CFS,go,absent,bellow,2395332.5099956,2395364.67691833,32.0861520124599,,NA,1,1,1,0,candy,Return
25,1,5,1,201,203,1,bellow,6,practice,noise,CFS,go,absent,\ENTER,2395584.3332454,2395585.33386539,0.889977476559579,,7,1,1,1,0,Return,OK
25,1,5,1,201,203,1,bellow,6,practice,study,CFS,go,absent,j,2394990.34451327,2394997.15871949,6.6731808851473,2@,1,0.6,1,1,0,j,OK
25,1,5,1,201,203,1,bellow,6,practice,study,CFS,go,absent,j,2395138.05619691,2395142.55900346,4.33702509943396,2@,1,0.6,2,1,0,j,OK
25,1,5,1,212,215,2,light switch,3,practice,name,CFS,go,present,light switch,2395364.7828264,2395369.08961055,4.2529917373322,,NA,1,1,1,0,light switch,Return
25,1,5,1,212,215,2,light switch,3,practice,noise,CFS,go,present,\ENTER,2395591.84794042,2395593.04865833,1.08681939216331,,6,1,1,1,0,Return,OK
25,1,5,1,212,215,2,light switch,3,practice,study,CFS,go,present,j,2395010.57709123,2395018.08173179,7.3514110352844,0,8,0.6,1,1,0,f,OK
25,1,5,1,212,215,2,light switch,3,practice,study,CFS,go,present,j,2395145.52089794,2395150.72408917,5.10373116703704,2@,8,0.6,2,1,0,j,OK
25,1,5,1,99,56,3,saw,18,practice,name,Binocular,nogo,absent,saw,2395369.15445261,2395376.21407455,6.96904186531901,,NA,1,1,1,1,paper,Return
25,1,5,1,99,56,3,saw,18,practice,noise,Binocular,nogo,absent,\ENTER,2395598.46204932,2395608.46822839,NaN,,0,0,1,1,1,NULL,OK
25,1,5,1,99,56,3,saw,18,practice,study,Binocular,nogo,absent,NA,2395020.1930432,2395025.09605253,NaN,,0,1,1,1,1,NULL,OK
25,1,5,1,99,56,3,saw,18,practice,study,Binocular,nogo,absent,NA,2395157.98862648,2395162.89160684,NaN,,0,1,2,1,1,NULL,OK
25,1,5,1,189,19,4,fountain pen,15,practice,name,Binocular,go,present,fountain pen,2395376.23965743,2395382.44793354,6.15539708035067,,NA,1,1,1,1,pen,Return
25,1,5,1,189,19,4,fountain pen,15,practice,noise,Binocular,go,present,\ENTER,2395613.20120177,2395614.30180461,0.932319395709783,,3,1,1,1,1,Return,OK
25,1,5,1,189,19,4,fountain pen,15,practice,study,Binocular,go,present,NA,2395025.43631884,2395030.3393484,NaN,,0,1,1,1,1,NULL,OK
25,1,5,1,189,19,4,fountain pen,15,practice,study,Binocular,go,present,NA,2395163.24183011,2395168.14487778,NaN,,0,1,2,1,1,NULL,OK
25,1,5,1,3,6,5,balloon,1,practice,name,CFS,name,present,balloon,2395382.52840181,2395389.88256416,7.29817069834098,,NA,1,1,1,0,light bulb,Return
25,1,5,1,3,6,5,balloon,1,practice,name,CFS,name,present,balloon,2395620.01511459,2395631.12233207,11.0293906531297,,NA,1,2,1,0,light bulb,Return
25,1,5,1,3,6,5,balloon,1,practice,noise,CFS,name,present,balloon,2395617.4595914,2395617.61392176,NaN,,5,1,1,1,0,,
25,1,5,1,3,6,5,balloon,1,practice,study,CFS,name,present,j,2395030.91967571,2395036.02286989,4.94375056959689,2@,2,0.6,1,1,0,j,OK
25,1,5,1,3,6,5,balloon,1,practice,study,CFS,name,present,j,2395168.70525887,2395173.10798718,4.23818140756339,2@,2,0.6,2,1,0,j,OK
25,1,5,1,25,85,6,calculator,10,practice,name,Not Studied,go,present,calculator,2395389.93213829,2395401.13955565,11.1418864955194,,NA,1,1,0,0,calculator,Return
25,1,5,1,25,85,6,calculator,10,practice,noise,Not Studied,go,present,\ENTER,2395634.2642569,2395635.66510985,1.21198155824095,,8,1,1,0,0,Return,OK
25,1,5,1,25,85,6,calculator,10,practice,study,Not Studied,go,present,f,2395038.75457401,2395044.05786309,5.10829234775156,0,0,0,1,0,0,f,OK
25,1,5,1,25,85,6,calculator,10,practice,study,Not Studied,go,present,f,2395174.86909885,2395179.37184745,4.33790950570256,0,0,0,2,0,0,f,OK
25,1,5,1,215,212,7,electrical outlet,14,practice,name,Not Studied,nogo,absent,electrical outlet,2395401.19295626,2395407.64357864,6.3607111829333,,NA,1,1,0,0,light switch,Return
25,1,5,1,215,212,7,electrical outlet,14,practice,noise,Not Studied,nogo,absent,\ENTER,2395639.01719491,2395649.02340476,NaN,,0,0,1,0,0,NULL,OK
25,1,5,1,215,212,7,electrical outlet,14,practice,study,Not Studied,nogo,absent,f,2395045.67886885,2395052.68321331,6.80750857666135,0,0,0,1,0,0,f,OK
25,1,5,1,215,212,7,electrical outlet,14,practice,study,Not Studied,nogo,absent,f,2395180.08232039,2395185.08542004,4.90029091807082,0,0,0,2,0,0,f,OK
25,1,5,1,15,145,8,boat,9,practice,name,Not Studied,go,present,boat,2395407.73919108,2395419.60099585,11.7817509304732,,NA,1,1,0,0,cell phone,Return
25,1,5,1,15,145,8,boat,9,practice,noise,Not Studied,go,present,\ENTER,2395653.64627351,2395654.84701376,1.0128510533832,,8,1,1,0,0,Return,OK
25,1,5,1,15,145,8,boat,9,practice,study,Not Studied,go,present,f,2395053.63380912,2395058.53682147,4.75634070811793,0,0,0,1,0,0,f,OK
25,1,5,1,15,145,8,boat,9,practice,study,Not Studied,go,present,f,2395185.85590551,2395192.76019074,6.75834948709235,0,0,0,2,0,0,f,OK
25,1,5,1,6,3,9,bathtub,5,practice,name,CFS,go,absent,bathtub,2395419.64229972,2395423.29328745,3.59042010176927,,NA,1,1,1,0,pillow,Return
25,1,5,1,6,3,9,bathtub,5,practice,noise,CFS,go,absent,\ENTER,2395658.99962752,2395660.30044178,1.11523568956181,,6,1,1,1,0,Return,OK
25,1,5,1,6,3,9,bathtub,5,practice,study,CFS,go,absent,j,2395059.79763613,2395065.50114339,5.51196785457432,2@,3,0.6,1,1,0,j,OK
25,1,5,1,6,3,9,bathtub,5,practice,study,CFS,go,absent,j,2395194.17102209,2395197.6732648,3.36297230469063,2@,3,0.6,2,1,0,j,OK
25,1,5,1,195,199,10,toilet,2,practice,name,CFS,go,present,toilet,2395423.34700742,2395426.79547009,3.36550116213039,,NA,1,1,1,0,toilet,Return
25,1,5,1,195,199,10,toilet,2,practice,noise,CFS,go,present,\ENTER,2395664.02274644,2395665.42358098,1.29171543987468,,10,1,1,1,0,Return,OK
25,1,5,1,195,199,10,toilet,2,practice,study,CFS,go,present,j,2395067.96268682,2395078.06895107,9.93030035402626,1!,1,0.6,1,1,0,j,OK
25,1,5,1,195,199,10,toilet,2,practice,study,CFS,go,present,j,2395199.46431859,2395204.76760858,5.189213687554,2@,1,0.6,2,1,0,j,OK
25,1,5,1,72,89,11,towel,12,practice,name,Not Studied,go,absent,towel,2395426.83314066,2395433.489596,6.56701654568315,,NA,1,1,0,0,blanket,Return
25,1,5,1,72,89,11,towel,12,practice,noise,Not Studied,go,absent,\ENTER,2395668.38543471,2395669.38605953,0.816890826914459,,6,1,1,0,0,Return,OK
25,1,5,1,72,89,11,towel,12,practice,study,Not Studied,go,absent,f,2395080.40042947,2395088.70558244,8.10783988190815,0,0,0,1,0,0,f,OK
25,1,5,1,72,89,11,towel,12,practice,study,Not Studied,go,absent,f,2395206.43864818,2395213.94334821,7.31838767649606,0,0,0,2,0,0,f,OK
25,1,5,1,203,201,12,bowling pin,11,practice,name,Not Studied,nogo,present,bowling pin,2395433.50653525,2395456.7740898,23.1802244400606,,NA,1,1,0,0,broken vase,Return
25,1,5,1,203,201,12,bowling pin,11,practice,noise,Not Studied,nogo,present,\ENTER,2395672.33792218,2395682.34408405,NaN,,0,0,1,0,0,NULL,OK
25,1,5,1,203,201,12,bowling pin,11,practice,study,Not Studied,nogo,present,f,2395089.59614218,2395098.90191273,9.15961566660553,0,0,0,1,0,0,f,OK
25,1,5,1,203,201,12,bowling pin,11,practice,study,Not Studied,nogo,present,f,2395214.72382053,2395221.2277922,6.40068180765957,0,0,0,2,0,0,f,OK
25,1,5,1,89,72,13,sponge,4,practice,name,CFS,nogo,present,sponge,2395456.80390425,2395460.35631179,3.45860919449478,,NA,1,1,1,0,sponge,Return
25,1,5,1,89,72,13,sponge,4,practice,noise,CFS,nogo,present,\ENTER,2395684.67555188,2395685.47604467,0.613831506576389,,0,0,1,1,0,Return,OK
25,1,5,1,89,72,13,sponge,4,practice,study,CFS,nogo,present,j,2395100.17271363,2395105.27584382,4.96664974326268,2@,2,0.6,1,1,0,j,OK
25,1,5,1,89,72,13,sponge,4,practice,study,CFS,nogo,present,j,2395222.2684782,2395226.07084424,3.61581070441753,2@,2,0.6,2,1,0,j,OK
25,1,5,1,145,15,14,router,13,practice,name,Not Studied,go,absent,router,2395460.45375794,2395470.1624026,9.61619012383744,,NA,1,1,0,0,scale,Return
25,1,5,1,145,15,14,router,13,practice,noise,Not Studied,go,absent,\ENTER,2395689.58863469,2395690.48914263,0.732479252852499,,4,1,1,0,0,Return,OK
25,1,5,1,145,15,14,router,13,practice,study,Not Studied,go,absent,f,2395108.67796181,2395114.58161589,5.77286763070151,0,0,0,1,0,0,f,OK
25,1,5,1,145,15,14,router,13,practice,study,Not Studied,go,absent,f,2395227.44171764,2395233.54551039,5.94616382103413,0,0,0,2,0,0,f,OK
25,1,5,1,56,99,15,clothes pin,7,practice,name,CFS,nogo,absent,clothes pin,2395470.19014941,2395474.49509351,4.22358538815752,,NA,1,1,1,0,flower,Return
25,1,5,1,56,99,15,clothes pin,7,practice,noise,CFS,nogo,absent,\ENTER,2395693.03074986,2395703.03692652,NaN,,0,0,1,1,0,NULL,OK
25,1,5,1,56,99,15,clothes pin,7,practice,study,CFS,nogo,absent,j,2395116.04254084,2395119.4446389,3.295933120884,2@,6,0.6,1,1,0,j,OK
25,1,5,1,56,99,15,clothes pin,7,practice,study,CFS,nogo,absent,j,2395235.02643136,2395239.82940261,4.68105330644175,2@,6,0.6,2,1,0,j,OK
25,1,5,1,19,189,16,bracelet,16,practice,name,Binocular,nogo,present,bracelet,2395474.52045906,2395477.92721821,3.34894707379863,,NA,1,1,1,1,bracelet,Return
25,1,5,1,19,189,16,bracelet,16,practice,noise,Binocular,nogo,present,\ENTER,2395705.74860321,2395715.75482605,NaN,,0,0,1,1,1,NULL,OK
25,1,5,1,19,189,16,bracelet,16,practice,study,Binocular,nogo,present,NA,2395121.44591148,2395126.34892444,NaN,,0,1,1,1,1,NULL,OK
25,1,5,1,19,189,16,bracelet,16,practice,study,Binocular,nogo,present,NA,2395241.48046308,2395246.38346366,NaN,,0,1,2,1,1,NULL,OK
25,1,5,1,85,25,17,foot stool,17,practice,name,Binocular,go,absent,foot stool,2395477.97560488,2395481.52942144,3.47772685298696,,NA,1,1,1,1,stool,Return
25,1,5,1,85,25,17,foot stool,17,practice,noise,Binocular,go,absent,\ENTER,2395719.27704668,2395720.07750717,0.674310691654682,,10,1,1,1,1,Return,OK
25,1,5,1,85,25,17,foot stool,17,practice,study,Binocular,go,absent,NA,2395126.67913116,2395131.58220479,NaN,,0,1,1,1,1,NULL,OK
25,1,5,1,85,25,17,foot stool,17,practice,study,Binocular,go,absent,NA,2395246.73369931,2395251.63671136,NaN,,0,1,2,1,1,NULL,OK
25,1,5,1,199,195,18,scroll,8,practice,name,Not Studied,name,present,scroll,2395481.64378782,2395484.9015644,3.16932330559939,,NA,1,1,0,0,pillow,Return
25,1,5,1,199,195,18,scroll,8,practice,name,Not Studied,name,present,scroll,2395723.00110505,2395742.16126525,19.1009535887279,,NA,1,2,0,0,light switch,Return
25,1,5,1,199,195,18,scroll,8,practice,noise,Not Studied,name,present,scroll,2395721.4944548,2395721.64850626,NaN,,8,1,1,0,0,,
25,1,5,1,199,195,18,scroll,8,practice,study,Not Studied,name,present,f,2395131.84235357,2395137.14564688,5.17516913916916,0,0,0,1,0,0,f,OK
25,1,5,1,199,195,18,scroll,8,practice,study,Not Studied,name,present,f,2395251.89688731,2395257.60043924,5.52946913288906,0,0,0,2,0,0,f,OK
25,2,5,1,61,121,1,wine glass,13,visr,name,Not Studied,go,absent,wine glass,2395946.30808389,2395959.26600609,12.8932198956609,,NA,1,1,0,0,lamp,Return
25,2,5,1,61,121,1,wine glass,13,visr,noise,Not Studied,go,absent,\ENTER,2396094.6200145,2396096.02086021,1.22131460765377,,9,1,1,0,0,Return,OK
25,2,5,1,61,121,1,wine glass,13,visr,study,Not Studied,go,absent,f,2395753.60838471,2395763.21428283,9.42044631997123,0,0,0,1,0,0,f,OK
25,2,5,1,61,121,1,wine glass,13,visr,study,Not Studied,go,absent,f,2395852.66980354,2395857.6730025,4.8254979387857,0,0,0,2,0,0,f,OK
25,2,5,1,122,32,2,fishing lure,14,visr,name,Not Studied,nogo,absent,fishing lure,2395959.30733351,2395966.96078067,7.56551245134324,,NA,1,1,0,0,fishing hook,Return
25,2,5,1,122,32,2,fishing lure,14,visr,noise,Not Studied,nogo,absent,\ENTER,2396098.62250865,2396108.62871518,NaN,,0,0,1,0,0,NULL,OK
25,2,5,1,122,32,2,fishing lure,14,visr,study,Not Studied,nogo,absent,f,2395764.44507295,2395771.64955004,7.01514628296718,0,0,0,1,0,0,f,OK
25,2,5,1,122,32,2,fishing lure,14,visr,study,Not Studied,nogo,absent,f,2395858.30333557,2395863.20630023,4.72764248773456,0,0,0,2,0,0,f,OK
25,2,5,1,133,192,3,guitar,2,visr,name,CFS,go,present,guitar,2395966.97813555,2395978.28780172,11.2140060332604,,NA,1,1,1,0,contcontact,Return
25,2,5,1,133,192,3,guitar,2,visr,noise,CFS,go,present,\ENTER,2396111.91075045,2396113.21154569,1.18555472185835,,1,1,1,1,0,Return,OK
25,2,5,1,133,192,3,guitar,2,visr,study,CFS,go,present,j,2395772.75023559,2395775.15168801,2.21384001849219,2@,1,0.6,1,1,0,j,OK
25,2,5,1,133,192,3,guitar,2,visr,study,CFS,go,present,j,2395864.09692698,2395867.19887182,2.949704463128,2@,1,0.6,2,1,0,j,OK
25,2,5,1,196,200,4,faucet,4,visr,name,CFS,nogo,present,faucet,2395978.29745231,2395989.50479209,11.1340702176094,,NA,1,1,1,0,flute,Return
25,2,5,1,196,200,4,faucet,4,visr,noise,CFS,nogo,present,\ENTER,2396115.28285538,2396125.28902449,NaN,,0,0,1,1,0,NULL,OK
25,2,5,1,196,200,4,faucet,4,visr,study,CFS,nogo,present,j,2395778.39370828,2395780.49500628,1.93811542447656,2@,2,0.6,1,1,0,j,OK
25,2,5,1,196,200,4,faucet,4,visr,study,CFS,nogo,present,j,2395869.400223,2395871.00118806,1.4143140357919,2@,2,0.6,2,1,0,j,OK
25,2,5,1,80,50,5,sundial,8,visr,name,Not Studied,name,present,sundial,2395989.53776655,2395995.03819276,5.44535034894943,,NA,1,1,0,0,fish,Return
25,2,5,1,80,50,5,sundial,8,visr,name,Not Studied,name,present,sundial,2396130.32962356,2396143.24020105,12.8369203591719,,NA,1,2,0,0,fish,Return
25,2,5,1,80,50,5,sundial,8,visr,noise,Not Studied,name,present,sundial,2396126.3058605,2396126.45976013,NaN,,6,1,1,0,0,,
25,2,5,1,80,50,5,sundial,8,visr,study,Not Studied,name,present,f,2395782.67639523,2395787.37928462,4.59088554698974,0,0,0,1,0,0,f,OK
25,2,5,1,80,50,5,sundial,8,visr,study,Not Studied,name,present,f,2395872.59221789,2395876.49462354,3.78996081463993,0,0,0,2,0,0,f,OK
25,2,5,1,16,13,6,book,15,visr,name,Binocular,go,present,book,2395995.08870381,2395997.73988653,2.59039293602109,,NA,1,1,1,1,book,Return
25,2,5,1,16,13,6,book,15,visr,noise,Binocular,go,present,\ENTER,2396145.58166026,2396146.68230687,1.00060610519722,,7,1,1,1,1,Return,OK
25,2,5,1,16,13,6,book,15,visr,study,Binocular,go,present,NA,2395788.31989901,2395793.22294185,NaN,,0,1,1,1,1,NULL,OK
25,2,5,1,16,13,6,book,15,visr,study,Binocular,go,present,NA,2395877.29514621,2395882.19813804,NaN,,0,1,2,1,1,NULL,OK
25,2,5,1,205,204,7,cheese grater,17,visr,name,Binocular,go,absent,cheese grater,2395997.78457167,2396002.49286499,4.6302066007629,,NA,1,1,1,1,paint brush,Return
25,2,5,1,205,204,7,cheese grater,17,visr,noise,Binocular,go,absent,\ENTER,2396150.12444589,2396151.12506376,0.881629649549723,,9,1,1,1,1,Return,OK
25,2,5,1,205,204,7,cheese grater,17,visr,study,Binocular,go,absent,NA,2395793.52309718,2395798.42617021,NaN,,0,1,1,1,1,NULL,OK
25,2,5,1,205,204,7,cheese grater,17,visr,study,Binocular,go,absent,NA,2395882.5583871,2395887.46140368,NaN,,0,1,2,1,1,NULL,OK
25,2,5,1,190,93,8,fire hydrant,9,visr,name,Not Studied,go,present,fire hydrant,2396002.53377073,2396010.93807286,8.32050753431395,,NA,1,1,0,0,necklace,Return
25,2,5,1,190,93,8,fire hydrant,9,visr,noise,Not Studied,go,present,\ENTER,2396153.82677474,2396154.82738387,0.891084342263639,,1,1,1,0,0,Return,OK
25,2,5,1,190,93,8,fire hydrant,9,visr,study,Not Studied,go,present,f,2395798.71634594,2395802.51868179,3.60609129397199,0,0,0,1,0,0,f,OK
25,2,5,1,190,93,8,fire hydrant,9,visr,study,Not Studied,go,present,f,2395887.72159713,2395891.3238227,3.49171133479103,0,0,0,2,0,0,f,OK
25,2,5,1,197,194,9,smoking pipe,3,visr,name,CFS,go,present,smoking pipe,2396010.95962309,2396026.76792733,15.7417413680814,,NA,1,1,1,0,salt shaker,Return
25,2,5,1,197,194,9,smoking pipe,3,visr,noise,CFS,go,present,\ENTER,2396156.7686415,2396157.76921561,0.869065650738776,,1,1,1,1,0,Return,OK
25,2,5,1,197,194,9,smoking pipe,3,visr,study,CFS,go,present,j,2395803.58937572,2395805.69068609,1.98898989986628,2@,2,0.6,1,1,0,j,OK
25,2,5,1,197,194,9,smoking pipe,3,visr,study,CFS,go,present,j,2395892.35447446,2395894.15557517,1.65061917481944,2@,2,0.6,2,1,0,j,OK
25,2,5,1,52,26,10,deoderant,10,visr,name,Not Studied,go,present,deoderant,2396026.80774311,2396032.16124171,5.2693182346411,,NA,1,1,0,0,trash barrel,Return
25,2,5,1,52,26,10,deoderant,10,visr,noise,Not Studied,go,present,\ENTER,2396160.36083011,2396161.76170389,1.25259360391647,,3,1,1,0,0,Return,OK
25,2,5,1,52,26,10,deoderant,10,visr,study,Not Studied,go,present,f,2395808.1221908,2395812.22474659,3.98377371532843,0,0,0,1,0,0,f,OK
25,2,5,1,52,26,10,deoderant,10,visr,study,Not Studied,go,present,f,2395895.3463168,2395898.94854659,3.44258937146515,0,0,0,2,0,0,f,OK
25,2,5,1,103,11,11,rug,7,visr,name,CFS,nogo,absent,rug,2396032.18289667,2396039.88606043,7.64562122430652,,NA,1,1,1,0,jewelry,Return
25,2,5,1,103,11,11,rug,7,visr,noise,CFS,nogo,absent,\ENTER,2396163.0324903,2396173.03868386,NaN,,0,0,1,1,0,NULL,OK
25,2,5,1,103,11,11,rug,7,visr,study,CFS,nogo,absent,j,2395813.48548246,2395815.48675685,1.82830238156021,2@,4,0.6,1,1,0,j,OK
25,2,5,1,103,11,11,rug,7,visr,study,CFS,nogo,absent,j,2395899.99922064,2395902.70086098,2.50932399369776,2@,4,0.6,2,1,0,j,OK
25,2,5,1,88,40,12,soup spoon,16,visr,name,Binocular,nogo,present,soup spoon,2396039.9336937,2396044.83913379,4.82264006929472,,NA,1,1,1,1,spoon,Return
25,2,5,1,88,40,12,soup spoon,16,visr,noise,Binocular,nogo,present,\ENTER,2396174.82982791,2396184.83598977,NaN,,0,0,1,1,1,NULL,OK
25,2,5,1,88,40,12,soup spoon,16,visr,study,Binocular,nogo,present,NA,2395817.20781247,2395822.11083992,NaN,,0,1,1,1,1,NULL,OK
25,2,5,1,88,40,12,soup spoon,16,visr,study,Binocular,nogo,present,NA,2395903.80154502,2395908.70459028,NaN,,0,1,2,1,1,NULL,OK
25,2,5,1,137,28,13,flask,5,visr,name,CFS,go,absent,flask,2396044.86185397,2396055.91598897,10.9658006532118,,NA,1,1,1,0,ice cream sandwich,Return
25,2,5,1,137,28,13,flask,5,visr,noise,CFS,go,absent,\ENTER,2396187.57772208,2396188.5783131,0.858184437733144,,10,1,1,1,0,Return,OK
25,2,5,1,137,28,13,flask,5,visr,study,CFS,go,absent,j,2395823.26159553,2395826.26345701,2.80346053279936,2@,8,0.6,1,1,0,j,OK
25,2,5,1,137,28,13,flask,5,visr,study,CFS,go,absent,j,2395909.87533135,2395912.87718287,2.87266334192827,0,8,0.6,2,1,0,f,OK
25,2,5,1,31,47,14,cell phone,6,visr,name,CFS,go,absent,cell phone,2396055.9349056,2396060.43876711,4.42847902094945,,NA,1,1,1,0,phone,Return
25,2,5,1,31,47,14,cell phone,6,visr,noise,CFS,go,absent,\ENTER,2396190.67964701,2396192.08050359,1.2759588258341,,8,1,1,1,0,Return,OK
25,2,5,1,31,47,14,cell phone,6,visr,study,CFS,go,absent,j,2395828.00450685,2395831.60677739,3.42831300571561,2@,4,0.6,1,1,0,j,OK
25,2,5,1,31,47,14,cell phone,6,visr,study,CFS,go,absent,j,2395914.04790311,2395919.05100699,4.8597999131307,0,4,0.6,2,1,0,f,OK
25,2,5,1,121,61,15,mug,11,visr,name,Not Studied,nogo,present,mug,2396060.46982425,2396063.82090114,3.27734308736399,,NA,1,1,0,0,mug,Return
25,2,5,1,121,61,15,mug,11,visr,noise,Not Studied,nogo,present,\ENTER,2396193.42135216,2396203.42752972,NaN,,0,0,1,0,0,NULL,OK
25,2,5,1,121,61,15,mug,11,visr,study,Not Studied,nogo,present,f,2395832.91754257,2395837.12017267,4.09885667124763,0,0,0,1,0,0,f,OK
25,2,5,1,121,61,15,mug,11,visr,study,Not Studied,nogo,present,f,2395919.97160876,2395923.67389626,3.5117269824259,0,0,0,2,0,0,f,OK
25,2,5,1,93,190,16,sled,1,visr,name,CFS,name,present,sled,2396063.8532698,2396078.15978802,14.237062769942,,NA,1,1,1,0,handle,Return
25,2,5,1,93,190,16,sled,1,visr,name,CFS,name,present,sled,2396205.73315237,2396209.74147242,3.95744407270104,,NA,1,2,1,0,handle,Return
25,2,5,1,93,190,16,sled,1,visr,noise,CFS,name,present,sled,2396204.89500259,2396205.04855057,NaN,,6,1,1,1,0,,
25,2,5,1,93,190,16,sled,1,visr,study,CFS,name,present,j,2395838.13081754,2395840.43224001,2.18949500704184,2@,1,0.6,1,1,0,j,OK
25,2,5,1,93,190,16,sled,1,visr,study,CFS,name,present,j,2395924.89466875,2395927.19606829,2.12453010259196,2@,1,0.6,2,1,0,j,OK
25,2,5,1,112,37,17,rake,18,visr,name,Binocular,nogo,absent,rake,2396078.19611809,2396081.45184877,3.2059374130331,,NA,1,1,1,1,rake,Return
25,2,5,1,112,37,17,rake,18,visr,noise,Binocular,nogo,absent,\ENTER,2396211.00227048,2396211.90278929,0.792219822760671,,0,0,1,1,1,Return,OK
25,2,5,1,112,37,17,rake,18,visr,study,Binocular,nogo,absent,NA,2395841.67298318,2395846.57602541,NaN,,0,1,1,1,1,NULL,OK
25,2,5,1,112,37,17,rake,18,visr,study,Binocular,nogo,absent,NA,2395928.46688247,2395933.36992832,NaN,,0,1,2,1,1,NULL,OK
25,2,5,1,44,43,18,crib,12,visr,name,Not Studied,go,absent,crib,2396081.50793038,2396084.76388955,3.16600089706481,,NA,1,1,0,0,pillow,Return
25,2,5,1,44,43,18,crib,12,visr,noise,Not Studied,go,absent,\ENTER,2396215.22485465,2396216.52565743,1.10533215291798,,9,1,1,0,0,Return,OK
25,2,5,1,44,43,18,crib,12,visr,study,Not Studied,go,absent,f,2395846.82621059,2395852.02937345,5.01332645956427,0,0,0,1,0,0,f,OK
25,2,5,1,44,43,18,crib,12,visr,study,Not Studied,go,absent,f,2395933.64009806,2395936.9420711,3.17053370457143,0,0,0,2,0,0,f,OK
25,3,5,1,198,193,1,chest,7,visr,name,CFS,nogo,absent,chest,2396473.36390923,2396490.47571807,17.0302726444788,,NA,1,1,1,0,tin can,Return
25,3,5,1,198,193,1,chest,7,visr,noise,CFS,nogo,absent,\ENTER,2396679.25291537,2396689.25908991,NaN,,0,0,1,1,0,NULL,OK
25,3,5,1,198,193,1,chest,7,visr,study,CFS,nogo,absent,j,2396236.33799553,2396240.74075011,4.25486136553809,2@,7,0.6,1,1,0,j,OK
25,3,5,1,198,193,1,chest,7,visr,study,CFS,nogo,absent,j,2396348.0573572,2396351.95976073,3.76096980366856,2@,7,0.6,2,1,0,j,OK
25,3,5,1,23,53,2,bucket,11,visr,name,Not Studied,nogo,present,bucket,2396490.51497544,2396502.02289736,11.4145165742375,,NA,1,1,0,0,bucket,Return
25,3,5,1,23,53,2,bucket,11,visr,noise,Not Studied,nogo,present,\ENTER,2396691.83068484,2396701.83690436,NaN,,0,0,1,0,0,NULL,OK
25,3,5,1,23,53,2,bucket,11,visr,study,Not Studied,nogo,present,f,2396246.15408285,2396253.0583391,6.74199823848903,0,0,0,1,0,0,f,OK
25,3,5,1,23,53,2,bucket,11,visr,study,Not Studied,nogo,present,f,2396353.45064863,2396359.05412987,5.43126384355128,0,0,0,2,0,0,f,OK
25,3,5,1,4,34,3,bandana,17,visr,name,Binocular,go,absent,bandana,2396502.0486695,2396520.46435451,18.3437562445179,,NA,1,1,1,1,kids toy,Return
25,3,5,1,4,34,3,bandana,17,visr,noise,Binocular,go,absent,\ENTER,2396707.05984923,2396707.76057952,0.577630926854908,,1,1,1,1,1,Return,OK
25,3,5,1,4,34,3,bandana,17,visr,study,Binocular,go,absent,NA,2396254.10900742,2396259.01202732,NaN,,0,1,1,1,1,NULL,OK
25,3,5,1,4,34,3,bandana,17,visr,study,Binocular,go,absent,NA,2396359.9446718,2396364.84774482,NaN,,0,1,2,1,1,NULL,OK
25,3,5,1,59,79,4,car keys,14,visr,name,Not Studied,nogo,absent,car keys,2396520.51527306,2396549.28223811,28.6994471405633,,NA,1,1,0,0,plate,Return
25,3,5,1,59,79,4,car keys,14,visr,noise,Not Studied,nogo,absent,\ENTER,2396708.77123948,2396718.77741493,NaN,,0,0,1,0,0,NULL,OK
25,3,5,1,59,79,4,car keys,14,visr,study,Not Studied,nogo,absent,f,2396259.24216365,2396265.34596394,5.90913799731061,0,0,0,1,0,0,f,OK
25,3,5,1,59,79,4,car keys,14,visr,study,Not Studied,nogo,absent,f,2396365.10791685,2396369.51061891,4.21332839131355,0,0,0,2,0,0,f,OK
25,3,5,1,187,2,5,jacket,3,visr,name,CFS,go,present,jacket,2396549.32073724,2396558.52799371,9.11745938193053,,NA,1,1,1,0,paper,Return
25,3,5,1,187,2,5,jacket,3,visr,noise,CFS,go,present,\ENTER,2396720.84873397,2396721.64921831,0.683974864892662,,3,1,1,1,0,Return,OK
25,3,5,1,187,2,5,jacket,3,visr,study,CFS,go,present,j,2396266.76684401,2396270.26902092,3.3603722108528,2@,6,0.6,1,1,0,j,OK
25,3,5,1,187,2,5,jacket,3,visr,study,CFS,go,present,j,2396370.98156391,2396373.58315016,2.44350275490433,2@,6,0.6,2,1,0,j,OK
25,3,5,1,34,4,6,chess board,8,visr,name,Not Studied,name,present,chess board,2396558.62479844,2396567.78372319,9.06074873264879,,NA,1,1,0,0,table top,Return
25,3,5,1,34,4,6,chess board,8,visr,name,Not Studied,name,present,chess board,2396723.16673317,2396729.92436004,6.66943317744881,,NA,1,2,0,0,table top,Return
25,3,5,1,34,4,6,chess board,8,visr,noise,Not Studied,name,present,chess board,2396722.28574645,2396722.43971822,NaN,,2,1,1,0,0,,
25,3,5,1,34,4,6,chess board,8,visr,study,Not Studied,name,present,f,2396272.69055086,2396279.89502433,7.08400770509616,0,0,0,1,0,0,f,OK
25,3,5,1,34,4,6,chess board,8,visr,study,Not Studied,name,present,f,2396375.06410042,2396380.96773307,5.77649852493778,0,0,0,2,0,0,f,OK
25,3,5,1,177,179,7,paper towel,1,visr,name,CFS,name,present,paper towel,2396567.90005306,2396572.50665719,4.52932092733681,,NA,1,1,1,0,pillow,Return
25,3,5,1,177,179,7,paper towel,1,visr,name,CFS,name,present,paper towel,2396734.79073686,2396738.78987418,3.92489370517433,,NA,1,2,1,0,pillow,Return
25,3,5,1,177,179,7,paper towel,1,visr,noise,CFS,name,present,paper towel,2396730.03096689,2396730.18452543,NaN,,9,1,1,1,0,,
25,3,5,1,177,179,7,paper towel,1,visr,study,CFS,name,present,j,2396281.18582789,2396284.08759755,2.70839805435389,2@,3,0.6,1,1,0,j,OK
25,3,5,1,177,179,7,paper towel,1,visr,study,CFS,name,present,j,2396382.20855109,2396386.11096277,3.79968173475936,2@,3,0.6,2,1,0,j,OK
25,3,5,1,162,159,8,electric mixer,2,visr,name,CFS,go,present,electric mixer,2396572.54166096,2396585.30459879,12.7029838594608,,NA,1,1,1,0,tea kettle,Return
25,3,5,1,162,159,8,electric mixer,2,visr,noise,CFS,go,present,\ENTER,2396741.02122605,2396742.12195144,0.910236109513789,,4,1,1,1,0,Return,OK
25,3,5,1,162,159,8,electric mixer,2,visr,study,CFS,go,present,j,2396286.45877129,2396288.9606554,2.35524265654385,2@,3,0.6,1,1,0,j,OK
25,3,5,1,162,159,8,electric mixer,2,visr,study,CFS,go,present,j,2396387.9721234,2396390.47363233,2.31593216676265,2@,3,0.6,2,1,0,j,OK
25,3,5,1,170,172,9,notebook,5,visr,name,CFS,go,absent,notebook,2396585.3495897,2396596.41148605,10.9663077527657,,NA,1,1,1,0,paper,Return
25,3,5,1,170,172,9,notebook,5,visr,noise,CFS,go,absent,\ENTER,2396744.25323261,2396745.35393718,0.934051080606878,,10,1,1,1,0,Return,OK
25,3,5,1,170,172,9,notebook,5,visr,study,CFS,go,absent,j,2396291.59228611,2396294.19390074,2.41342329140753,2@,9,0.6,1,1,0,j,OK
25,3,5,1,170,172,9,notebook,5,visr,study,CFS,go,absent,j,2396392.77507683,2396394.17594941,1.28076812345535,2@,9,0.6,2,1,0,j,OK
25,3,5,1,76,113,10,thimble,18,visr,name,Binocular,nogo,absent,thimble,2396596.42958619,2396602.78542891,6.29400674579665,,NA,1,1,1,1,grader,Return
25,3,5,1,76,113,10,thimble,18,visr,noise,Binocular,nogo,absent,\ENTER,2396746.44464282,2396756.45079775,NaN,,0,0,1,1,1,NULL,OK
25,3,5,1,76,113,10,thimble,18,visr,study,Binocular,nogo,absent,NA,2396295.85493115,2396300.75794169,NaN,,0,1,1,1,1,NULL,OK
25,3,5,1,76,113,10,thimble,18,visr,study,Binocular,nogo,absent,NA,2396395.52675796,2396400.42984185,NaN,,0,1,2,1,1,NULL,OK
25,3,5,1,29,86,11,candlestick holder,4,visr,name,CFS,nogo,present,candlestick holder,2396602.82991937,2396613.44206416,10.5569527293555,,NA,1,1,1,0,stool,Return
25,3,5,1,29,86,11,candlestick holder,4,visr,noise,CFS,nogo,present,\ENTER,2396758.81229222,2396768.81847491,NaN,,0,0,1,1,0,NULL,OK
25,3,5,1,29,86,11,candlestick holder,4,visr,study,CFS,nogo,present,j,2396301.52845252,2396303.82988254,2.11674400931224,2@,4,0.6,1,1,0,j,OK
25,3,5,1,29,86,11,candlestick holder,4,visr,study,CFS,nogo,present,j,2396401.18029809,2396405.48294636,4.18689672509208,2@,4,0.6,2,1,0,j,OK
25,3,5,1,118,115,12,pillow,10,visr,name,Not Studied,go,present,pillow,2396613.4940772,2396617.84479338,4.28463415475562,,NA,1,1,0,0,blanket,Return
25,3,5,1,118,115,12,pillow,10,visr,noise,Not Studied,go,present,\ENTER,2396770.59960283,2396771.19995484,0.418155919760466,,2,1,1,0,0,Return,OK
25,3,5,1,118,115,12,pillow,10,visr,study,Not Studied,go,present,f,2396306.14131993,2396310.44395613,4.1993490406312,0,0,0,1,0,0,f,OK
25,3,5,1,118,115,12,pillow,10,visr,study,Not Studied,go,present,f,2396407.22406864,2396412.22717463,4.83874229621142,0,0,0,2,0,0,f,OK
25,3,5,1,68,73,13,vase,6,visr,name,CFS,go,absent,vase,2396617.89888009,2396628.71150796,10.7191835818812,,NA,1,1,1,0,ornament,Return
25,3,5,1,68,73,13,vase,6,visr,noise,CFS,go,absent,\ENTER,2396773.75157125,2396775.15240821,1.21796563686803,,10,1,1,1,0,Return,OK
25,3,5,1,68,73,13,vase,6,visr,study,CFS,go,absent,j,2396312.32516289,2396315.5271084,3.09520857175812,0,10,0.6,1,1,0,f,OK
25,3,5,1,68,73,13,vase,6,visr,study,CFS,go,absent,j,2396414.20836334,2396418.81125598,4.45403624186292,2@,10,0.6,2,1,0,j,OK
25,3,5,1,32,122,14,chain,9,visr,name,Not Studied,go,present,chain,2396628.73352394,2396635.43569644,6.64405585592613,,NA,1,1,0,0,chain,Return
25,3,5,1,32,122,14,chain,9,visr,noise,Not Studied,go,present,\ENTER,2396777.01359057,2396778.51449128,1.32372822100297,,2,1,1,0,0,Return,OK
25,3,5,1,32,122,14,chain,9,visr,study,Not Studied,go,present,f,2396316.2776226,2396323.68217074,7.26236945949495,0,0,0,1,0,0,f,OK
25,3,5,1,32,122,14,chain,9,visr,study,Not Studied,go,present,f,2396420.27219693,2396425.87560452,5.4537322842516,0,0,0,2,0,0,f,OK
25,3,5,1,37,112,15,comb,12,visr,name,Not Studied,go,absent,comb,2396635.49877451,2396638.49761391,2.93472721381113,,NA,1,1,0,0,comb,Return
25,3,5,1,37,112,15,comb,12,visr,noise,Not Studied,go,absent,\ENTER,2396780.01542277,2396780.71589226,0.585766254924238,,2,1,1,0,0,Return,OK
25,3,5,1,37,112,15,comb,12,visr,study,Not Studied,go,absent,f,2396324.49271044,2396330.69653041,6.06288609746844,0,0,0,1,0,0,f,OK
25,3,5,1,37,112,15,comb,12,visr,study,Not Studied,go,absent,f,2396426.60604964,2396431.10889181,4.33563480107114,0,0,0,2,0,0,f,OK
25,3,5,1,110,102,16,reclining chair,15,visr,name,Binocular,go,present,reclining chair,2396638.5447769,2396650.65512965,12.0239589512348,,NA,1,1,1,1,pillow,Return
25,3,5,1,110,102,16,reclining chair,15,visr,noise,Binocular,go,present,\ENTER,2396782.5370225,2396783.23744068,0.544008104130626,,4,1,1,1,1,Return,OK
25,3,5,1,110,102,16,reclining chair,15,visr,study,Binocular,go,present,NA,2396331.58705302,2396336.49007986,NaN,,0,1,1,1,1,NULL,OK
25,3,5,1,110,102,16,reclining chair,15,visr,study,Binocular,go,present,NA,2396431.90936951,2396436.81239183,NaN,,0,1,2,1,1,NULL,OK
25,3,5,1,98,78,17,scarf,13,visr,name,Not Studied,go,absent,scarf,2396650.77051475,2396655.12793642,4.27803461439908,,NA,1,1,0,0,shirt,Return
25,3,5,1,98,78,17,scarf,13,visr,noise,Not Studied,go,absent,\ENTER,2396785.18866946,2396785.98913147,0.620210700202733,,8,1,1,0,0,Return,OK
25,3,5,1,98,78,17,scarf,13,visr,study,Not Studied,go,absent,f,2396336.77033183,2396341.27309733,4.35258973995224,0,0,0,1,0,0,f,OK
25,3,5,1,98,78,17,scarf,13,visr,study,Not Studied,go,absent,f,2396437.06257429,2396439.76426444,2.51860029622912,0,0,0,2,0,0,f,OK
25,3,5,1,139,14,18,bobby pin,16,visr,name,Binocular,nogo,present,bobby pin,2396655.1693221,2396659.2205111,3.96689031366259,,NA,1,1,1,1,bobby pin,Return
25,3,5,1,139,14,18,bobby pin,16,visr,noise,Binocular,nogo,present,\ENTER,2396787.22992474,2396797.23611437,NaN,,0,0,1,1,1,NULL,OK
25,3,5,1,139,14,18,bobby pin,16,visr,study,Binocular,nogo,present,NA,2396342.15370463,2396347.05675955,NaN,,0,1,1,1,1,NULL,OK
25,3,5,1,139,14,18,bobby pin,16,visr,study,Binocular,nogo,present,NA,2396440.59477301,2396445.49778687,NaN,,0,1,2,1,1,NULL,OK
25,4,5,1,157,33,1,axe,18,visr,name,Binocular,nogo,absent,axe,2396961.79190621,2396974.49616415,12.6379259862006,,NA,1,1,1,1,pen,Return
25,4,5,1,157,33,1,axe,18,visr,noise,Binocular,nogo,absent,\ENTER,2397139.34848767,2397149.35466311,NaN,,0,0,1,1,1,NULL,OK
25,4,5,1,157,33,1,axe,18,visr,study,Binocular,nogo,absent,NA,2396800.41809283,2396805.32113266,NaN,,0,1,1,1,1,NULL,OK
25,4,5,1,157,33,1,axe,18,visr,study,Binocular,nogo,absent,NA,2396883.11945035,2396888.02248021,NaN,,0,1,2,1,1,NULL,OK
25,4,5,1,53,23,2,floss,12,visr,name,Not Studied,go,absent,floss,2396974.54951195,2397024.97749745,50.3333235736936,,NA,1,1,0,0,food,Return
25,4,5,1,53,23,2,floss,12,visr,noise,Not Studied,go,absent,\ENTER,2397151.64612138,2397153.24708101,1.4372618063353,,10,1,1,0,0,Return,OK
25,4,5,1,53,23,2,floss,12,visr,study,Not Studied,go,absent,f,2396805.50124662,2396810.20419516,4.59422546252608,0,0,0,1,0,0,f,OK
25,4,5,1,53,23,2,floss,12,visr,study,Not Studied,go,absent,f,2396888.23261327,2396892.33513857,3.96205173712224,0,0,0,2,0,0,f,OK
25,4,5,1,117,135,3,airplane,13,visr,name,Not Studied,go,absent,airplane,2397025.00107668,2397033.30267694,8.20931113511324,,NA,1,1,0,0,air plane,Return
25,4,5,1,117,135,3,airplane,13,visr,noise,Not Studied,go,absent,\ENTER,2397154.70800535,2397155.90873292,1.0311996107921,,1,1,1,0,0,Return,OK
25,4,5,1,117,135,3,airplane,13,visr,study,Not Studied,go,absent,f,2396810.96464881,2396816.26795872,5.1625154921785,0,0,0,1,0,0,f,OK
25,4,5,1,117,135,3,airplane,13,visr,study,Not Studied,go,absent,f,2396892.94555077,2396897.5483761,4.48880788683891,0,0,0,2,0,0,f,OK
25,4,5,1,181,184,4,clipboard,2,visr,name,CFS,go,present,clipboard,2397033.32485229,2397040.62720807,7.22110029775649,,NA,1,1,1,0,clip board,Return
25,4,5,1,181,184,4,clipboard,2,visr,noise,CFS,go,present,\ENTER,2397157.53977352,2397158.64045907,0.903196176979691,,1,1,1,1,0,Return,OK
25,4,5,1,181,184,4,clipboard,2,visr,study,CFS,go,present,j,2396817.63881069,2396819.53995614,1.70401556557044,2@,5,0.6,1,1,0,j,OK
25,4,5,1,181,184,4,clipboard,2,visr,study,CFS,go,present,j,2396898.69908885,2396900.90048048,2.02308209147304,2@,5,0.6,2,1,0,j,OK
25,4,5,1,179,177,5,elastic bandage,11,visr,name,Not Studied,nogo,present,elastic bandage,2397040.65252352,2397049.56275721,8.82889671390876,,NA,1,1,0,0,blanket,Return
25,4,5,1,179,177,5,elastic bandage,11,visr,noise,Not Studied,nogo,present,\ENTER,2397161.38216361,2397171.38836955,NaN,,0,0,1,0,0,NULL,OK
25,4,5,1,179,177,5,elastic bandage,11,visr,study,Not Studied,nogo,present,f,2396822.20159658,2396827.10464847,4.74089499516413,0,0,0,1,0,0,f,OK
25,4,5,1,179,177,5,elastic bandage,11,visr,study,Not Studied,nogo,present,f,2396901.78103012,2396905.08305538,3.14089523628354,0,0,0,2,0,0,f,OK
25,4,5,1,123,62,6,helmet,1,visr,name,CFS,name,present,helmet,2397049.59374493,2397055.29631254,5.63133369013667,,NA,1,1,1,0,planet,Return
25,4,5,1,123,62,6,helmet,1,visr,name,CFS,name,present,helmet,2397173.51727791,2397181.57465534,7.96443510567769,,NA,1,2,1,0,planet,Return
25,4,5,1,123,62,6,helmet,1,visr,noise,CFS,name,present,helmet,2397171.95586271,2397172.10878677,NaN,,5,1,1,1,0,,
25,4,5,1,123,62,6,helmet,1,visr,study,CFS,name,present,j,2396828.80570958,2396830.80698216,1.84851603908464,2@,8,0.6,1,1,0,j,OK
25,4,5,1,123,62,6,helmet,1,visr,study,CFS,name,present,j,2396906.40389072,2396908.20503007,1.66188041027635,2@,8,0.6,2,1,0,j,OK
25,4,5,1,79,59,7,glasses,7,visr,name,CFS,nogo,absent,glasses,2397055.34055035,2397059.7490753,4.35616449080408,,NA,1,1,1,0,glasses,Return
25,4,5,1,79,59,7,glasses,7,visr,noise,CFS,nogo,absent,\ENTER,2397182.46523107,2397192.4714198,NaN,,0,0,1,1,0,NULL,OK
25,4,5,1,79,59,7,glasses,7,visr,study,CFS,nogo,absent,j,2396832.24786762,2396833.54865501,1.11822244664654,2@,4,0.6,1,1,0,j,OK
25,4,5,1,79,59,7,glasses,7,visr,study,CFS,nogo,absent,j,2396909.36574505,2396911.36696662,1.85184357920662,2@,4,0.6,2,1,0,j,OK
25,4,5,1,50,80,8,dresser,8,visr,name,Not Studied,name,present,dresser,2397059.81351801,2397067.72402397,7.85086046997458,,NA,1,1,0,0,wood,Return
25,4,5,1,50,80,8,dresser,8,visr,name,Not Studied,name,present,dresser,2397193.98689389,2397197.24440032,3.17388388235122,,NA,1,2,0,0,wood,Return
25,4,5,1,50,80,8,dresser,8,visr,noise,Not Studied,name,present,dresser,2397193.10817221,2397193.26194657,NaN,,3,1,1,0,0,,
25,4,5,1,50,80,8,dresser,8,visr,study,Not Studied,name,present,f,2396834.45924971,2396838.66182487,4.05057776160538,0,0,0,1,0,0,f,OK
25,4,5,1,50,80,8,dresser,8,visr,study,Not Studied,name,present,f,2396913.0980604,2396915.99985451,2.79914112994447,0,0,0,2,0,0,f,OK
25,4,5,1,26,52,9,camera,3,visr,name,CFS,go,present,camera,2397067.76912234,2397074.47821796,6.63084741821513,,NA,1,1,1,0,glasses,Return
25,4,5,1,26,52,9,camera,3,visr,noise,CFS,go,present,\ENTER,2397198.25504277,2397199.15561713,0.753632252570242,,1,1,1,1,0,Return,OK
25,4,5,1,26,52,9,camera,3,visr,study,CFS,go,present,j,2396839.80255017,2396841.50358894,1.52311106864363,2@,4,0.6,1,1,0,j,OK
25,4,5,1,26,52,9,camera,3,visr,study,CFS,go,present,j,2396916.95045213,2396918.55142293,1.43466110946611,2@,4,0.6,2,1,0,j,OK
25,4,5,1,208,202,10,hockey stick,6,visr,name,CFS,go,absent,hockey stick,2397074.5159009,2397079.97162838,5.37169321160764,,NA,1,1,1,0,pin,Return
25,4,5,1,208,202,10,hockey stick,6,visr,noise,CFS,go,absent,\ENTER,2397200.91665454,2397202.11740837,1.08385617937893,,5,1,1,1,0,Return,OK
25,4,5,1,208,202,10,hockey stick,6,visr,study,CFS,go,absent,j,2396843.25467815,2396844.75562202,1.3026633602567,2@,8,0.6,1,1,0,j,OK
25,4,5,1,208,202,10,hockey stick,6,visr,study,CFS,go,absent,j,2396920.18244481,2396921.68338778,1.33051731996238,2@,8,0.6,2,1,0,j,OK
25,4,5,1,207,206,11,hatchet,9,visr,name,Not Studied,go,present,hatchet,2397079.99348105,2397086.89594344,6.82978866621852,,NA,1,1,0,0,stick,Return
25,4,5,1,207,206,11,hatchet,9,visr,noise,Not Studied,go,present,\ENTER,2397204.41883839,2397206.219988,1.60541546251625,,9,1,1,0,0,Return,OK
25,4,5,1,207,206,11,hatchet,9,visr,study,Not Studied,go,present,f,2396845.56618768,2396850.36909282,4.65495336800814,0,0,0,1,0,0,f,OK
25,4,5,1,207,206,11,hatchet,9,visr,study,Not Studied,go,present,f,2396922.31374288,2396925.61579742,3.15895100357011,0,0,0,2,0,0,f,OK
25,4,5,1,124,100,12,magnifying glass,4,visr,name,CFS,nogo,present,magnifying glass,2397086.92849924,2397094.33051098,7.33428615750745,,NA,1,1,1,0,phone,Return
25,4,5,1,124,100,12,magnifying glass,4,visr,noise,CFS,nogo,present,\ENTER,2397207.63086794,2397217.636996,NaN,,0,0,1,1,0,NULL,OK
25,4,5,1,124,100,12,magnifying glass,4,visr,study,CFS,nogo,present,j,2396851.58988252,2396852.99071555,1.21506913146004,2@,5,0.6,1,1,0,j,OK
25,4,5,1,124,100,12,magnifying glass,4,visr,study,CFS,nogo,present,j,2396926.62642569,2396928.22741942,1.42212488083169,2@,5,0.6,2,1,0,j,OK
25,4,5,1,74,58,13,car wheel,15,visr,name,Binocular,go,present,car wheel,2397094.38137338,2397097.23232833,2.76123089995235,,NA,1,1,1,1,tire,Return
25,4,5,1,74,58,13,car wheel,15,visr,noise,Binocular,go,present,\ENTER,2397220.04857291,2397220.94911949,0.710770857986063,,1,1,1,1,1,Return,OK
25,4,5,1,74,58,13,car wheel,15,visr,study,Binocular,go,present,NA,2396854.01137382,2396858.91442753,NaN,,0,1,1,1,1,NULL,OK
25,4,5,1,74,58,13,car wheel,15,visr,study,Binocular,go,present,NA,2396929.11804949,2396934.02102713,NaN,,0,1,2,1,1,NULL,OK
25,4,5,1,161,163,14,pen,14,visr,name,Not Studied,nogo,absent,pen,2397097.24885284,2397099.85399392,2.54163047065958,,NA,1,1,0,0,pen,Return
25,4,5,1,161,163,14,pen,14,visr,noise,Not Studied,nogo,absent,\ENTER,2397221.95976315,2397231.96593497,NaN,,0,0,1,0,0,NULL,OK
25,4,5,1,161,163,14,pen,14,visr,study,Not Studied,nogo,absent,f,2396859.14460793,2396862.94692266,3.68378892820328,0,0,0,1,0,0,f,OK
25,4,5,1,161,163,14,pen,14,visr,study,Not Studied,nogo,absent,f,2396934.27118847,2396937.87341946,3.46477920934558,0,0,0,2,0,0,f,OK
25,4,5,1,193,198,15,razor,5,visr,name,CFS,go,absent,razor,2397099.90673471,2397105.95775467,5.97136456333101,,NA,1,1,1,0,pen,Return
25,4,5,1,193,198,15,razor,5,visr,noise,CFS,go,absent,\ENTER,2397233.35679505,2397234.35743918,0.889813272282481,,1,1,1,1,0,Return,OK
25,4,5,1,193,198,15,razor,5,visr,study,CFS,go,absent,j,2396865.23835738,2396867.23957714,1.86975838523358,2@,8,0.6,1,1,0,j,OK
25,4,5,1,193,198,15,razor,5,visr,study,CFS,go,absent,j,2396939.54443974,2396941.04537546,1.34340399131179,2@,8,0.6,2,1,0,j,OK
25,4,5,1,144,140,16,marker,16,visr,name,Binocular,nogo,present,marker,2397106.00136887,2397110.60060737,4.5404336550273,,NA,1,1,1,1,straw,Return
25,4,5,1,144,140,16,marker,16,visr,noise,Binocular,nogo,present,\ENTER,2397235.71825601,2397245.72448851,NaN,,0,0,1,1,1,NULL,OK
25,4,5,1,144,140,16,marker,16,visr,study,Binocular,nogo,present,NA,2396868.28021031,2396873.18325979,NaN,,0,1,1,1,1,NULL,OK
25,4,5,1,144,140,16,marker,16,visr,study,Binocular,nogo,present,NA,2396942.04602896,2396946.94908357,NaN,,0,1,2,1,1,NULL,OK
25,4,5,1,111,125,17,child's rattle,17,visr,name,Binocular,go,absent,child's rattle,2397110.64755726,2397129.0621345,18.3251701346599,,NA,1,1,1,1,stethescope,Return
25,4,5,1,111,125,17,child's rattle,17,visr,noise,Binocular,go,absent,\ENTER,2397248.05595362,2397249.15660476,0.917789781466126,,9,1,1,1,1,Return,OK
25,4,5,1,111,125,17,child's rattle,17,visr,study,Binocular,go,absent,NA,2396873.49345207,2396878.39651574,NaN,,0,1,1,1,1,NULL,OK
25,4,5,1,111,125,17,child's rattle,17,visr,study,Binocular,go,absent,NA,2396947.24922592,2396952.15226151,NaN,,0,1,2,1,1,NULL,OK
25,4,5,1,176,154,18,paper clip,10,visr,name,Not Studied,go,present,paper clip,2397129.09553155,2397135.89633554,6.73285957751796,,NA,1,1,0,0,paper clip,Return
25,4,5,1,176,154,18,paper clip,10,visr,noise,Not Studied,go,present,\ENTER,2397250.83766954,2397252.1384847,1.14389044465497,,4,1,1,0,0,Return,OK
25,4,5,1,176,154,18,paper clip,10,visr,study,Not Studied,go,present,f,2396878.6567261,2396882.25888647,3.41045705974102,0,0,0,1,0,0,f,OK
25,4,5,1,176,154,18,paper clip,10,visr,study,Not Studied,go,present,f,2396952.34241726,2396956.34488213,3.80841803597286,0,0,0,2,0,0,f,OK
25,5,5,1,8,153,1,bed,11,visr,name,Not Studied,nogo,present,bed,2397479.74083855,2397495.34942671,15.546470857691,,NA,1,1,0,0,crate,Return
25,5,5,1,8,153,1,bed,11,visr,noise,Not Studied,nogo,present,\ENTER,2397714.35534649,2397724.36152405,NaN,,0,0,1,0,0,NULL,OK
25,5,5,1,8,153,1,bed,11,visr,study,Not Studied,nogo,present,f,2397310.49469537,2397316.19819056,5.5951457885094,0,0,0,1,0,0,f,OK
25,5,5,1,8,153,1,bed,11,visr,study,Not Studied,nogo,present,f,2397391.02469726,2397396.32797065,5.1563053317368,0,0,0,2,0,0,f,OK
25,5,5,1,95,66,2,sneakers,17,visr,name,Binocular,go,absent,sneakers,2397495.42011248,2397506.72648552,11.2185177113861,,NA,1,1,1,1,sneaker or cleat,Return
25,5,5,1,95,66,2,sneakers,17,visr,noise,Binocular,go,absent,\ENTER,2397725.86250082,2397726.56291025,0.579262700863183,,1,1,1,1,1,Return,OK
25,5,5,1,95,66,2,sneakers,17,visr,study,Binocular,go,absent,NA,2397316.82860392,2397321.73164707,NaN,,0,1,1,1,1,NULL,OK
25,5,5,1,95,66,2,sneakers,17,visr,study,Binocular,go,absent,NA,2397397.14845525,2397402.05152435,NaN,,0,1,2,1,1,NULL,OK
25,5,5,1,188,186,3,vinyl record,4,visr,name,CFS,nogo,present,vinyl record,2397506.75586228,2397510.3087072,3.46655224729329,,NA,1,1,1,0,record,Return
25,5,5,1,188,186,3,vinyl record,4,visr,noise,CFS,nogo,present,\ENTER,2397727.93374199,2397737.93994642,NaN,,0,0,1,1,0,NULL,OK
25,5,5,1,188,186,3,vinyl record,4,visr,study,CFS,nogo,present,j,2397322.69228798,2397324.6934857,1.83709482569247,2@,6,0.6,1,1,0,j,OK
25,5,5,1,188,186,3,vinyl record,4,visr,study,CFS,nogo,present,j,2397402.98210723,2397404.58303848,1.48653318267316,2@,6,0.6,2,1,0,j,OK
25,5,5,1,119,7,4,pill capsule,5,visr,name,CFS,go,absent,pill capsule,2397510.4008925,2397517.00286059,6.54115144209936,,NA,1,1,1,0,telescpe,Return
25,5,5,1,119,7,4,pill capsule,5,visr,noise,CFS,go,absent,\ENTER,2397739.78110649,2397740.68166635,0.771869428921491,,5,1,1,1,0,Return,OK
25,5,5,1,119,7,4,pill capsule,5,visr,study,CFS,go,absent,j,2397327.01492926,2397329.7166019,2.50599041720852,2@,3,0.6,1,1,0,j,OK
25,5,5,1,119,7,4,pill capsule,5,visr,study,CFS,go,absent,j,2397405.86386456,2397408.66559914,2.64457382215187,2@,3,0.6,2,1,0,j,OK
25,5,5,1,43,44,5,crayon,10,visr,name,Not Studied,go,present,crayon,2397517.04807275,2397530.41116821,13.277158962097,,NA,1,1,0,0,plate,Return
25,5,5,1,43,44,5,crayon,10,visr,noise,Not Studied,go,present,\ENTER,2397742.6829172,2397744.28391154,1.49375905189663,,9,1,1,0,0,Return,OK
25,5,5,1,43,44,5,crayon,10,visr,study,Not Studied,go,present,f,2397330.48708284,2397333.38888782,2.71362419892102,0,0,0,1,0,0,f,OK
25,5,5,1,43,44,5,crayon,10,visr,study,Not Studied,go,present,f,2397409.45609271,2397413.95891647,4.36402483796701,0,0,0,2,0,0,f,OK
25,5,5,1,126,167,6,stove,16,visr,name,Binocular,nogo,present,stove,2397530.43128497,2397577.01010547,46.4992145993747,,NA,1,1,1,1,film holder,Return
25,5,5,1,126,167,6,stove,16,visr,noise,Binocular,nogo,present,\ENTER,2397745.33457472,2397755.340739,NaN,,0,0,1,1,1,NULL,OK
25,5,5,1,126,167,6,stove,16,visr,study,Binocular,nogo,present,NA,2397333.92928374,2397338.83230756,NaN,,0,1,1,1,1,NULL,OK
25,5,5,1,126,167,6,stove,16,visr,study,Binocular,nogo,present,NA,2397414.47923608,2397419.38228496,NaN,,0,1,2,1,1,NULL,OK
25,5,5,1,33,157,7,rolling chair,18,visr,name,Binocular,nogo,absent,rolling chair,2397577.05219203,2397583.45410144,6.33393390430138,,NA,1,1,1,1,lamp,Return
25,5,5,1,33,157,7,rolling chair,18,visr,noise,Binocular,nogo,absent,\ENTER,2397756.57154483,2397766.57773446,NaN,,0,0,1,1,1,NULL,OK
25,5,5,1,33,157,7,rolling chair,18,visr,study,Binocular,nogo,absent,NA,2397339.18250397,2397344.08552085,NaN,,0,1,1,1,1,NULL,OK
25,5,5,1,33,157,7,rolling chair,18,visr,study,Binocular,nogo,absent,NA,2397419.68247107,2397424.5855112,NaN,,0,1,2,1,1,NULL,OK
25,5,5,1,202,208,8,zip tie,8,visr,name,Not Studied,name,present,zip tie,2397583.50073982,2397589.00754914,5.43708643456921,,NA,1,1,0,0,bobby pin,Return
25,5,5,1,202,208,8,zip tie,8,visr,name,Not Studied,name,present,zip tie,2397768.12007427,2397774.87288158,6.68685657950118,,NA,1,2,0,0,bobby pin,Return
25,5,5,1,202,208,8,zip tie,8,visr,noise,Not Studied,name,present,zip tie,2397767.20368233,2397767.35820074,NaN,,9,1,1,0,0,,
25,5,5,1,202,208,8,zip tie,8,visr,study,Not Studied,name,present,f,2397344.29568108,2397346.49704765,2.05632941890508,0,0,0,1,0,0,f,OK
25,5,5,1,202,208,8,zip tie,8,visr,study,Not Studied,name,present,f,2397424.80561752,2397429.20839292,4.26958476379514,0,0,0,2,0,0,f,OK
25,5,5,1,20,71,9,briefcase,6,visr,name,CFS,go,absent,briefcase,2397589.05639764,2397595.01124312,5.89697122620419,,NA,1,1,1,0,blanket,Return
25,5,5,1,20,71,9,briefcase,6,visr,noise,CFS,go,absent,\ENTER,2397776.23376451,2397776.93414405,0.557070750743151,,4,1,1,1,0,Return,OK
25,5,5,1,20,71,9,briefcase,6,visr,study,CFS,go,absent,j,2397347.43760259,2397349.13866007,1.57028764067218,2@,2,0.6,1,1,0,j,OK
25,5,5,1,20,71,9,briefcase,6,visr,study,CFS,go,absent,j,2397430.1789742,2397433.18085228,2.89590993896127,2@,2,0.6,2,1,0,j,OK
25,5,5,1,86,29,10,steering wheel,2,visr,name,CFS,go,present,steering wheel,2397595.05949759,2397613.52276214,18.4048575321212,,NA,1,1,1,0,kettlebell,Return
25,5,5,1,86,29,10,steering wheel,2,visr,noise,CFS,go,present,\ENTER,2397779.835978,2397780.63644031,0.626600156072527,,10,1,1,1,0,Return,OK
25,5,5,1,86,29,10,steering wheel,2,visr,study,CFS,go,present,j,2397350.86973212,2397352.27060379,1.20990033680573,0,8,0.6,1,1,0,f,OK
25,5,5,1,86,29,10,steering wheel,2,visr,study,CFS,go,present,j,2397434.91189082,2397437.01318882,1.98683895170689,2@,8,0.6,2,1,0,j,OK
25,5,5,1,40,88,11,cookie cutter,9,visr,name,Not Studied,go,present,cookie cutter,2397613.56958344,2397633.1349507,19.5095383040607,,NA,1,1,0,0,xray,Return
25,5,5,1,40,88,11,cookie cutter,9,visr,noise,Not Studied,go,present,\ENTER,2397782.75774851,2397783.95850355,1.09656989341602,,7,1,1,0,0,Return,OK
25,5,5,1,40,88,11,cookie cutter,9,visr,study,Not Studied,go,present,f,2397352.62084699,2397357.72401461,4.95453549409285,0,0,0,1,0,0,f,OK
25,5,5,1,40,88,11,cookie cutter,9,visr,study,Not Studied,go,present,f,2397437.89377529,2397442.19642748,4.18066241731867,0,0,0,2,0,0,f,OK
25,5,5,1,131,174,12,glove,1,visr,name,CFS,name,present,glove,2397633.2185485,2397638.36818426,5.07636619592085,,NA,1,1,1,0,shirt,Return
25,5,5,1,131,174,12,glove,1,visr,name,CFS,name,present,glove,2397785.12784919,2397789.88220798,4.70211726194248,,NA,1,2,1,0,shirt,Return
25,5,5,1,131,174,12,glove,1,visr,noise,CFS,name,present,glove,2397784.47512193,2397784.62891833,NaN,,6,1,1,1,0,,
25,5,5,1,131,174,12,glove,1,visr,study,CFS,name,present,j,2397359.00480628,2397360.40568157,1.21841689525172,2@,7,0.6,1,1,0,j,OK
25,5,5,1,131,174,12,glove,1,visr,study,CFS,name,present,j,2397443.51723022,2397446.31898624,2.68496521841735,2@,7,0.6,2,1,0,j,OK
25,5,5,1,2,187,13,backpack,14,visr,name,Not Studied,nogo,absent,backpack,2397638.41202635,2397646.81342474,8.32237987918779,,NA,1,1,0,0,bug,Return
25,5,5,1,2,187,13,backpack,14,visr,noise,Not Studied,nogo,absent,\ENTER,2397791.01294885,2397801.019092,NaN,,0,0,1,0,0,NULL,OK
25,5,5,1,2,187,13,backpack,14,visr,study,Not Studied,nogo,absent,f,2397361.16612948,2397365.16860491,3.84084072336555,0,0,0,1,0,0,f,OK
25,5,5,1,2,187,13,backpack,14,visr,study,Not Studied,nogo,absent,f,2397447.10949188,2397450.61166456,3.34846442379057,0,0,0,2,0,0,f,OK
25,5,5,1,156,150,14,ice tray,15,visr,name,Binocular,go,present,ice tray,2397646.84917044,2397651.65642969,4.75694288872182,,NA,1,1,1,1,ice cube tray,Return
25,5,5,1,156,150,14,ice tray,15,visr,noise,Binocular,go,present,\ENTER,2397803.42061294,2397805.32175687,1.76855788705871,,1,1,1,1,1,Return,OK
25,5,5,1,156,150,14,ice tray,15,visr,study,Binocular,go,present,NA,2397365.82904462,2397370.7320618,NaN,,0,1,1,1,1,NULL,OK
25,5,5,1,156,150,14,ice tray,15,visr,study,Binocular,go,present,NA,2397451.13199081,2397456.03502429,NaN,,0,1,2,1,1,NULL,OK
25,5,5,1,62,123,15,watering pot,3,visr,name,CFS,go,present,watering pot,2397651.72757246,2397656.57946675,4.75827674241737,,NA,1,1,1,0,mug,Return
25,5,5,1,62,123,15,watering pot,3,visr,noise,CFS,go,present,\ENTER,2397808.27360957,2397809.7745305,1.37925744894892,,10,1,1,1,0,Return,OK
25,5,5,1,62,123,15,watering pot,3,visr,study,CFS,go,present,j,2397371.24238913,2397374.24424004,2.84401945350692,2@,2,0.6,1,1,0,j,OK
25,5,5,1,62,123,15,watering pot,3,visr,study,CFS,go,present,j,2397456.5453166,2397458.74667804,2.0481500220485,2@,2,0.6,2,1,0,j,OK
25,5,5,1,186,188,16,lantern,7,visr,name,CFS,nogo,absent,lantern,2397656.60405625,2397698.43547458,41.7593670068309,,NA,1,1,1,0,tea pot,Return
25,5,5,1,186,188,16,lantern,7,visr,noise,CFS,nogo,absent,\ENTER,2397810.9653008,2397820.97147323,NaN,,0,0,1,1,0,NULL,OK
25,5,5,1,186,188,16,lantern,7,visr,study,CFS,nogo,absent,j,2397375.97531511,2397379.17729594,3.05483015486971,0,6,0.6,1,1,0,f,OK
25,5,5,1,186,188,16,lantern,7,visr,study,CFS,nogo,absent,j,2397460.07750626,2397462.47901151,2.29966392600909,0,6,0.6,2,1,0,f,OK
25,5,5,1,125,111,17,cork screw,13,visr,name,Not Studied,go,absent,cork screw,2397698.47798191,2397707.73121513,9.15680367778987,,NA,1,1,0,0,starw,Return
25,5,5,1,125,111,17,cork screw,13,visr,noise,Not Studied,go,absent,\ENTER,2397823.56313784,2397825.06403915,1.37686411989853,,8,1,1,0,0,Return,OK
25,5,5,1,125,111,17,cork screw,13,visr,study,Not Studied,go,absent,f,2397379.73764775,2397384.84081808,4.97215932095423,0,0,0,1,0,0,f,OK
25,5,5,1,125,111,17,cork screw,13,visr,study,Not Studied,go,absent,f,2397462.95932879,2397467.66224353,4.52960224682465,0,0,0,2,0,0,f,OK
25,5,5,1,191,60,18,hose,12,visr,name,Not Studied,go,absent,hose,2397707.75546083,2397711.66367065,3.83115028915927,,NA,1,1,0,0,plate,Return
25,5,5,1,191,60,18,hose,12,visr,noise,Not Studied,go,absent,\ENTER,2397826.58497361,2397827.98587486,1.2188962250948,,2,1,1,0,0,Return,OK
25,5,5,1,191,60,18,hose,12,visr,study,Not Studied,go,absent,f,2397385.32114654,2397390.4243033,4.94828035868704,0,0,0,1,0,0,f,OK
25,5,5,1,191,60,18,hose,12,visr,study,Not Studied,go,absent,f,2397468.04246869,2397473.44579889,5.23015474388376,0,0,0,2,0,0,f,OK
25,6,5,1,128,143,1,life jacket,3,visr,name,CFS,go,present,life jacket,2398005.167834,2398034.28389282,29.0318654808216,,NA,1,1,1,0,towel,Return
25,6,5,1,128,143,1,life jacket,3,visr,noise,CFS,go,present,\ENTER,2398153.77805303,2398154.57853646,0.670665308367461,,6,1,1,1,0,Return,OK
25,6,5,1,128,143,1,life jacket,3,visr,study,CFS,go,present,j,2397831.07777943,2397833.57926964,2.38973630219698,2@,3,0.6,1,1,0,j,OK
25,6,5,1,128,143,1,life jacket,3,visr,study,CFS,go,present,j,2397918.38195625,2397920.28313429,1.75249248556793,2@,3,0.6,2,1,0,j,OK
25,6,5,1,47,31,2,dice,4,visr,name,CFS,nogo,present,dice,2398034.30466852,2398040.60780064,6.2386969588697,,NA,1,1,1,0,napkin,Return
25,6,5,1,47,31,2,dice,4,visr,noise,CFS,nogo,present,\ENTER,2398156.11947631,2398166.12566927,NaN,,0,0,1,1,0,NULL,OK
25,6,5,1,47,31,2,dice,4,visr,study,CFS,nogo,present,j,2397837.26161817,2397838.86261552,1.50148749258369,2@,6,0.6,1,1,0,j,OK
25,6,5,1,47,31,2,dice,4,visr,study,CFS,nogo,present,j,2397921.90414397,2397925.10605507,3.08598267752677,2@,6,0.6,2,1,0,j,OK
25,6,5,1,147,146,3,hole punch,8,visr,name,Not Studied,name,present,hole punch,2398040.66579534,2398053.67593703,12.9327854444273,,NA,1,1,0,0,spoons,Return
25,6,5,1,147,146,3,hole punch,8,visr,name,Not Studied,name,present,hole punch,2398169.91389598,2398180.92488193,10.9571380019188,,NA,1,2,0,0,spoons,Return
25,6,5,1,147,146,3,hole punch,8,visr,noise,Not Studied,name,present,hole punch,2398169.15380877,2398169.30765437,NaN,,8,1,1,0,0,,
25,6,5,1,147,146,3,hole punch,8,visr,study,Not Studied,name,present,f,2397839.71316328,2397843.61552274,3.74579967511818,0,0,0,1,0,0,f,OK
25,6,5,1,147,146,3,hole punch,8,visr,study,Not Studied,name,present,f,2397926.17679548,2397930.77963439,4.44500413257629,0,0,0,2,0,0,f,OK
25,6,5,1,45,165,4,cutting board,7,visr,name,CFS,nogo,absent,cutting board,2398053.77192406,2398060.07988903,6.2422554101795,,NA,1,1,1,0,plate,Return
25,6,5,1,45,165,4,cutting board,7,visr,noise,CFS,nogo,absent,\ENTER,2398182.11561209,2398192.1217978,NaN,,0,0,1,1,0,NULL,OK
25,6,5,1,45,165,4,cutting board,7,visr,study,CFS,nogo,absent,j,2397844.99641348,2397847.79813176,2.67027351353318,2@,8,0.6,1,1,0,j,OK
25,6,5,1,45,165,4,cutting board,7,visr,study,CFS,nogo,absent,j,2397932.55080113,2397934.65203815,1.94277168624103,2@,8,0.6,2,1,0,j,OK
25,6,5,1,135,117,5,earring,2,visr,name,CFS,go,present,earring,2398060.11995534,2398068.47509959,8.26975228777155,,NA,1,1,1,0,unsure,Return
25,6,5,1,135,117,5,earring,2,visr,noise,CFS,go,present,\ENTER,2398194.52332417,2398195.62397622,0.954962302464992,,7,1,1,1,0,Return,OK
25,6,5,1,135,117,5,earring,2,visr,study,CFS,go,present,j,2397849.45915493,2397851.36035742,1.71934205014259,2@,8,0.6,1,1,0,j,OK
25,6,5,1,135,117,5,earring,2,visr,study,CFS,go,present,j,2397936.48315463,2397938.38434505,1.78619559900835,2@,8,0.6,2,1,0,j,OK
25,6,5,1,167,126,6,nail clippers,17,visr,name,Binocular,go,absent,nail clippers,2398068.57623067,2398073.17801614,4.54122660169378,,NA,1,1,1,1,nail clippers,Return
25,6,5,1,167,126,6,nail clippers,17,visr,noise,Binocular,go,absent,\ENTER,2398197.72531285,2398198.82596067,0.936798172537237,,9,1,1,1,1,Return,OK
25,6,5,1,167,126,6,nail clippers,17,visr,study,Binocular,go,absent,NA,2397852.41101276,2397857.31403084,NaN,,0,1,1,1,1,NULL,OK
25,6,5,1,167,126,6,nail clippers,17,visr,study,Binocular,go,absent,NA,2397939.38499311,2397944.28801723,NaN,,0,1,2,1,1,NULL,OK
25,6,5,1,183,185,7,microphone,9,visr,name,Not Studied,go,present,microphone,2398073.23559912,2398084.64512952,11.3371416116133,,NA,1,1,0,0,can opener,Return
25,6,5,1,183,185,7,microphone,9,visr,noise,Not Studied,go,present,\ENTER,2398200.87730904,2398202.27810434,1.26444675726816,,2,1,1,0,0,Return,OK
25,6,5,1,183,185,7,microphone,9,visr,study,Not Studied,go,present,f,2397857.54417382,2397863.04758074,5.40152214467525,0,0,0,1,0,0,f,OK
25,6,5,1,183,185,7,microphone,9,visr,study,Not Studied,go,present,f,2397944.53816106,2397949.64132597,4.94655380491167,0,0,0,2,0,0,f,OK
25,6,5,1,78,98,8,sweater,16,visr,name,Binocular,nogo,present,sweater,2398084.67832463,2398088.02723427,3.27026270749047,,NA,1,1,1,1,sweater,Return
25,6,5,1,78,98,8,sweater,16,visr,noise,Binocular,nogo,present,\ENTER,2398206.48073715,2398216.48695637,NaN,,0,0,1,1,1,NULL,OK
25,6,5,1,78,98,8,sweater,16,visr,study,Binocular,nogo,present,NA,2397863.7080132,2397868.61106751,NaN,,0,1,1,1,1,NULL,OK
25,6,5,1,78,98,8,sweater,16,visr,study,Binocular,nogo,present,NA,2397950.25176926,2397955.15477618,NaN,,0,1,2,1,1,NULL,OK
25,6,5,1,146,147,9,hinge,5,visr,name,CFS,go,absent,hinge,2398088.05410603,2398092.86021736,4.74218930676579,,NA,1,1,1,0,paper,Return
25,6,5,1,146,147,9,hinge,5,visr,noise,CFS,go,absent,\ENTER,2398218.76840515,2398220.76957873,1.8604069231078,,7,1,1,1,0,Return,OK
25,6,5,1,146,147,9,hinge,5,visr,study,CFS,go,absent,j,2397869.86182439,2397872.06319428,2.09933388838544,2@,9,0.6,1,1,0,j,OK
25,6,5,1,146,147,9,hinge,5,visr,study,CFS,go,absent,j,2397956.35555688,2397959.25729333,2.76062238030136,2@,9,0.6,2,1,0,j,OK
25,6,5,1,192,133,10,ladder,15,visr,name,Binocular,go,present,ladder,2398092.91323585,2398096.06227999,3.09079408785328,,NA,1,1,1,1,ladder,Return
25,6,5,1,192,133,10,ladder,15,visr,noise,Binocular,go,present,\ENTER,2398223.59138631,2398226.49315959,2.75699058081955,,8,1,1,1,1,Return,OK
25,6,5,1,192,133,10,ladder,15,visr,study,Binocular,go,present,NA,2397873.29394698,2397878.19700552,NaN,,0,1,1,1,1,NULL,OK
25,6,5,1,192,133,10,ladder,15,visr,study,Binocular,go,present,NA,2397960.2979419,2397965.20100919,NaN,,0,1,2,1,1,NULL,OK
25,6,5,1,206,207,11,frame,12,visr,name,Not Studied,go,absent,frame,2398096.11778688,2398101.52562997,5.35793601954356,,NA,1,1,0,0,book,Return
25,6,5,1,206,207,11,frame,12,visr,noise,Not Studied,go,absent,\ENTER,2398228.73455534,2398230.53563854,1.67767475452274,,9,1,1,0,0,Return,OK
25,6,5,1,206,207,11,frame,12,visr,study,Not Studied,go,absent,f,2397878.46718823,2397883.7704912,5.14942266093567,0,0,0,1,0,0,f,OK
25,6,5,1,206,207,11,frame,12,visr,study,Not Studied,go,absent,f,2397965.4211143,2397969.52366194,3.97442315891385,0,0,0,2,0,0,f,OK
25,6,5,1,184,181,12,mailbox,10,visr,name,Not Studied,go,present,mailbox,2398101.58260684,2398109.24039514,7.58867573924363,,NA,1,1,0,0,blanket,Return
25,6,5,1,184,181,12,mailbox,10,visr,noise,Not Studied,go,present,\ENTER,2398232.62695875,2398234.12782655,1.37708597583696,,6,1,1,0,0,Return,OK
25,6,5,1,184,181,12,mailbox,10,visr,study,Not Studied,go,present,f,2397885.02124929,2397886.32202944,1.11519101681188,2@,0,0,1,0,0,j,OK
25,6,5,1,184,181,12,mailbox,10,visr,study,Not Studied,go,present,f,2397970.2041188,2397973.80634768,3.42315296456218,0,0,0,2,0,0,f,OK
25,6,5,1,13,16,13,binder,13,visr,name,Not Studied,go,absent,binder,2398109.29297413,2398114.54372407,5.1820273604244,,NA,1,1,0,0,book,Return
25,6,5,1,13,16,13,binder,13,visr,noise,Not Studied,go,absent,\ENTER,2398235.5687923,2398237.06969331,1.35507633956149,,1,1,1,0,0,Return,OK
25,6,5,1,13,16,13,binder,13,visr,study,Not Studied,go,absent,f,2397887.70292047,2397893.30637636,5.47311828285456,0,0,0,1,0,0,f,OK
25,6,5,1,13,16,13,binder,13,visr,study,Not Studied,go,absent,f,2397974.39672039,2397978.89953148,4.31018986646086,0,0,0,2,0,0,f,OK
25,6,5,1,166,129,14,nail,6,visr,name,CFS,go,absent,nail,2398114.65244051,2398126.96136413,12.2218461567536,,NA,1,1,1,0,wood,Return
25,6,5,1,166,129,14,nail,6,visr,noise,CFS,go,absent,\ENTER,2398238.93084971,2398241.33234258,2.24081198731437,,6,1,1,1,0,Return,OK
25,6,5,1,166,129,14,nail,6,visr,study,CFS,go,absent,j,2397894.50706649,2397896.20817046,1.55676649091765,2@,3,0.6,1,1,0,j,OK
25,6,5,1,166,129,14,nail,6,visr,study,CFS,go,absent,j,2397979.94012722,2397981.34102304,1.27872221730649,2@,3,0.6,2,1,0,j,OK
25,6,5,1,150,156,15,electric kettle,14,visr,name,Not Studied,nogo,absent,electric kettle,2398126.98682144,2398133.14521826,6.06299959123135,,NA,1,1,0,0,napkin,Return
25,6,5,1,150,156,15,electric kettle,14,visr,noise,Not Studied,nogo,absent,\ENTER,2398242.44301829,2398252.44925441,NaN,,0,0,1,0,0,NULL,OK
25,6,5,1,150,156,15,electric kettle,14,visr,study,Not Studied,nogo,absent,f,2397897.76916973,2397901.77164244,3.84631196642295,0,0,0,1,0,0,f,OK
25,6,5,1,150,156,15,electric kettle,14,visr,study,Not Studied,nogo,absent,f,2397982.13150544,2397987.23469238,4.94297512993217,0,0,0,2,0,0,f,OK
25,6,5,1,30,69,16,cane,18,visr,name,Binocular,nogo,absent,cane,2398133.17167287,2398136.52733116,3.30198481213301,,NA,1,1,1,1,cane,Return
25,6,5,1,30,69,16,cane,18,visr,noise,Binocular,nogo,absent,\ENTER,2398254.23037992,2398264.23656956,NaN,,0,0,1,1,1,NULL,OK
25,6,5,1,30,69,16,cane,18,visr,study,Binocular,nogo,absent,NA,2397902.68218432,2397907.58522535,NaN,,0,1,1,1,1,NULL,OK
25,6,5,1,30,69,16,cane,18,visr,study,Binocular,nogo,absent,NA,2397987.88507189,2397992.78812892,NaN,,0,1,2,1,1,NULL,OK
25,6,5,1,165,45,17,mouse trap,11,visr,name,Not Studied,nogo,present,mouse trap,2398136.57984345,2398142.8812445,6.21351553499699,,NA,1,1,0,0,mouse trap,Return
25,6,5,1,165,45,17,mouse trap,11,visr,noise,Not Studied,nogo,present,\ENTER,2398266.3378917,2398276.34402036,NaN,,0,0,1,0,0,NULL,OK
25,6,5,1,165,45,17,mouse trap,11,visr,study,Not Studied,nogo,present,f,2397907.78534983,2397912.98859297,5.0054081575945,0,0,0,1,0,0,f,OK
25,6,5,1,165,45,17,mouse trap,11,visr,study,Not Studied,nogo,present,f,2397992.9582177,2397998.36156027,5.29954862082377,0,0,0,2,0,0,f,OK
25,6,5,1,58,74,18,cd,1,visr,name,CFS,name,present,cd,2398142.91118088,2398149.46534668,6.49768847087398,,NA,1,1,1,0,bib,Return
25,6,5,1,58,74,18,cd,1,visr,name,CFS,name,present,cd,2398277.74031455,2398283.69869011,5.89279912412167,,NA,1,2,1,0,bib,Return
25,6,5,1,58,74,18,cd,1,visr,noise,CFS,name,present,cd,2398276.94137958,2398277.09458345,NaN,,8,1,1,1,0,,
25,6,5,1,58,74,18,cd,1,visr,study,CFS,name,present,j,2397914.55959568,2397916.96107044,2.25501138251275,2@,7,0.6,1,1,0,j,OK
25,6,5,1,58,74,18,cd,1,visr,study,CFS,name,present,j,2398000.03259896,2398002.83436524,2.60891143186018,2@,7,0.6,2,1,0,j,OK
25,7,5,1,204,205,1,bowtie,13,visr,name,Not Studied,go,absent,bowtie,2398486.6026237,2398502.56448557,15.8816299508326,,NA,1,1,0,0,stripped towl,Return
25,7,5,1,204,205,1,bowtie,13,visr,noise,Not Studied,go,absent,\ENTER,2398657.01033668,2398658.01091985,0.832871711347252,,5,1,1,0,0,Return,OK
25,7,5,1,204,205,1,bowtie,13,visr,study,Not Studied,go,absent,f,2398286.9406805,2398291.74361945,4.66798160411417,0,0,0,1,0,0,f,OK
25,7,5,1,204,205,1,bowtie,13,visr,study,Not Studied,go,absent,f,2398385.50185574,2398392.30606214,6.70083894813433,0,0,0,2,0,0,f,OK
25,7,5,1,102,110,2,saddle,11,visr,name,Not Studied,nogo,present,saddle,2398502.58986923,2398509.64888296,6.97401114040986,,NA,1,1,0,0,vase,Return
25,7,5,1,102,110,2,saddle,11,visr,noise,Not Studied,nogo,present,\ENTER,2398659.51190386,2398669.51805818,NaN,,0,0,1,0,0,NULL,OK
25,7,5,1,102,110,2,saddle,11,visr,study,Not Studied,nogo,present,f,2398292.45408756,2398296.55664394,3.97028697654605,0,0,0,1,0,0,f,OK
25,7,5,1,102,110,2,saddle,11,visr,study,Not Studied,nogo,present,f,2398392.94644695,2398397.24912752,4.10392253706232,0,0,0,2,0,0,f,OK
25,7,5,1,115,118,3,puzzle piece,16,visr,name,Binocular,nogo,present,puzzle piece,2398509.67066169,2398514.62198495,4.85284178098664,,NA,1,1,1,1,puzzle piece,Return
25,7,5,1,115,118,3,puzzle piece,16,visr,noise,Binocular,nogo,present,\ENTER,2398672.00964697,2398682.01590723,NaN,,0,0,1,1,1,NULL,OK
25,7,5,1,115,118,3,puzzle piece,16,visr,study,Binocular,nogo,present,NA,2398297.39713332,2398302.30019638,NaN,,0,1,1,1,1,NULL,OK
25,7,5,1,115,118,3,puzzle piece,16,visr,study,Binocular,nogo,present,NA,2398398.02958112,2398402.93264358,NaN,,0,1,2,1,1,NULL,OK
25,7,5,1,60,191,4,ethernet cable,2,visr,name,CFS,go,present,ethernet cable,2398514.70978352,2398526.01909925,11.2290590461344,,NA,1,1,1,0,wires,Return
25,7,5,1,60,191,4,ethernet cable,2,visr,noise,CFS,go,present,\ENTER,2398684.51739986,2398685.71811777,1.04419132415205,,8,1,1,1,0,Return,OK
25,7,5,1,60,191,4,ethernet cable,2,visr,study,CFS,go,present,j,2398303.2407972,2398305.34209097,1.99103399412706,2@,6,0.6,1,1,0,j,OK
25,7,5,1,60,191,4,ethernet cable,2,visr,study,CFS,go,present,j,2398403.81319443,2398405.41416855,1.41278760554269,2@,6,0.6,2,1,0,j,OK
25,7,5,1,153,8,5,knife,9,visr,name,Not Studied,go,present,knife,2398526.12532546,2398535.13471798,8.92505519231781,,NA,1,1,0,0,flute,Return
25,7,5,1,153,8,5,knife,9,visr,noise,Not Studied,go,present,\ENTER,2398687.27910284,2398689.88071476,2.44220572663471,,2,1,1,0,0,Return,OK
25,7,5,1,153,8,5,knife,9,visr,study,Not Studied,go,present,f,2398306.86303781,2398311.96620694,4.97641443088651,0,0,0,1,0,0,f,OK
25,7,5,1,153,8,5,knife,9,visr,study,Not Studied,go,present,f,2398407.15529325,2398411.75813638,4.42235850868747,0,0,0,2,0,0,f,OK
25,7,5,1,100,124,6,satellite,8,visr,name,Not Studied,name,present,satellite,2398535.24657964,2398546.60181264,11.283121609129,,NA,1,1,0,0,solar panels,Return
25,7,5,1,100,124,6,satellite,8,visr,name,Not Studied,name,present,satellite,2398691.07476129,2398695.62429466,4.45410144049674,,NA,1,2,0,0,solar panel,Return
25,7,5,1,100,124,6,satellite,8,visr,noise,Not Studied,name,present,satellite,2398690.42694655,2398690.58112931,NaN,,8,1,1,0,0,,
25,7,5,1,100,124,6,satellite,8,visr,study,Not Studied,name,present,f,2398312.58659301,2398316.78920016,4.05259408662096,0,0,0,1,0,0,f,OK
25,7,5,1,100,124,6,satellite,8,visr,study,Not Studied,name,present,f,2398412.37853694,2398417.48165537,4.97474854812026,0,0,0,2,0,0,f,OK
25,7,5,1,140,144,7,hammer,3,visr,name,CFS,go,present,hammer,2398546.6441947,2398552.29535418,5.55720386421308,,NA,1,1,1,0,hammer,Return
25,7,5,1,140,144,7,hammer,3,visr,noise,CFS,go,present,\ENTER,2398698.29595425,2398699.59676126,1.19273531390354,,8,1,1,1,0,Return,OK
25,7,5,1,140,144,7,hammer,3,visr,study,CFS,go,present,j,2398318.42020756,2398320.22129921,1.61073457635939,2@,9,0.6,1,1,0,j,OK
25,7,5,1,140,144,7,hammer,3,visr,study,CFS,go,present,j,2398419.13270135,2398422.53479036,3.25228209933266,2@,9,0.6,2,1,0,j,OK
25,7,5,1,64,107,8,watch,12,visr,name,Not Studied,go,absent,watch,2398552.3629723,2398554.76688385,2.34226120589301,,NA,1,1,0,0,timer,Return
25,7,5,1,64,107,8,watch,12,visr,noise,Not Studied,go,absent,\ENTER,2398701.20773369,2398702.60863192,1.23284840909764,,2,1,1,0,0,Return,OK
25,7,5,1,64,107,8,watch,12,visr,study,Not Studied,go,absent,f,2398321.74223851,2398326.74534661,4.88038695324212,0,0,0,1,0,0,f,OK
25,7,5,1,64,107,8,watch,12,visr,study,Not Studied,go,absent,f,2398430.05950755,2398435.0625749,4.85281069064513,0,0,0,2,0,0,f,OK
25,7,5,1,39,18,9,computer mouse,17,visr,name,Binocular,go,absent,computer mouse,2398554.81095716,2398573.97877244,19.0692529156804,,NA,1,1,1,1,towels,Return
25,7,5,1,39,18,9,computer mouse,17,visr,noise,Binocular,go,absent,\ENTER,2398704.64990169,2398706.15081507,1.35045237513259,,7,1,1,1,1,Return,OK
25,7,5,1,39,18,9,computer mouse,17,visr,study,Binocular,go,absent,NA,2398327.49581643,2398332.39886711,NaN,,0,1,1,1,1,NULL,OK
25,7,5,1,39,18,9,computer mouse,17,visr,study,Binocular,go,absent,NA,2398435.85306122,2398440.75609803,NaN,,0,1,2,1,1,NULL,OK
25,7,5,1,129,166,10,rope,6,visr,name,CFS,go,absent,rope,2398574.05979128,2398595.97245513,21.858949012123,,NA,1,1,1,0,pins,Return
25,7,5,1,129,166,10,rope,6,visr,noise,CFS,go,absent,\ENTER,2398708.77244173,2398710.57354244,1.6916743288748,,10,1,1,1,0,Return,OK
25,7,5,1,129,166,10,rope,6,visr,study,CFS,go,absent,j,2398333.09929163,2398336.0010462,2.73876970354468,2@,4,0.6,1,1,0,j,OK
25,7,5,1,129,166,10,rope,6,visr,study,CFS,go,absent,j,2398441.436573,2398443.23765952,1.64323574304581,2@,4,0.6,2,1,0,j,OK
25,7,5,1,66,95,11,wallet,15,visr,name,Binocular,go,present,wallet,2398596.04121543,2398599.74476012,3.63732229638845,,NA,1,1,1,1,wallet,Return
25,7,5,1,66,95,11,wallet,15,visr,noise,Binocular,go,present,\ENTER,2398712.28462329,2398713.1851584,0.771325202658772,,6,1,1,1,1,Return,OK
25,7,5,1,66,95,11,wallet,15,visr,study,Binocular,go,present,NA,2398337.38201692,2398342.28502353,NaN,,0,1,1,1,1,NULL,OK
25,7,5,1,66,95,11,wallet,15,visr,study,Binocular,go,present,NA,2398444.91872701,2398449.82176532,NaN,,0,1,2,1,1,NULL,OK
25,7,5,1,175,67,12,pants,4,visr,name,CFS,nogo,present,pants,2398599.78415694,2398606.83919959,6.98199826246127,,NA,1,1,1,0,paper,Return
25,7,5,1,175,67,12,pants,4,visr,noise,CFS,nogo,present,\ENTER,2398714.39592111,2398724.40212644,NaN,,0,0,1,1,0,NULL,OK
25,7,5,1,175,67,12,pants,4,visr,study,CFS,nogo,present,j,2398342.91539675,2398345.71710659,2.61003188090399,2@,3,0.6,1,1,0,j,OK
25,7,5,1,175,67,12,pants,4,visr,study,CFS,nogo,present,j,2398450.42211733,2398453.42396131,2.84105020342395,2@,3,0.6,2,1,0,j,OK
25,7,5,1,194,197,13,pliers,1,visr,name,CFS,name,present,pliers,2398606.87877993,2398616.63525979,9.67079842276871,,NA,1,1,1,0,pliers,Return
25,7,5,1,194,197,13,pliers,1,visr,name,CFS,name,present,pliers,2398725.7288876,2398735.23887263,9.43776105809957,,NA,1,2,1,0,pliers,Return
25,7,5,1,194,197,13,pliers,1,visr,noise,CFS,name,present,pliers,2398725.01852242,2398725.17261794,NaN,,5,1,1,1,0,,
25,7,5,1,194,197,13,pliers,1,visr,study,CFS,name,present,j,2398347.84846201,2398349.34939048,1.33281436096877,2@,7,0.6,1,1,0,j,OK
25,7,5,1,194,197,13,pliers,1,visr,study,CFS,name,present,j,2398456.1357035,2398457.6365701,1.31114490423352,2@,7,0.6,2,1,0,j,OK
25,7,5,1,18,39,14,box,18,visr,name,Binocular,nogo,absent,box,2398616.69579904,2398625.25063976,8.49333556322381,,NA,1,1,1,1,book,Return
25,7,5,1,18,39,14,box,18,visr,noise,Binocular,nogo,absent,\ENTER,2398735.91929176,2398745.92551852,NaN,,0,0,1,1,1,NULL,OK
25,7,5,1,18,39,14,box,18,visr,study,Binocular,nogo,absent,NA,2398350.70021835,2398355.60324882,NaN,,0,1,1,1,1,NULL,OK
25,7,5,1,18,39,14,box,18,visr,study,Binocular,nogo,absent,NA,2398459.49775276,2398464.40078443,NaN,,0,1,2,1,1,NULL,OK
25,7,5,1,141,155,15,purse,5,visr,name,CFS,go,absent,purse,2398625.29434421,2398632.69524093,7.30225798254833,,NA,1,1,1,0,box,Return
25,7,5,1,141,155,15,purse,5,visr,noise,CFS,go,absent,\ENTER,2398749.54772684,2398751.14872751,1.44998336816207,,7,1,1,1,0,Return,OK
25,7,5,1,141,155,15,purse,5,visr,study,CFS,go,absent,j,2398356.74396536,2398359.44567212,2.56475331122056,2@,8,0.6,1,1,0,j,OK
25,7,5,1,141,155,15,purse,5,visr,study,CFS,go,absent,j,2398465.57152913,2398468.27317189,2.52280288469046,2@,8,0.6,2,1,0,j,OK
25,7,5,1,174,131,16,paint tray,10,visr,name,Not Studied,go,present,paint tray,2398632.71835653,2398638.11854753,5.32597274100408,,NA,1,1,0,0,grader,Return
25,7,5,1,174,131,16,paint tray,10,visr,noise,Not Studied,go,present,\ENTER,2398753.6803482,2398755.28129997,1.42909538839012,,3,1,1,0,0,Return,OK
25,7,5,1,174,131,16,paint tray,10,visr,study,Not Studied,go,present,f,2398361.21677546,2398370.2223276,8.84326997213066,0,0,0,1,0,0,f,OK
25,7,5,1,174,131,16,paint tray,10,visr,study,Not Studied,go,present,f,2398469.34385676,2398473.54640747,4.0221665953286,0,0,0,2,0,0,f,OK
25,7,5,1,67,175,17,vest,14,visr,name,Not Studied,nogo,absent,vest,2398638.15503517,2398642.66143881,4.44894290855154,,NA,1,1,0,0,shirt,Return
25,7,5,1,67,175,17,vest,14,visr,noise,Not Studied,nogo,absent,\ENTER,2398756.37199264,2398766.3781702,NaN,,0,0,1,0,0,NULL,OK
25,7,5,1,67,175,17,vest,14,visr,study,Not Studied,nogo,absent,f,2398372.80396099,2398380.10849217,7.15951696317643,0,0,0,1,0,0,f,OK
25,7,5,1,67,175,17,vest,14,visr,study,Not Studied,nogo,absent,f,2398474.06681703,2398477.66903535,3.45894544990733,0,0,0,2,0,0,f,OK
25,7,5,1,73,68,18,toothbrush,7,visr,name,CFS,nogo,absent,toothbrush,2398642.73847058,2398653.04786629,10.21702176705,,NA,1,1,1,0,tooth brush,Return
25,7,5,1,73,68,18,toothbrush,7,visr,noise,CFS,nogo,absent,\ENTER,2398767.53892715,2398777.54510139,NaN,,0,0,1,1,0,NULL,OK
25,7,5,1,73,68,18,toothbrush,7,visr,study,CFS,nogo,absent,j,2398381.41929116,2398383.82078221,2.27998060965911,2@,8,0.6,1,1,0,j,OK
25,7,5,1,73,68,18,toothbrush,7,visr,study,CFS,nogo,absent,j,2398479.19998865,2398481.40135643,2.06958102108911,2@,8,0.6,2,1,0,j,OK
25,8,5,1,90,57,1,speakers,17,visr,name,Binocular,go,absent,speakers,2398987.96196843,2398992.96883057,4.94950796244666,,NA,1,1,1,1,speaker,Return
25,8,5,1,90,57,1,speakers,17,visr,noise,Binocular,go,absent,\ENTER,2399181.66589827,2399182.46640193,0.674553073011339,,6,1,1,1,1,Return,OK
25,8,5,1,90,57,1,speakers,17,visr,study,Binocular,go,absent,NA,2398780.11672892,2398785.01974006,NaN,,0,1,1,1,1,NULL,OK
25,8,5,1,90,57,1,speakers,17,visr,study,Binocular,go,absent,NA,2398869.50216634,2398874.4051627,NaN,,0,1,2,1,1,NULL,OK
25,8,5,1,172,170,2,paint brush,18,visr,name,Binocular,nogo,absent,paint brush,2398993.0173742,2399003.37524382,10.3014780143276,,NA,1,1,1,1,paint brush,Return
25,8,5,1,172,170,2,paint brush,18,visr,noise,Binocular,nogo,absent,\ENTER,2399183.59710748,2399193.60324308,NaN,,0,0,1,1,1,NULL,OK
25,8,5,1,172,170,2,paint brush,18,visr,study,Binocular,nogo,absent,NA,2398785.39000132,2398790.29301126,NaN,,0,1,1,1,1,NULL,OK
25,8,5,1,172,170,2,paint brush,18,visr,study,Binocular,nogo,absent,NA,2398874.71539965,2398879.61844611,NaN,,0,1,2,1,1,NULL,OK
25,8,5,1,71,20,3,semi truck,7,visr,name,CFS,nogo,absent,semi truck,2399003.43965755,2399017.30388583,13.80637092283,,NA,1,1,1,0,fishing pole,Return
25,8,5,1,71,20,3,semi truck,7,visr,noise,CFS,nogo,absent,\ENTER,2399196.11489762,2399206.12105738,NaN,,0,0,1,1,0,NULL,OK
25,8,5,1,71,20,3,semi truck,7,visr,study,CFS,nogo,absent,j,2398791.36369039,2398795.96658515,4.40734775364399,2@,7,0.6,1,1,0,j,OK
25,8,5,1,71,20,3,semi truck,7,visr,study,CFS,nogo,absent,j,2398880.68912344,2398881.68975731,0.900883742142469,2@,7,0.6,2,1,0,j,OK
25,8,5,1,107,64,4,ring,11,visr,name,Not Studied,nogo,present,ring,2399017.36183163,2399021.666623,4.24403931479901,,NA,1,1,0,0,plate,Return
25,8,5,1,107,64,4,ring,11,visr,noise,Not Studied,nogo,present,\ENTER,2399208.31244676,2399218.31862372,NaN,,0,0,1,0,0,NULL,OK
25,8,5,1,107,64,4,ring,11,visr,study,Not Studied,nogo,present,f,2398797.14729858,2398802.55067345,5.23945398628712,0,0,0,1,0,0,f,OK
25,8,5,1,107,64,4,ring,11,visr,study,Not Studied,nogo,present,f,2398882.94053532,2398887.34327118,4.21721555152908,0,0,0,2,0,0,f,OK
25,8,5,1,57,90,5,computer drive,8,visr,name,Not Studied,name,present,computer drive,2399021.72478039,2399039.23752671,17.4160052738152,,NA,1,1,0,0,computer chip,Return
25,8,5,1,57,90,5,computer drive,8,visr,name,Not Studied,name,present,computer drive,2399219.74781359,2399237.71070626,17.8774107610807,,NA,1,2,0,0,computer chip,Return
25,8,5,1,57,90,5,computer drive,8,visr,noise,Not Studied,name,present,computer drive,2399218.91493855,2399219.06913218,NaN,,8,1,1,0,0,,
25,8,5,1,57,90,5,computer drive,8,visr,study,Not Studied,name,present,f,2398803.13102792,2398808.13411731,4.83132385043427,0,0,0,1,0,0,f,OK
25,8,5,1,57,90,5,computer drive,8,visr,study,Not Studied,name,present,f,2398887.95361758,2398892.8566562,4.70772493910044,0,0,0,2,0,0,f,OK
25,8,5,1,7,119,6,battery,10,visr,name,Not Studied,go,present,battery,2399039.33498644,2399048.89351691,9.46120808040723,,NA,1,1,0,0,battery,Return
25,8,5,1,7,119,6,battery,10,visr,noise,Not Studied,go,present,\ENTER,2399239.38171809,2399240.78251732,1.24333360139281,,5,1,1,0,0,Return,OK
25,8,5,1,7,119,6,battery,10,visr,study,Not Studied,go,present,f,2398808.54437032,2398813.8476428,5.15368380770087,0,0,0,1,0,0,f,OK
25,8,5,1,7,119,6,battery,10,visr,study,Not Studied,go,present,f,2398893.41702611,2398897.91980279,4.30803891876712,0,0,0,2,0,0,f,OK
25,8,5,1,185,183,7,lock,16,visr,name,Binocular,nogo,present,lock,2399048.91378792,2399053.11615119,4.13026576256379,,NA,1,1,1,1,lock,Return
25,8,5,1,185,183,7,lock,16,visr,noise,Binocular,nogo,present,\ENTER,2399242.16345755,2399252.16963089,NaN,,0,0,1,1,1,NULL,OK
25,8,5,1,185,183,7,lock,16,visr,study,Binocular,nogo,present,NA,2398814.61813823,2398819.52116568,NaN,,0,1,1,1,1,NULL,OK
25,8,5,1,185,183,7,lock,16,visr,study,Binocular,nogo,present,NA,2398898.66027188,2398903.56332528,NaN,,0,1,2,1,1,NULL,OK
25,8,5,1,154,176,8,ladle,5,visr,name,CFS,go,absent,ladle,2399053.14945979,2399064.4531461,11.2538187927566,,NA,1,1,1,0,knife,Return
25,8,5,1,154,176,8,ladle,5,visr,noise,CFS,go,absent,\ENTER,2399253.84069674,2399255.44166059,1.42348076868802,,5,1,1,1,0,Return,OK
25,8,5,1,154,176,8,ladle,5,visr,study,CFS,go,absent,j,2398820.1215684,2398822.32288758,2.09592605754733,2@,3,0.6,1,1,0,j,OK
25,8,5,1,154,176,8,ladle,5,visr,study,CFS,go,absent,j,2398904.21372441,2398906.31501003,1.92693478148431,2@,3,0.6,2,1,0,j,OK
25,8,5,1,163,161,9,moccasin,13,visr,name,Not Studied,go,absent,moccasin,2399064.51681911,2399073.16858348,8.59794026985765,,NA,1,1,0,0,leather,Return
25,8,5,1,163,161,9,moccasin,13,visr,noise,Not Studied,go,absent,\ENTER,2399256.75250426,2399258.35347052,1.41543689975515,,2,1,1,0,0,Return,OK
25,8,5,1,163,161,9,moccasin,13,visr,study,Not Studied,go,absent,f,2398823.59373013,2398828.79693525,5.04748173663393,0,0,0,1,0,0,f,OK
25,8,5,1,163,161,9,moccasin,13,visr,study,Not Studied,go,absent,f,2398908.15618761,2398914.96037348,6.63188817957416,0,0,0,2,0,0,f,OK
25,8,5,1,69,30,10,umbrella,14,visr,name,Not Studied,nogo,absent,umbrella,2399073.23807818,2399077.7414196,4.42047499539331,,NA,1,1,0,0,book,Return
25,8,5,1,69,30,10,umbrella,14,visr,noise,Not Studied,nogo,absent,\ENTER,2399259.22404389,2399269.23025043,NaN,,0,0,1,0,0,NULL,OK
25,8,5,1,69,30,10,umbrella,14,visr,study,Not Studied,nogo,absent,f,2398829.36726303,2398834.27032579,4.73761544795707,0,0,0,1,0,0,f,OK
25,8,5,1,69,30,10,umbrella,14,visr,study,Not Studied,nogo,absent,f,2398915.51076229,2398920.31369882,4.66902961069718,0,0,0,2,0,0,f,OK
25,8,5,1,155,141,11,lamp,6,visr,name,CFS,go,absent,lamp,2399077.77223798,2399088.22792652,10.3657568255439,,NA,1,1,1,0,vase,Return
25,8,5,1,155,141,11,lamp,6,visr,noise,CFS,go,absent,\ENTER,2399271.6217314,2399272.82249367,1.01743849460036,,5,1,1,1,0,Return,OK
25,8,5,1,155,141,11,lamp,6,visr,study,CFS,go,absent,j,2398835.71119404,2398838.41288752,2.50538521725684,2@,8,0.6,1,1,0,j,OK
25,8,5,1,155,141,11,lamp,6,visr,study,CFS,go,absent,j,2398921.82466122,2398924.52631697,2.54692905861884,0,8,0.6,2,1,0,f,OK
25,8,5,1,14,139,12,binoculars,3,visr,name,CFS,go,present,binoculars,2399088.33436524,2399126.26150045,37.8494167448953,,NA,1,1,1,0,headset,Return
25,8,5,1,14,139,12,binoculars,3,visr,noise,CFS,go,present,\ENTER,2399274.36340726,2399276.26461549,1.76343135070056,,5,1,1,1,0,Return,OK
25,8,5,1,14,139,12,binoculars,3,visr,study,CFS,go,present,j,2398839.77375234,2398841.27465214,1.35475517623127,2@,2,0.6,1,1,0,j,OK
25,8,5,1,14,139,12,binoculars,3,visr,study,CFS,go,present,j,2398925.40685243,2398927.50819449,1.98057989263907,2@,2,0.6,2,1,0,j,OK
25,8,5,1,113,76,13,radio,15,visr,name,Binocular,go,present,radio,2399126.29508162,2399130.14390342,3.78442648518831,,NA,1,1,1,1,radio,Return
25,8,5,1,113,76,13,radio,15,visr,noise,Binocular,go,present,\ENTER,2399277.59544069,2399279.69672842,1.97129121469334,,2,1,1,1,1,Return,OK
25,8,5,1,113,76,13,radio,15,visr,study,Binocular,go,present,NA,2398842.98571035,2398847.88878489,NaN,,0,1,1,1,1,NULL,OK
25,8,5,1,113,76,13,radio,15,visr,study,Binocular,go,present,NA,2398928.63889853,2398933.54193564,NaN,,0,1,2,1,1,NULL,OK
25,8,5,1,143,128,14,high heel,2,visr,name,CFS,go,present,high heel,2399130.20150572,2399135.80743553,5.50964183686301,,NA,1,1,1,0,belt,Return
25,8,5,1,143,128,14,high heel,2,visr,noise,CFS,go,present,\ENTER,2399282.31838798,2399284.21951893,1.74414435680956,,10,1,1,1,0,Return,OK
25,8,5,1,143,128,14,high heel,2,visr,study,CFS,go,present,j,2398849.08953358,2398850.69051887,1.43036374170333,2@,9,0.6,1,1,0,j,OK
25,8,5,1,143,128,14,high heel,2,visr,study,CFS,go,present,j,2398934.8027195,2398937.80455231,2.89599868142977,2@,9,0.6,2,1,0,j,OK
25,8,5,1,200,196,15,cassette tape,12,visr,name,Not Studied,go,absent,cassette tape,2399135.81837138,2399156.33018227,20.4195522549562,,NA,1,1,0,0,ruler,Return
25,8,5,1,200,196,15,cassette tape,12,visr,noise,Not Studied,go,absent,\ENTER,2399285.79052345,2399286.89120749,0.967815770767629,,5,1,1,0,0,Return,OK
25,8,5,1,200,196,15,cassette tape,12,visr,study,Not Studied,go,absent,f,2398851.93129524,2398856.73427523,4.62824279721826,0,0,0,1,0,0,f,OK
25,8,5,1,200,196,15,cassette tape,12,visr,study,Not Studied,go,absent,f,2398939.56570986,2398945.56938724,5.82862354395911,0,0,0,2,0,0,f,OK
25,8,5,1,159,162,16,crowbar,4,visr,name,CFS,nogo,present,crowbar,2399156.34337139,2399164.99554658,8.57406855141744,,NA,1,1,1,0,napkin,Return
25,8,5,1,159,162,16,crowbar,4,visr,noise,CFS,nogo,present,\ENTER,2399287.84179938,2399297.84799717,NaN,,0,0,1,1,0,NULL,OK
25,8,5,1,159,162,16,crowbar,4,visr,study,CFS,nogo,present,j,2398857.55478035,2398859.3558877,1.67665934795514,2@,1,0.6,1,1,0,j,OK
25,8,5,1,159,162,16,crowbar,4,visr,study,CFS,nogo,present,j,2398946.3799037,2398948.78138268,2.2622789060697,2@,1,0.6,2,1,0,j,OK
25,8,5,1,28,137,17,candle,9,visr,name,Not Studied,go,present,candle,2399165.08003784,2399169.63844576,4.50110716791824,,NA,1,1,0,0,candle,Return
25,8,5,1,28,137,17,candle,9,visr,noise,Not Studied,go,present,\ENTER,2399301.63032975,2399302.63094099,0.863090325612575,,8,1,1,0,0,Return,OK
25,8,5,1,28,137,17,candle,9,visr,study,Not Studied,go,present,f,2398860.51661778,2398863.71861128,3.0104613462463,0,0,0,1,0,0,f,OK
25,8,5,1,28,137,17,candle,9,visr,study,Not Studied,go,present,f,2398949.72196116,2398953.22411633,3.39983422681689,0,0,0,2,0,0,f,OK
25,8,5,1,11,103,18,bib,1,visr,name,CFS,name,present,bib,2399169.70176682,2399177.60338193,7.83095348626375,,NA,1,1,1,0,bib,Return
25,8,5,1,11,103,18,bib,1,visr,name,CFS,name,present,bib,2399303.49525439,2399305.89299442,2.34186488343403,,NA,1,2,1,0,bib,Return
25,8,5,1,11,103,18,bib,1,visr,noise,CFS,name,present,bib,2399303.04730727,2399303.20133518,NaN,,4,1,1,1,0,,
25,8,5,1,11,103,18,bib,1,visr,study,CFS,name,present,j,2398865.39963652,2398867.80110916,2.29521291842684,2@,9,0.6,1,1,0,j,OK
25,8,5,1,11,103,18,bib,1,visr,study,CFS,name,present,j,2398954.89519094,2398957.69689413,2.65845778910443,2@,9,0.6,2,1,0,j,OK
25,1,NA,NA,212,215,0,lightswitch,0,instructions,name,CFS,go,present,lightswitch,2395286.99784422,2395326.03291832,38.952597044874,,NA,1,1,1,0, chair,Return
25,1,NA,NA,212,215,0,lightswitch,0,instructions,noise,CFS,go,present,\ENTER,2395532.27096389,2395533.57174766,1.13131044851616,,2,1,1,1,0,Return,OK
25,1,NA,NA,212,215,0,lightswitch,0,instructions,study,CFS,go,present,j,NaN,NaN,NaN,,8,0.6,1,1,0,,
25,1,NA,NA,212,215,0,lightswitch,0,instructions,study,CFS,go,present,j,NaN,NaN,NaN,,8,0.6,2,1,0,,
